VC2Offset , VC2Scale ,VC3Offset , VC3Scale ,N2Offset , N2Scale ,HumiOffset , HumiScale ,CB1Offset , CB1Scale ,CB2Offset , CB2Scale ,CB3Offset , CB3Scale ,VC1Offset , VC1Scale ,
0.000000,1.000000,0.000000,1.000000,0.000000,1.000000,8.702650,3.402600,0.000000,1.000000,0.000000,1.000000,0.000000,1.000000,0.000000,1.000000
Time,Elapsed,Set T,Meas T,Pump,VC2,VC3,N2,Humi,CB1,CB2,CB3,VC1,DP,VC2_raw,VC3_raw,N2_raw,Humi_raw,CB1_raw,CB2_raw,CB3_raw,VC1_raw,Col 1,Col 2,N2_Flow,Vacuum,NTC_CH3_RAW,NTC_CH7_RAW,NTC_CH3,NTC_CH7,
15/09/2017 10:03,60.118439,-40.000000,-39.990000,5.000000,29.967894,30.157661,28.544006,5.691633,29.923744,30.128513,30.256031,29.853836,-8.687403,29.967894,30.157661,28.544006,10.375381,29.923744,30.128513,30.256031,29.853836,0.000000,0.000000,7.070411,0.007093,0.000058,-0.002519,-128.045028,NaN
15/09/2017 10:04,120.170873,-40.000000,-39.940000,5.000000,29.950382,30.143963,28.515453,5.171931,29.902552,30.118460,30.242332,29.836323,-9.792104,29.950382,30.143963,28.515453,10.222644,29.902552,30.118460,30.242332,29.836323,0.000000,0.000000,7.043448,0.007093,-0.001230,-0.001230,NaN,NaN
15/09/2017 10:05,180.222308,-40.000000,-39.990000,5.000000,29.945448,30.135435,28.525240,4.753125,29.908655,30.117218,30.241091,29.838749,-10.732453,29.945448,30.135435,28.525240,10.099560,29.908655,30.117218,30.241091,29.838749,0.000000,0.000000,7.169275,0.007093,-0.001230,0.000058,NaN,-128.045028
15/09/2017 10:06,240.273743,-40.000000,-40.040000,5.000000,29.955519,30.152693,28.498514,4.387053,29.918726,30.119900,30.243774,29.841459,-11.645705,29.955519,30.152693,28.498514,9.991974,29.918726,30.119900,30.243774,29.841459,0.000000,0.000000,7.037456,0.007093,-0.001230,0.000058,NaN,-128.043548
15/09/2017 10:07,300.327178,-40.000000,-39.870000,5.000000,29.855343,27.522669,26.095100,4.043288,21.580599,21.569561,24.730078,29.678738,-14.335937,29.855343,27.522669,26.095100,9.890944,21.580599,21.569561,24.730078,29.678738,0.000000,0.000000,7.058427,0.007093,-0.001230,-0.001230,NaN,NaN
15/09/2017 10:08,360.380612,-40.000000,-39.020000,5.000000,29.251408,21.477051,23.544817,3.966726,12.513927,11.800456,19.202728,28.600174,-16.442222,29.251408,21.477051,23.544817,9.868443,12.513927,11.800456,19.202728,28.600174,0.000000,0.000000,7.049439,0.007093,0.000058,-0.002519,-128.043548,NaN
15/09/2017 10:09,420.431047,-40.000000,-34.870000,5.000000,28.298630,16.170631,22.102690,3.940870,6.143555,4.852371,14.238312,26.940966,-17.587526,28.298630,16.170631,22.102690,9.860844,6.143555,4.852371,14.238312,26.940966,0.000000,0.000000,7.034460,0.007093,-0.001230,-0.001230,NaN,NaN
15/09/2017 10:10,480.483482,-40.000000,-29.110000,5.000000,27.074442,11.344574,20.657742,3.974332,1.392735,-0.235471,9.545210,24.962521,-18.577660,27.074442,11.344574,20.657742,9.870678,1.392735,-0.235471,9.545210,24.962521,0.000000,0.000000,7.049439,0.007093,0.000058,-0.001230,-128.043548,NaN
15/09/2017 10:11,541.433968,-40.000000,-30.300000,5.000000,25.477097,6.275425,18.564230,4.079793,-2.573824,-4.402258,4.552595,22.467430,-19.872589,25.477097,6.275425,18.564230,9.901672,-2.573824,-4.402258,4.552595,22.467430,0.000000,0.000000,7.058427,0.007415,-0.001230,-0.001230,NaN,NaN
15/09/2017 10:12,601.490403,-40.000000,-29.010000,5.000000,23.991676,2.568062,18.004141,4.160918,-4.990411,-6.822646,0.961590,20.290300,-20.088775,23.991676,2.568062,18.004141,9.925514,-4.990411,-6.822646,0.961590,20.290300,0.000000,0.000000,6.788797,0.007093,-0.001230,-0.001230,NaN,NaN
15/09/2017 10:13,661.539838,-40.000000,-28.530000,5.000000,22.495506,-0.552927,17.139631,4.206042,-6.714861,-8.516685,-2.024037,18.161531,-20.628272,22.495506,-0.552927,17.139631,9.938776,-6.714861,-8.516685,-2.024037,18.161531,0.000000,0.000000,7.010493,0.007415,-0.001230,-0.001230,NaN,NaN
15/09/2017 10:14,721.597273,-40.000000,-28.200000,5.000000,20.995501,-3.212662,15.609799,4.295279,-8.082148,-9.804145,-4.539321,16.092878,-21.567403,20.995501,-3.212662,15.609799,9.965002,-8.082148,-9.804145,-4.539321,16.092878,0.000000,0.000000,6.974542,0.007093,-0.001230,-0.001230,NaN,NaN
15/09/2017 10:15,781.647707,-40.000000,-27.870000,5.000000,19.467188,-5.489466,14.576930,4.373363,-9.248969,-10.885686,-6.702086,14.078987,-22.165231,19.467188,-5.489466,14.576930,9.987950,-9.248969,-10.885686,-6.702086,14.078987,0.000000,0.000000,6.950575,0.007093,-0.001230,-0.002519,NaN,NaN
15/09/2017 10:16,841.696142,-40.000000,-27.720000,5.000000,17.967396,-7.400023,13.783178,4.466656,-10.224029,-11.768190,-8.536616,12.185298,-22.552512,17.967396,-7.400023,13.783178,10.015368,-10.224029,-11.768190,-8.536616,12.185298,0.000000,0.000000,6.956567,0.007093,0.000058,-0.001230,-128.045028,NaN
15/09/2017 10:17,901.749577,-40.000000,-27.510000,5.000000,16.539190,-9.032078,12.336393,4.527499,-11.059186,-12.487535,-10.097944,10.404074,-23.516938,16.539190,-9.032078,12.336393,10.033250,-11.059186,-12.487535,-10.097944,10.404074,0.000000,0.000000,6.956567,0.007093,-0.001230,-0.001230,NaN,NaN
15/09/2017 10:18,961.802012,-40.000000,-27.470000,5.000000,15.123306,-10.437752,11.139754,4.564511,-11.808196,-13.128453,-11.472341,8.707747,-24.348254,15.123306,-10.437752,11.139754,10.044127,-11.808196,-13.128453,-11.472341,8.707747,0.000000,0.000000,6.923612,0.007093,-0.001230,-0.001230,NaN,NaN
15/09/2017 10:19,1021.856447,-40.000000,-27.420000,5.000000,13.733995,-11.715055,10.333855,4.569583,-12.506438,-13.707024,-12.691737,7.086739,-24.953190,13.733995,-11.715055,10.333855,10.045618,-12.506438,-13.707024,-12.691737,7.086739,0.000000,0.000000,6.926608,0.007093,-0.001230,-0.001230,NaN,NaN
15/09/2017 10:20,1081.907882,-40.000000,-27.400000,5.000000,12.406852,-12.827402,9.777420,4.555893,-13.143955,-14.217149,-13.750039,5.588580,-25.408820,12.406852,-12.827402,9.777420,10.041595,-13.143955,-14.217149,-13.750039,5.588580,0.000000,0.000000,6.866690,0.007093,-0.001230,-0.001230,NaN,NaN
15/09/2017 10:21,1141.961317,-40.000000,-27.380000,5.000000,11.134007,-13.763672,8.889614,4.556399,-13.721207,-14.686308,-14.663144,4.186552,-26.087267,11.134007,-13.763672,8.889614,10.041743,-13.721207,-14.686308,-14.663144,4.186552,0.000000,0.000000,6.878674,0.007415,-0.001230,-0.001230,NaN,NaN
15/09/2017 10:22,1202.009751,-40.000000,-27.370000,5.000000,9.906978,-14.651377,8.071545,4.515837,-14.261477,-15.126207,-15.485225,2.873029,-26.802236,9.906978,-14.651377,8.071545,10.029822,-14.261477,-15.126207,-15.485225,2.873029,0.000000,0.000000,6.890657,0.007093,-0.001230,-0.002519,NaN,NaN
15/09/2017 10:23,1262.061186,-40.000000,-27.430000,5.000000,8.693340,-15.397748,6.861662,4.480853,-14.787804,-15.540584,-16.220015,1.610597,-27.805567,8.693340,-15.397748,6.861662,10.019541,-14.787804,-15.540584,-16.220015,1.610597,0.000000,0.000000,6.854707,0.007093,-0.001230,-0.001230,NaN,NaN
15/09/2017 10:24,1322.113621,-40.000000,-27.460000,5.000000,7.533999,-16.076693,6.513064,4.435728,-15.269869,-15.929996,-16.879656,0.455010,-28.171555,7.533999,-16.076693,6.513064,10.006279,-15.269869,-15.929996,-16.879656,0.455010,0.000000,0.000000,6.881670,0.007093,-0.001230,-0.002519,NaN,NaN
15/09/2017 10:25,1382.164055,-40.000000,-27.460000,5.000000,6.402936,-16.699532,6.083894,4.391110,-15.757593,-16.309631,-17.479334,-0.665670,-28.598714,6.402936,-16.699532,6.083894,9.993166,-15.757593,-16.309631,-17.479334,-0.665670,0.000000,0.000000,6.884665,0.007093,-0.001230,-0.001230,NaN,NaN
15/09/2017 10:26,1442.217490,-40.000000,-27.500000,5.000000,5.310126,-17.256004,5.238811,4.352066,-16.205975,-16.676945,-18.028086,-1.719200,-29.332470,5.310126,-17.256004,5.238811,9.981691,-16.205975,-16.676945,-18.028086,-1.719200,0.000000,0.000000,6.872682,0.007093,-0.001230,-0.001230,NaN,NaN
15/09/2017 10:27,1502.268925,-40.000000,-27.600000,5.000000,4.274201,-17.769413,4.979848,4.328238,-16.619013,-17.012774,-18.506752,-2.703717,-29.583795,4.274201,-17.769413,4.979848,9.974689,-16.619013,-17.012774,-18.506752,-2.703717,0.000000,0.000000,6.866690,0.007415,-0.001230,-0.001230,NaN,NaN
15/09/2017 10:28,1562.319359,-40.000000,-27.650000,5.000000,3.266440,-18.215252,4.324910,4.298323,-17.037828,-17.342800,-18.975752,-3.644505,-30.152092,3.266440,-18.215252,4.324910,9.965897,-17.037828,-17.342800,-18.975752,-3.644505,0.000000,0.000000,6.818756,0.007093,-0.001230,-0.001230,NaN,NaN
15/09/2017 10:29,1622.372795,-40.000000,-27.700000,5.000000,2.290143,-18.659613,3.787766,4.271451,-17.435863,-17.671349,-19.385368,-4.523016,-30.623573,2.290143,-18.659613,3.787766,9.957999,-17.435863,-17.671349,-19.385368,-4.523016,0.000000,0.000000,6.824748,0.007093,-0.001230,-0.001230,NaN,NaN
15/09/2017 10:30,1682.422229,-40.000000,-27.840000,5.000000,1.356283,-19.056465,2.981523,4.236973,-17.824995,-17.983273,-19.755198,-5.354747,-31.318429,1.356283,-19.056465,2.981523,9.947866,-17.824995,-17.983273,-19.755198,-5.354747,0.000000,0.000000,6.869686,0.007093,-0.001230,-0.001230,NaN,NaN
15/09/2017 10:31,1742.472664,-40.000000,-27.940000,5.000000,0.471237,-19.399252,2.730808,4.225817,-18.171644,-18.275875,-20.104002,-6.137043,-31.535546,0.471237,-19.399252,2.730808,9.944588,-18.171644,-18.275875,-20.104002,-6.137043,0.000000,0.000000,6.839727,0.007415,-0.001230,-0.001230,NaN,NaN
15/09/2017 10:32,1802.522099,-40.000000,-28.000000,5.000000,-0.411347,-19.753483,2.281298,4.201986,-18.525873,-18.579920,-20.453901,-6.896393,-31.933516,-0.411347,-19.753483,2.281298,9.937584,-18.525873,-18.579920,-20.453901,-6.896393,0.000000,0.000000,6.857702,0.007093,-0.001230,-0.001230,NaN,NaN
15/09/2017 10:33,1862.571533,-40.000000,-28.000000,5.000000,-1.267618,-20.088297,2.088910,4.173086,-18.882021,-18.874300,-20.786049,-7.608213,-32.146120,-1.267618,-20.088297,2.088910,9.929090,-18.882021,-18.874300,-20.786049,-7.608213,0.000000,0.000000,6.800780,0.007415,-0.001230,-0.001230,NaN,NaN
15/09/2017 10:34,1922.620968,-40.000000,-28.070000,5.000000,-2.069371,-20.359966,1.293500,4.159905,-19.194386,-19.132618,-21.053776,-8.246511,-32.785274,-2.069371,-20.359966,1.293500,9.925217,-19.194386,-19.132618,-21.053776,-8.246511,0.000000,0.000000,6.809768,0.007093,-0.001230,-0.001230,NaN,NaN
15/09/2017 10:35,1982.671402,-40.000000,-28.160000,5.000000,-2.857082,-20.632841,1.018672,4.132018,-19.519510,-19.415279,-21.342421,-8.885970,-33.058973,-2.857082,-20.632841,1.018672,9.917021,-19.519510,-19.415279,-21.342421,-8.885970,0.000000,0.000000,6.821752,0.007093,-0.001230,-0.001230,NaN,NaN
15/09/2017 10:36,2042.723837,-40.000000,-28.280000,5.000000,-3.599766,-20.910269,0.626904,4.101596,-19.814350,-19.679237,-21.600136,-9.476602,-33.428253,-3.599766,-20.910269,0.626904,9.908080,-19.814350,-19.679237,-21.600136,-9.476602,0.000000,0.000000,6.824748,0.007415,-0.001230,-0.001230,NaN,NaN
15/09/2017 10:37,2102.775272,-40.000000,-28.380000,5.000000,-4.313045,-21.161144,0.091513,4.104131,-20.100718,-19.924913,-21.827360,-10.026835,-33.832724,-4.313045,-21.161144,0.091513,9.908825,-20.100718,-19.924913,-21.827360,-10.026835,0.000000,0.000000,6.839727,0.007093,-0.001230,0.000058,NaN,-128.043548
15/09/2017 10:38,2162.826706,-40.000000,-28.480000,5.000000,-4.996823,-21.389311,-0.347813,4.088412,-20.360420,-20.151487,-22.039759,-10.555244,-34.205162,-4.996823,-21.389311,-0.347813,9.904205,-20.360420,-20.151487,-22.039759,-10.555244,0.000000,0.000000,6.884665,0.007415,-0.001230,-0.001230,NaN,NaN
15/09/2017 10:39,2222.875141,-40.000000,-28.510000,5.000000,-5.687315,-21.636265,-1.232172,4.075737,-20.642855,-20.394501,-22.270945,-11.086612,-34.912071,-5.687315,-21.636265,-1.232172,9.900480,-20.642855,-20.394501,-22.270945,-11.086612,0.000000,0.000000,6.788797,0.007093,-0.001230,-0.001230,NaN,NaN
15/09/2017 10:40,2282.926576,-40.000000,-28.670000,5.000000,-6.330875,-21.822723,-0.910197,4.065597,-20.904213,-20.632208,-22.477114,-11.566457,-34.688164,-6.330875,-21.822723,-0.910197,9.897500,-20.904213,-20.632208,-22.477114,-11.566457,0.000000,0.000000,6.824748,0.007093,-0.001230,-0.001230,NaN,NaN
15/09/2017 10:41,2342.976010,-40.000000,-28.680000,5.000000,-6.953835,-22.058777,-1.392509,4.056472,-21.156034,-20.860378,-22.669804,-12.025382,-35.078758,-6.953835,-22.058777,-1.392509,9.894818,-21.156034,-20.860378,-22.669804,-12.025382,0.000000,0.000000,6.767826,0.007093,-0.001230,-0.002519,NaN,NaN
15/09/2017 10:42,2403.025445,-40.000000,-28.830000,5.000000,-7.537028,-22.257534,-1.732419,4.046838,-21.386328,-21.067017,-22.840965,-12.455503,-35.361365,-7.537028,-22.257534,-1.732419,9.891987,-21.386328,-21.067017,-22.840965,-12.455503,0.000000,0.000000,6.785801,0.007093,-0.002519,0.000058,NaN,-128.045028
15/09/2017 10:43,2463.078880,-40.000000,-28.790000,5.000000,-8.117603,-22.422039,-2.092517,4.038725,-21.609964,-21.278828,-23.009411,-12.863664,-35.656050,-8.117603,-22.422039,-2.092517,9.889603,-21.609964,-21.278828,-23.009411,-12.863664,0.000000,0.000000,6.773817,0.007093,-0.001230,-0.001230,NaN,NaN
15/09/2017 10:44,2523.129315,-40.000000,-28.910000,5.000000,-8.673893,-22.596836,-2.333297,4.029091,-21.851778,-21.500931,-23.196035,-13.281904,-35.862684,-8.673893,-22.596836,-2.333297,9.886771,-21.851778,-21.500931,-23.196035,-13.281904,0.000000,0.000000,6.779809,0.007093,-0.001230,-0.001230,NaN,NaN
15/09/2017 10:45,2583.179749,-40.000000,-29.010000,5.000000,-9.199795,-22.787426,-2.574099,4.027063,-22.058136,-21.679693,-23.351147,-13.653845,-36.052077,-9.199795,-22.787426,-2.574099,9.886175,-22.058136,-21.679693,-23.351147,-13.653845,0.000000,0.000000,6.779809,0.007093,-0.002519,-0.001230,NaN,NaN
15/09/2017 10:46,2643.230184,-40.000000,-29.080000,5.000000,-9.729494,-22.946476,-3.088593,4.009825,-22.268433,-21.889990,-23.510197,-14.025780,-36.486119,-9.729494,-22.946476,-3.088593,9.881109,-22.268433,-21.889990,-23.510197,-14.025780,0.000000,0.000000,6.746854,0.007415,-0.001230,-0.001230,NaN,NaN
15/09/2017 10:47,2703.281619,-40.000000,-29.160000,5.000000,-10.220901,-23.105671,-3.329533,4.005263,-22.459166,-22.072838,-23.649681,-14.359254,-36.681446,-10.220901,-23.105671,-3.329533,9.879768,-22.459166,-22.072838,-23.649681,-14.359254,0.000000,0.000000,6.758838,0.007415,-0.001230,-0.001230,NaN,NaN
15/09/2017 10:48,2763.331053,-40.000000,-29.230000,5.000000,-10.716352,-23.276529,-3.585522,4.014388,-22.685213,-22.275234,-23.820539,-14.708010,-36.857341,-10.716352,-23.276529,-3.585522,9.882450,-22.685213,-22.275234,-23.820539,-14.708010,0.000000,0.000000,6.746854,0.007093,-0.001230,-0.001230,NaN,NaN
15/09/2017 10:49,2823.383488,-40.000000,-29.320000,5.000000,-11.192821,-23.439829,-3.708777,4.015910,-22.872164,-22.462185,-23.960186,-15.041645,-36.948577,-11.192821,-23.439829,-3.708777,9.882897,-22.872164,-22.462185,-23.960186,-15.041645,0.000000,0.000000,6.743859,0.007415,-0.001230,0.000058,NaN,-128.043548
15/09/2017 10:50,2883.434923,-40.000000,-29.380000,5.000000,-11.641807,-23.579004,-4.314347,4.011344,-23.050762,-22.632900,-24.091478,-15.332353,-37.424200,-11.641807,-23.579004,-4.314347,9.881556,-23.050762,-22.632900,-24.091478,-15.332353,0.000000,0.000000,6.740863,0.007093,-0.001230,-0.001230,NaN,NaN
15/09/2017 10:51,2943.487358,-40.000000,-29.540000,5.000000,-12.098673,-23.745941,-4.441109,4.005769,-23.253178,-22.835314,-24.250530,-15.654105,-37.534196,-12.098673,-23.745941,-4.441109,9.879917,-23.253178,-22.835314,-24.250530,-15.654105,0.000000,0.000000,6.713900,0.007093,-0.001230,-0.001230,NaN,NaN
15/09/2017 10:52,3003.538793,-40.000000,-29.520000,5.000000,-12.520636,-23.865406,-4.738771,4.018950,-23.419949,-22.990259,-24.362112,-15.921652,-37.733412,-12.520636,-23.865406,-4.738771,9.883791,-23.419949,-22.990259,-24.362112,-15.921652,0.000000,0.000000,6.752846,0.007415,-0.002519,-0.002519,NaN,NaN
15/09/2017 10:53,3063.590227,-40.000000,-29.630000,5.000000,-12.946600,-24.008671,-5.104998,4.011344,-23.590809,-23.161118,-24.501434,-16.212502,-38.032150,-12.946600,-24.008671,-5.104998,9.881556,-23.590809,-23.161118,-24.501434,-16.212502,0.000000,0.000000,6.722887,0.007093,-0.001230,-0.001230,NaN,NaN
15/09/2017 10:54,3123.644662,-40.000000,-29.700000,5.000000,-13.338139,-24.132549,-5.300478,4.026050,-23.754108,-23.324417,-24.625313,-16.476648,-38.149667,-13.338139,-24.132549,-5.300478,9.885878,-23.754108,-23.324417,-24.625313,-16.476648,0.000000,0.000000,6.728879,0.007415,-0.001230,0.000058,NaN,-128.043548
15/09/2017 10:55,3183.694097,-40.000000,-29.840000,5.000000,-13.732639,-24.271278,-5.464663,4.032641,-23.924374,-23.490742,-24.756157,-16.732174,-38.261357,-13.732639,-24.271278,-5.464663,9.887815,-23.924374,-23.490742,-24.756157,-16.732174,0.000000,0.000000,6.725883,0.007093,-0.001230,-0.002519,NaN,NaN
15/09/2017 10:56,3243.749532,-40.000000,-29.860000,5.000000,-14.115237,-24.417561,-5.715961,4.030613,-24.082483,-23.656734,-24.886673,-16.991238,-38.459345,-14.115237,-24.417561,-5.715961,9.887218,-24.082483,-23.656734,-24.886673,-16.991238,0.000000,0.000000,6.722887,0.007415,-0.001230,0.000058,NaN,-128.045028
15/09/2017 10:57,3303.799966,-40.000000,-29.940000,5.000000,-14.486295,-24.540236,-6.199180,4.037713,-24.232752,-23.810946,-24.997520,-17.234901,-38.815795,-14.486295,-24.540236,-6.199180,9.889305,-24.232752,-23.810946,-24.997520,-17.234901,0.000000,0.000000,6.743859,0.007415,-0.001230,-0.001230,NaN,NaN
15/09/2017 10:58,3363.855402,-40.000000,-29.980000,5.000000,-14.818267,-24.638765,-6.157344,4.049881,-24.382530,-23.960724,-25.111818,-17.451063,-38.756672,-14.818267,-24.638765,-6.157344,9.892881,-24.382530,-23.960724,-25.111818,-17.451063,0.000000,0.000000,6.749850,0.007415,-0.001230,-0.001230,NaN,NaN
15/09/2017 10:59,3423.908836,-40.000000,-30.080000,5.000000,-15.173383,-24.784582,-6.313157,4.055962,-24.536228,-24.118364,-25.230040,-17.690367,-38.863358,-15.173383,-24.784582,-6.313157,9.894669,-24.536228,-24.118364,-25.230040,-17.690367,0.000000,0.000000,6.725883,0.007093,-0.001230,-0.001230,NaN,NaN
15/09/2017 11:00,3483.971272,-40.000000,-30.170000,5.000000,-15.500594,-24.886133,-6.639161,4.063569,-24.681143,-24.259338,-25.339476,-17.909487,-39.098001,-15.500594,-24.886133,-6.639161,9.896904,-24.681143,-24.259338,-25.339476,-17.909487,0.000000,0.000000,6.728879,0.007415,-0.001230,-0.001230,NaN,NaN
15/09/2017 11:01,3544.022707,-40.000000,-30.220000,5.000000,-15.819345,-24.994814,-6.865602,4.075737,-24.813478,-24.399555,-25.444216,-18.112425,-39.246044,-15.819345,-24.994814,-6.865602,9.900480,-24.813478,-24.399555,-25.444216,-18.112425,0.000000,0.000000,6.719891,0.007093,-0.001230,-0.001230,NaN,NaN
15/09/2017 11:02,3604.074141,-40.000000,-30.240000,5.000000,-16.137774,-25.122879,-7.072722,4.065597,-24.949427,-24.543388,-25.552568,-18.311182,-39.428005,-16.137774,-25.122879,-7.072722,9.897500,-24.949427,-24.543388,-25.552568,-18.311182,0.000000,0.000000,6.728879,0.006771,-0.001230,-0.001230,NaN,NaN
15/09/2017 11:03,3664.125576,-40.000000,-30.320000,5.000000,-16.422844,-25.216875,-7.380035,4.102612,-25.063133,-24.668921,-25.646564,-18.503601,-39.584751,-16.422844,-25.216875,-7.380035,9.908379,-25.063133,-24.668921,-25.646564,-18.503601,0.000000,0.000000,6.719891,0.007093,-0.001230,0.000058,NaN,-128.043548
15/09/2017 11:04,3724.174011,-40.000000,-30.400000,5.000000,-16.719952,-25.334993,-7.417909,4.110725,-25.212786,-24.814634,-25.768625,-18.708059,-39.596475,-16.719952,-25.334993,-7.417909,9.910763,-25.212786,-24.814634,-25.768625,-18.708059,0.000000,0.000000,6.722887,0.007415,-0.001230,-0.001230,NaN,NaN
15/09/2017 11:05,3784.233446,-40.000000,-30.510000,5.000000,-16.986637,-25.429928,-7.669109,4.117821,-25.335318,-24.948990,-25.875387,-18.870514,-39.775267,-16.986637,-25.429928,-7.669109,9.912848,-25.335318,-24.948990,-25.875387,-18.870514,0.000000,0.000000,6.713900,0.007093,-0.001230,-0.001230,NaN,NaN
15/09/2017 11:06,3844.288881,-40.000000,-30.510000,5.000000,-17.257343,-25.564447,-7.833037,4.141652,-25.465895,-25.079569,-25.970484,-19.048573,-39.850873,-17.257343,-25.564447,-7.833037,9.919852,-25.465895,-25.079569,-25.970484,-19.048573,0.000000,0.000000,6.710904,0.007093,-0.001230,-0.001230,NaN,NaN
15/09/2017 11:07,3904.340315,-40.000000,-30.610000,5.000000,-17.521252,-25.648661,-8.100507,4.145709,-25.581646,-25.195318,-26.062584,-19.223690,-40.049070,-17.521252,-25.648661,-8.100507,9.921044,-25.581646,-25.195318,-26.062584,-19.223690,0.000000,0.000000,6.710904,0.007093,-0.001230,0.000058,NaN,-128.045028
15/09/2017 11:08,3964.395751,-40.000000,-30.700000,5.000000,-17.766617,-25.741533,-8.209069,4.168524,-25.698172,-25.331554,-26.163338,-19.387985,-40.084560,-17.766617,-25.741533,-8.209069,9.927750,-25.698172,-25.331554,-26.163338,-19.387985,0.000000,0.000000,6.764830,0.007093,-0.001230,-0.001230,NaN,NaN
15/09/2017 11:09,4024.446185,-40.000000,-30.740000,5.000000,-18.001179,-25.823380,-8.405831,4.175115,-25.823380,-25.448877,-26.245182,-19.537621,-40.222910,-18.001179,-25.823380,-8.405831,9.929687,-25.823380,-25.448877,-26.245182,-19.537621,0.000000,0.000000,6.695924,0.007093,-0.001230,-0.001230,NaN,NaN
15/09/2017 11:10,4084.500620,-40.000000,-30.870000,5.000000,-18.248566,-25.945911,-8.714055,4.185761,-25.945911,-25.579296,-26.348005,-19.707800,-40.439129,-18.248566,-25.945911,-8.714055,9.932816,-25.945911,-25.579296,-26.348005,-19.707800,0.000000,0.000000,6.692928,0.007415,-0.001230,-0.002519,NaN,NaN
15/09/2017 11:11,4144.555055,-40.000000,-30.880000,5.000000,-18.484972,-26.021749,-8.939239,4.205030,-26.053288,-25.710325,-26.443556,-19.859276,-40.573155,-18.484972,-26.021749,-8.939239,9.938478,-26.053288,-25.710325,-26.443556,-19.859276,0.000000,0.000000,6.707908,0.007093,-0.001230,0.000058,NaN,-128.045028
15/09/2017 11:12,4204.607490,-40.000000,-30.910000,5.000000,-18.703295,-26.126432,-8.975557,4.218720,-26.157970,-25.818949,-26.536413,-20.016169,-40.572702,-18.703295,-26.126432,-8.975557,9.942502,-26.157970,-25.818949,-26.536413,-20.016169,0.000000,0.000000,6.653982,0.006771,0.000058,-0.001230,-128.043548,NaN
15/09/2017 11:13,4264.661925,-40.000000,-31.040000,5.000000,-18.934441,-26.244205,-9.070119,4.224299,-26.291510,-25.956430,-26.650242,-20.193073,-40.634389,-18.934441,-26.244205,-9.070119,9.944141,-26.291510,-25.956430,-26.650242,-20.193073,0.000000,0.000000,6.701916,0.006771,-0.001230,-0.001230,NaN,NaN
15/09/2017 11:14,4324.714360,-40.000000,-31.110000,5.000000,-19.158346,-26.330935,-9.248782,4.240523,-26.401892,-26.070755,-26.740913,-20.327106,-40.739249,-19.158346,-26.330935,-9.248782,9.948910,-26.401892,-26.070755,-26.740913,-20.327106,0.000000,0.000000,6.689932,0.007093,-0.001230,-0.001230,NaN,NaN
15/09/2017 11:15,4384.769794,-40.000000,-31.220000,5.000000,-19.370491,-26.429308,-9.898633,4.248636,-26.500265,-26.184896,-26.823517,-20.476725,-41.226799,-19.370491,-26.429308,-9.898633,9.951294,-26.500265,-26.184896,-26.823517,-20.476725,0.000000,0.000000,6.686937,0.007093,-0.001230,-0.002519,NaN,NaN
15/09/2017 11:16,4444.824229,-40.000000,-31.190000,5.000000,-19.567053,-26.507822,-9.864108,4.258773,-26.602430,-26.279179,-26.898090,-20.606489,-41.179134,-19.567053,-26.507822,-9.864108,9.954273,-26.602430,-26.279179,-26.898090,-20.606489,0.000000,0.000000,6.692928,0.007093,-0.001230,-0.001230,NaN,NaN
15/09/2017 11:17,4504.884665,-40.000000,-31.330000,5.000000,-19.767155,-26.589956,-9.688620,4.273479,-26.700336,-26.388908,-26.992052,-20.735928,-41.012668,-19.767155,-26.589956,-9.688620,9.958595,-26.700336,-26.388908,-26.992052,-20.735928,0.000000,0.000000,6.716896,0.007093,0.000058,-0.001230,-128.043548,NaN
15/09/2017 11:18,4564.938099,-40.000000,-31.350000,5.000000,-19.956778,-26.685038,-9.913352,4.283620,-26.795418,-26.487934,-27.063482,-20.878315,-41.166448,-19.956778,-26.685038,-9.913352,9.961576,-26.795418,-26.487934,-27.063482,-20.878315,0.000000,0.000000,6.695924,0.007093,-0.001230,-0.001230,NaN,NaN
15/09/2017 11:19,4624.990534,-40.000000,-31.430000,5.000000,-20.152786,-26.763700,-10.178195,4.297310,-26.893789,-26.598129,-27.161852,-21.008223,-41.344322,-20.152786,-26.763700,-10.178195,9.965599,-26.893789,-26.598129,-27.161852,-21.008223,0.000000,0.000000,6.674953,0.007415,0.000058,-0.001230,-128.045028,NaN
15/09/2017 11:20,4685.041969,-40.000000,-31.500000,5.000000,-20.345930,-26.842522,-10.425242,4.326716,-27.000206,-26.708490,-27.244617,-21.146179,-41.476822,-20.345930,-26.842522,-10.425242,9.974241,-27.000206,-26.708490,-27.244617,-21.146179,0.000000,0.000000,6.764830,0.007093,-0.001230,-0.001230,NaN,NaN
15/09/2017 11:21,4745.096404,-40.000000,-31.550000,5.000000,-20.519058,-26.936808,-10.374739,4.329760,-27.082664,-26.794891,-27.323133,-21.260174,-41.431397,-20.519058,-26.936808,-10.374739,9.975136,-27.082664,-26.794891,-27.323133,-21.260174,0.000000,0.000000,6.716896,0.007093,-0.001230,-0.001230,NaN,NaN
15/09/2017 11:22,4805.151839,-40.000000,-31.610000,5.000000,-20.703030,-27.034050,-10.381180,4.348519,-27.175968,-26.900021,-27.400667,-21.396841,-41.398635,-20.703030,-27.034050,-10.381180,9.980649,-27.175968,-26.900021,-27.400667,-21.396841,0.000000,0.000000,6.692928,0.007093,-0.001230,-0.001230,NaN,NaN
15/09/2017 11:23,4865.204274,-40.000000,-31.730000,5.000000,-20.867989,-27.096516,-10.839970,4.357138,-27.273912,-27.001905,-27.478899,-21.506609,-41.738440,-20.867989,-27.096516,-10.839970,9.983182,-27.273912,-27.001905,-27.478899,-21.506609,0.000000,0.000000,6.686937,0.007415,-0.001230,-0.001230,NaN,NaN
15/09/2017 11:24,4925.260709,-40.000000,-31.700000,5.000000,-21.032825,-27.166739,-10.985948,4.389588,-27.352016,-27.083956,-27.549126,-21.624140,-41.787496,-21.032825,-27.166739,-10.985948,9.992719,-27.352016,-27.083956,-27.549126,-21.624140,0.000000,0.000000,6.671957,0.007093,-0.001230,-0.001230,NaN,NaN
15/09/2017 11:25,4985.314144,-40.000000,-31.800000,5.000000,-21.193226,-27.244356,-10.965447,4.395672,-27.429638,-27.165514,-27.622801,-21.733295,-41.759459,-21.193226,-27.244356,-10.965447,9.994507,-27.429638,-27.165514,-27.622801,-21.733295,0.000000,0.000000,6.677949,0.007093,0.000058,-0.001230,-128.043548,NaN
15/09/2017 11:26,5045.369579,-40.000000,-31.820000,5.000000,-21.357141,-27.321548,-11.041037,4.423559,-27.518652,-27.258474,-27.703932,-21.853846,-41.763279,-21.357141,-27.321548,-11.041037,10.002703,-27.518652,-27.258474,-27.703932,-21.853846,0.000000,0.000000,6.677949,0.007415,-0.001230,-0.001230,NaN,NaN
15/09/2017 11:27,5105.425014,-40.000000,-31.870000,5.000000,-21.528778,-27.394632,-11.336508,4.423053,-27.607506,-27.359152,-27.780958,-21.974236,-41.994652,-21.528778,-27.394632,-11.336508,10.002554,-27.607506,-27.359152,-27.780958,-21.974236,0.000000,0.000000,6.701916,0.007415,-0.001230,-0.001230,NaN,NaN
15/09/2017 11:28,5165.482449,-40.000000,-31.930000,5.000000,-21.692835,-27.483791,-11.300286,4.430656,-27.680897,-27.440428,-27.842524,-22.083105,-41.951471,-21.692835,-27.483791,-11.300286,10.004788,-27.680897,-27.440428,-27.842524,-22.083105,0.000000,0.000000,6.656978,0.007093,0.000058,-0.001230,-128.043548,NaN
15/09/2017 11:29,5225.538884,-40.000000,-31.980000,5.000000,-21.837488,-27.565369,-11.611797,4.449415,-27.770357,-27.525948,-27.924101,-22.188335,-42.157775,-21.837488,-27.565369,-11.611797,10.010302,-27.770357,-27.525948,-27.924101,-22.188335,0.000000,0.000000,6.677949,0.006771,-0.001230,-0.001230,NaN,NaN
15/09/2017 11:30,5285.592319,-40.000000,-32.050000,5.000000,-21.985022,-27.626175,-11.625021,4.462093,-27.858757,-27.610405,-28.000675,-22.316160,-42.143392,-21.985022,-27.626175,-11.625021,10.014028,-27.858757,-27.610405,-28.000675,-22.316160,0.000000,0.000000,6.662969,0.007093,-0.001230,-0.002519,NaN,NaN
15/09/2017 11:31,5345.644753,-40.000000,-32.080000,5.000000,-22.132557,-27.706694,-11.703871,4.476290,-27.939280,-27.702753,-28.069368,-22.416388,-42.177370,-22.132557,-27.706694,-11.703871,10.018200,-27.939280,-27.702753,-28.069368,-22.416388,0.000000,0.000000,6.659974,0.007415,-0.002519,-0.001230,NaN,NaN
15/09/2017 11:32,5405.699188,-40.000000,-32.150000,5.000000,-22.291304,-27.782658,-11.936536,4.500121,-28.019182,-27.790541,-28.137445,-22.531773,-42.313026,-22.291304,-27.782658,-11.936536,10.025204,-28.019182,-27.790541,-28.137445,-22.531773,0.000000,0.000000,6.665965,0.007093,-0.001230,-0.002519,NaN,NaN
15/09/2017 11:33,5465.755623,-40.000000,-32.230000,5.000000,-22.409710,-27.861641,-11.828585,4.519387,-28.094225,-27.869524,-28.208548,-22.622583,-42.191620,-22.409710,-27.861641,-11.828585,10.030866,-28.094225,-27.869524,-28.208548,-22.622583,0.000000,0.000000,6.659974,0.007093,-0.001230,-0.001230,NaN,NaN
15/09/2017 11:34,5525.813058,-40.000000,-32.210000,5.000000,-22.547379,-27.920471,-12.017445,4.530540,-28.160940,-27.940180,-28.267376,-22.728716,-42.317850,-22.547379,-27.920471,-12.017445,10.034143,-28.160940,-27.940180,-28.267376,-22.728716,0.000000,0.000000,6.630015,0.007415,-0.001230,-0.001230,NaN,NaN
15/09/2017 11:35,5585.867493,-40.000000,-32.330000,5.000000,-22.676853,-27.967161,-12.148098,4.547274,-28.231281,-28.014465,-28.337719,-22.826654,-42.388052,-22.676853,-27.967161,-12.148098,10.039062,-28.231281,-28.014465,-28.337719,-22.826654,0.000000,0.000000,6.662969,0.007415,-0.001230,-0.001230,NaN,NaN
15/09/2017 11:36,5645.927928,-40.000000,-32.310000,5.000000,-22.799364,-28.038424,-12.542158,4.566539,-28.294662,-28.093615,-28.405041,-22.941280,-42.659744,-22.799364,-28.038424,-12.542158,10.044724,-28.294662,-28.093615,-28.405041,-22.941280,0.000000,0.000000,6.671957,0.007093,-0.001230,0.000058,NaN,-128.043548
15/09/2017 11:37,5705.987364,-40.000000,-32.380000,5.000000,-22.937647,-28.105749,-12.577203,4.593414,-28.369871,-28.164879,-28.464481,-23.016487,-42.636447,-22.937647,-28.105749,-12.577203,10.052622,-28.369871,-28.164879,-28.464481,-23.016487,0.000000,0.000000,6.641998,0.007093,-0.001230,-0.001230,NaN,NaN
15/09/2017 11:38,5766.043799,-40.000000,-32.410000,5.000000,-23.060299,-28.153503,-12.778383,4.612680,-28.437336,-28.240227,-28.524059,-23.103662,-42.757836,-23.060299,-28.153503,-12.778383,10.058284,-28.437336,-28.240227,-28.524059,-23.103662,0.000000,0.000000,6.662969,0.007093,-0.002519,-0.001230,NaN,NaN
15/09/2017 11:39,5826.099234,-40.000000,-32.520000,5.000000,-23.191311,-28.233265,-12.659613,4.628904,-28.509211,-28.308163,-28.588053,-23.199194,-42.634447,-23.191311,-28.233265,-12.659613,10.063052,-28.509211,-28.308163,-28.588053,-23.199194,0.000000,0.000000,6.644994,0.007093,-0.001230,-0.001230,NaN,NaN
15/09/2017 11:40,5886.152668,-40.000000,-32.540000,5.000000,-23.310637,-28.301340,-12.981067,4.646145,-28.569405,-28.380182,-28.640364,-23.283041,-42.854259,-23.310637,-28.301340,-12.981067,10.068119,-28.569405,-28.380182,-28.640364,-23.283041,0.000000,0.000000,6.650986,0.007093,-0.001230,-0.001230,NaN,NaN
15/09/2017 11:41,5946.209104,-40.000000,-32.580000,5.000000,-23.417992,-28.361393,-13.074616,4.667438,-28.645226,-28.444178,-28.704355,-23.370687,-42.888158,-23.417992,-28.361393,-13.074616,10.074377,-28.645226,-28.444178,-28.704355,-23.370687,0.000000,0.000000,6.650986,0.007093,-0.001230,0.000058,NaN,-128.043548
15/09/2017 11:42,6006.264539,-40.000000,-32.620000,5.000000,-23.529129,-28.409456,-13.283819,4.677579,-28.701172,-28.515894,-28.764244,-23.466055,-43.033548,-23.529129,-28.409456,-13.283819,10.077357,-28.701172,-28.515894,-28.764244,-23.466055,0.000000,0.000000,6.636006,0.007093,0.000058,-0.001230,-128.043548,NaN
15/09/2017 11:43,6066.317974,-40.000000,-32.660000,5.000000,-23.636177,-28.469200,-13.168609,4.704451,-28.772741,-28.579576,-28.820045,-23.545509,-42.893757,-23.636177,-28.469200,-13.168609,10.085255,-28.772741,-28.579576,-28.820045,-23.545509,0.000000,0.000000,6.639002,0.007093,0.000058,-0.001230,-128.043548,NaN
15/09/2017 11:44,6126.374409,-40.000000,-32.700000,5.000000,-23.734423,-28.520140,-13.106541,4.717126,-28.827625,-28.646288,-28.874928,-23.631929,-42.821824,-23.734423,-28.520140,-13.106541,10.088980,-28.827625,-28.646288,-28.874928,-23.631929,0.000000,0.000000,6.644994,0.007093,-0.001230,-0.001230,NaN,NaN
15/09/2017 11:45,6186.429843,-40.000000,-32.720000,5.000000,-23.852829,-28.575472,-13.620113,4.755663,-28.882957,-28.697678,-28.922377,-23.710913,-43.155023,-23.852829,-28.575472,-13.620113,10.100306,-28.882957,-28.697678,-28.922377,-23.710913,0.000000,0.000000,6.618031,0.007093,-0.001230,-0.001230,NaN,NaN
15/09/2017 11:46,6246.483278,-40.000000,-32.800000,5.000000,-23.952751,-28.647797,-13.633038,4.770366,-28.955282,-28.762119,-28.982876,-23.791124,-43.138608,-23.952751,-28.647797,-13.633038,10.104627,-28.955282,-28.762119,-28.982876,-23.791124,0.000000,0.000000,6.486212,0.007093,-0.001230,-0.001230,NaN,NaN
15/09/2017 11:47,6306.539713,-40.000000,-32.830000,5.000000,-24.056309,-28.704052,-13.533706,4.804844,-29.011538,-28.830202,-29.035189,-23.874971,-42.998486,-24.056309,-28.704052,-13.533706,10.114759,-29.011538,-28.830202,-29.035189,-23.874971,0.000000,0.000000,6.644994,0.007093,-0.001230,-0.001230,NaN,NaN
15/09/2017 11:48,6366.595149,-40.000000,-32.880000,5.000000,-24.169731,-28.766224,-13.637058,4.796225,-29.077652,-28.904200,-29.101305,-23.976568,-43.095220,-24.169731,-28.766224,-13.637058,10.112226,-29.077652,-28.904200,-29.101305,-23.976568,0.000000,0.000000,6.621027,0.007415,-0.001230,-0.001230,NaN,NaN
15/09/2017 11:49,6426.650583,-40.000000,-32.870000,5.000000,-24.284195,-28.821560,-14.057981,4.826137,-29.140871,-28.971361,-29.156639,-24.051611,-43.372853,-24.284195,-28.821560,-14.057981,10.121017,-29.140871,-28.971361,-29.156639,-24.051611,0.000000,0.000000,6.615035,0.007415,-0.001230,-0.001230,NaN,NaN
15/09/2017 11:50,6486.709019,-40.000000,-32.980000,5.000000,-24.379112,-28.896765,-13.884563,4.833237,-29.192425,-29.026854,-29.212133,-24.134703,-43.223745,-24.379112,-28.896765,-13.884563,10.123104,-29.192425,-29.026854,-29.212133,-24.134703,0.000000,0.000000,6.630015,0.007093,-0.001230,-0.001230,NaN,NaN
15/09/2017 11:51,6546.766454,-40.000000,-32.610000,5.000000,-24.465839,-28.928303,-13.938610,4.860615,-29.251554,-29.085987,-29.267323,-24.201717,-43.217694,-24.465839,-28.928303,-13.938610,10.131150,-29.251554,-29.085987,-29.267323,-24.201717,0.000000,0.000000,6.627019,0.007093,-0.001230,-0.001230,NaN,NaN
15/09/2017 11:52,6606.823889,-40.000000,-32.560000,5.000000,-24.572580,-28.991684,-14.081743,4.885968,-29.307051,-29.149366,-29.310993,-24.288750,-43.285670,-24.572580,-28.991684,-14.081743,10.138601,-29.307051,-29.149366,-29.310993,-24.288750,0.000000,0.000000,6.621027,0.007415,-0.001230,-0.001230,NaN,NaN
15/09/2017 11:53,6666.879323,-40.000000,-32.640000,5.000000,-24.652180,-29.027916,-14.287086,4.906755,-29.362997,-29.209255,-29.366940,-24.348639,-43.410980,-24.652180,-29.027916,-14.287086,10.144711,-29.362997,-29.209255,-29.366940,-24.348639,0.000000,0.000000,6.615035,0.007093,-0.001230,-0.001230,NaN,NaN
15/09/2017 11:54,6726.935759,-40.000000,-32.700000,5.000000,-24.748159,-29.096302,-14.222799,4.925008,-29.415613,-29.261871,-29.419556,-24.413080,-43.328409,-24.748159,-29.096302,-14.222799,10.150075,-29.415613,-29.261871,-29.419556,-24.413080,0.000000,0.000000,6.722887,0.007093,-0.001230,-0.001230,NaN,NaN
15/09/2017 11:55,6786.990194,-40.000000,-33.000000,5.000000,-24.843975,-29.140871,-14.536674,4.940217,-29.464125,-29.298553,-29.452299,-24.497070,-43.549421,-24.843975,-29.140871,-14.536674,10.154545,-29.464125,-29.298553,-29.452299,-24.497070,0.000000,0.000000,6.627019,0.007415,-0.001230,-0.001230,NaN,NaN
15/09/2017 11:56,6847.045629,-40.000000,-33.050000,5.000000,-24.927536,-29.192892,-14.413901,4.959486,-29.516146,-29.370289,-29.516146,-24.568804,-43.419171,-24.927536,-29.192892,-14.413901,10.160208,-29.516146,-29.370289,-29.516146,-24.568804,0.000000,0.000000,6.633011,0.007415,-0.001230,-0.001230,NaN,NaN
15/09/2017 11:57,6907.100063,-40.000000,-33.080000,5.000000,-25.019106,-29.245043,-14.766079,4.979767,-29.580124,-29.422436,-29.568295,-24.636723,-43.662059,-25.019106,-29.245043,-14.766079,10.166168,-29.580124,-29.422436,-29.568295,-24.636723,0.000000,0.000000,6.621027,0.007415,-0.002519,-0.001230,NaN,NaN
15/09/2017 11:58,6967.156498,-40.000000,-33.120000,5.000000,-25.106749,-29.301151,-14.523772,5.005626,-29.620461,-29.478544,-29.612576,-24.720423,-43.426351,-25.106749,-29.301151,-14.523772,10.173768,-29.620461,-29.478544,-29.612576,-24.720423,0.000000,0.000000,6.621027,0.007415,-0.001230,-0.001230,NaN,NaN
15/09/2017 11:59,7027.218934,-40.000000,-33.180000,5.000000,-25.178301,-29.341162,-14.539795,5.026414,-29.672302,-29.518559,-29.664417,-24.788033,-43.403412,-25.178301,-29.341162,-14.539795,10.179877,-29.672302,-29.518559,-29.664417,-24.788033,0.000000,0.000000,6.621027,0.007093,-0.001230,-0.001230,NaN,NaN
15/09/2017 12:00,7087.273369,-40.000000,-33.240000,5.000000,-25.266254,-29.397579,-14.498531,5.049735,-29.724777,-29.582859,-29.709007,-24.836563,-43.331049,-25.266254,-29.397579,-14.498531,10.186731,-29.724777,-29.582859,-29.709007,-24.836563,0.000000,0.000000,6.600056,0.007093,-0.001230,-0.001230,NaN,NaN
15/09/2017 12:01,7147.329804,-40.000000,-33.280000,5.000000,-25.358126,-29.446091,-14.885752,5.060891,-29.773285,-29.639254,-29.765402,-24.928436,-43.618074,-25.358126,-29.446091,-14.885752,10.190010,-29.773285,-29.639254,-29.765402,-24.928436,0.000000,0.000000,6.701916,0.007093,-0.001230,-0.001230,NaN,NaN
15/09/2017 12:02,7207.385239,-40.000000,-33.320000,5.000000,-25.429554,-29.501749,-14.982721,5.092835,-29.832886,-29.694912,-29.809235,-24.984097,-43.640801,-25.429554,-29.501749,-14.982721,10.199398,-29.832886,-29.694912,-29.809235,-24.984097,0.000000,0.000000,6.609043,0.007093,-0.001230,-0.001230,NaN,NaN
15/09/2017 12:03,7267.442674,-40.000000,-33.350000,5.000000,-25.507927,-29.552528,-14.924356,5.112610,-29.867895,-29.737806,-29.840302,-25.038815,-43.561411,-25.507927,-29.552528,-14.924356,10.205210,-29.867895,-29.737806,-29.840302,-25.038815,0.000000,0.000000,6.615035,0.007415,-0.001230,0.000058,NaN,-128.043548
15/09/2017 12:04,7327.498109,-40.000000,-33.380000,5.000000,-25.575251,-29.584373,-15.117678,5.125285,-29.915510,-29.777534,-29.895802,-25.110081,-43.693130,-25.575251,-29.584373,-15.117678,10.208935,-29.915510,-29.777534,-29.895802,-25.110081,0.000000,0.000000,6.609043,0.007415,0.000058,-0.001230,-128.045028,NaN
15/09/2017 12:05,7387.555544,-40.000000,-33.420000,5.000000,-25.654255,-29.620012,-15.353321,5.150128,-29.959036,-29.836830,-29.935381,-25.153606,-43.838244,-25.654255,-29.620012,-15.353321,10.216236,-29.959036,-29.836830,-29.935381,-25.153606,0.000000,0.000000,6.644994,0.007093,-0.001230,-0.001230,NaN,NaN
15/09/2017 12:06,7447.609979,-40.000000,-33.450000,5.000000,-25.737347,-29.679449,-15.145160,5.158747,-30.014803,-29.876556,-29.986935,-25.244583,-43.659120,-25.737347,-29.679449,-15.145160,10.218769,-30.014803,-29.876556,-29.986935,-25.244583,0.000000,0.000000,6.612039,0.007093,0.000058,-0.001230,-128.043548,NaN
15/09/2017 12:07,7507.666414,-40.000000,-33.470000,5.000000,-25.801481,-29.715996,-14.848949,5.180550,-30.064089,-29.924927,-30.019907,-25.281124,-43.388423,-25.801481,-29.715996,-14.848949,10.225177,-30.064089,-29.924927,-30.019907,-25.281124,0.000000,0.000000,6.606048,0.007093,0.000058,-0.001230,-128.045028,NaN
15/09/2017 12:08,7567.721849,-40.000000,-33.500000,5.000000,-25.872890,-29.763748,-15.478636,5.201846,-30.108725,-29.976622,-30.072578,-25.356474,-43.852010,-25.872890,-29.763748,-15.478636,10.231436,-30.108725,-29.976622,-30.072578,-25.356474,0.000000,0.000000,6.609043,0.007093,-0.001230,-0.001230,NaN,NaN
15/09/2017 12:09,7627.776284,-40.000000,-33.520000,5.000000,-25.932632,-29.811666,-15.456074,5.224662,-30.149515,-30.012955,-30.105333,-25.404392,-43.796676,-25.932632,-29.811666,-15.456074,10.238141,-30.149515,-30.012955,-30.105333,-25.404392,0.000000,0.000000,6.641998,0.007415,-0.001230,-0.002519,NaN,NaN
15/09/2017 12:10,7687.835719,-40.000000,-33.550000,5.000000,-26.000551,-29.851988,-15.356583,5.240887,-30.194614,-30.070103,-30.154449,-25.472307,-43.691255,-26.000551,-29.851988,-15.356583,10.242909,-30.194614,-30.070103,-30.154449,-25.472307,0.000000,0.000000,6.633011,0.007415,-0.001230,-0.001230,NaN,NaN
15/09/2017 12:11,7747.890154,-40.000000,-33.580000,5.000000,-26.075758,-29.887774,-15.565347,5.270802,-30.239107,-30.110580,-30.194925,-25.527803,-43.808068,-26.075758,-29.887774,-15.565347,10.251701,-30.239107,-30.110580,-30.194925,-25.527803,0.000000,0.000000,6.597060,0.007093,-0.001230,-0.001230,NaN,NaN
15/09/2017 12:12,7807.944589,-40.000000,-33.610000,5.000000,-26.138525,-29.938717,-15.495558,5.280939,-30.270927,-30.158464,-30.234779,-25.578745,-43.736254,-26.138525,-29.938717,-15.495558,10.254681,-30.270927,-30.158464,-30.234779,-25.578745,0.000000,0.000000,6.597060,0.007415,-0.001230,-0.001230,NaN,NaN
15/09/2017 12:13,7868.000024,-40.000000,-33.650000,5.000000,-26.213425,-29.970251,-15.634533,5.295646,-30.315109,-30.194614,-30.270927,-25.637875,-43.822718,-26.213425,-29.970251,-15.634533,10.259003,-30.315109,-30.194614,-30.270927,-25.637875,0.000000,0.000000,6.588072,0.007093,-0.001230,-0.001230,NaN,NaN
15/09/2017 12:14,7928.060459,-40.000000,-33.690000,5.000000,-26.276661,-30.022072,-15.646274,5.315927,-30.371506,-30.246998,-30.319292,-25.693228,-43.799321,-26.276661,-30.022072,-15.646274,10.264963,-30.371506,-30.246998,-30.319292,-25.693228,0.000000,0.000000,6.627019,0.007093,-0.001230,0.000058,NaN,-128.043548
15/09/2017 12:15,7988.118894,-40.000000,-33.730000,5.000000,-26.335180,-30.053576,-15.912043,5.329614,-30.407026,-30.294567,-30.362844,-25.751747,-43.988349,-26.335180,-30.053576,-15.912043,10.268986,-30.407026,-30.294567,-30.362844,-25.751747,0.000000,0.000000,6.594064,0.007093,-0.001230,0.000058,NaN,-128.045028
15/09/2017 12:16,8048.175329,-40.000000,-33.780000,5.000000,-26.410835,-30.106564,-15.935946,5.360545,-30.447966,-30.335503,-30.395748,-25.799809,-43.957878,-26.410835,-30.106564,-15.935946,10.278076,-30.447966,-30.335503,-30.395748,-25.799809,0.000000,0.000000,6.606048,0.007093,-0.002519,-0.001230,NaN,NaN
15/09/2017 12:17,8108.229764,-40.000000,-33.810000,5.000000,-26.474070,-30.142876,-16.144566,5.378798,-30.492310,-30.375832,-30.440094,-25.851219,-44.094631,-26.474070,-30.142876,-16.144566,10.283441,-30.492310,-30.375832,-30.440094,-25.851219,0.000000,0.000000,6.615035,0.007093,-0.001230,-0.001230,NaN,NaN
15/09/2017 12:18,8168.285199,-40.000000,-33.850000,5.000000,-26.526382,-30.188143,-16.226675,5.396545,-30.537577,-30.425114,-30.485363,-25.907473,-44.131790,-26.526382,-30.188143,-16.226675,10.288656,-30.537577,-30.425114,-30.485363,-25.907473,0.000000,0.000000,6.594064,0.007093,-0.001230,-0.001230,NaN,NaN
15/09/2017 12:19,8228.340634,-40.000000,-33.870000,5.000000,-26.598097,-30.229076,-16.432018,5.414795,-30.578512,-30.474083,-30.522284,-25.959476,-44.266305,-26.598097,-30.229076,-16.432018,10.294020,-30.578512,-30.474083,-30.522284,-25.959476,0.000000,0.000000,6.597060,0.007093,-0.001230,-0.001230,NaN,NaN
15/09/2017 12:20,8288.397069,-40.000000,-33.890000,5.000000,-26.643137,-30.266933,-16.001295,5.423923,-30.596285,-30.499889,-30.548086,-26.000572,-43.909335,-26.643137,-30.266933,-16.001295,10.296702,-30.596285,-30.499889,-30.548086,-26.000572,0.000000,0.000000,6.588072,0.007093,-0.001230,-0.001230,NaN,NaN
15/09/2017 12:21,8348.452504,-40.000000,-33.910000,5.000000,-26.715157,-30.312197,-16.407679,5.456879,-30.661631,-30.545155,-30.597368,-26.048941,-44.180912,-26.715157,-30.312197,-16.407679,10.306388,-30.661631,-30.545155,-30.597368,-26.048941,0.000000,0.000000,6.609043,0.007093,-0.001230,-0.001230,NaN,NaN
15/09/2017 12:22,8408.512939,-40.000000,-33.940000,5.000000,-26.776104,-30.346180,-16.394016,5.472091,-30.679546,-30.575119,-30.623318,-26.094122,-44.146283,-26.776104,-30.346180,-16.394016,10.310859,-30.679546,-30.575119,-30.623318,-26.094122,0.000000,0.000000,6.597060,0.007093,-0.001230,-0.001230,NaN,NaN
15/09/2017 12:23,8468.569375,-40.000000,-33.970000,5.000000,-26.820530,-30.371361,-16.422077,5.493894,-30.708746,-30.604317,-30.656530,-26.142488,-44.134689,-26.820530,-30.371361,-16.422077,10.317266,-30.708746,-30.604317,-30.656530,-26.142488,0.000000,0.000000,6.594064,0.007093,-0.001230,-0.001230,NaN,NaN
15/09/2017 12:24,8528.628809,-40.000000,-34.000000,5.000000,-26.899824,-30.432070,-16.576937,5.499469,-30.769455,-30.665024,-30.709206,-26.217840,-44.249371,-26.899824,-30.432070,-16.576937,10.318905,-30.769455,-30.665024,-30.709206,-26.217840,0.000000,0.000000,6.603052,0.007093,-0.001230,-0.001230,NaN,NaN
15/09/2017 12:25,8588.682244,-40.000000,-34.040000,5.000000,-26.935158,-30.468069,-16.565214,5.519750,-30.797422,-30.692991,-30.741190,-26.245291,-44.208641,-26.935158,-30.468069,-16.565214,10.324865,-30.797422,-30.692991,-30.741190,-26.245291,0.000000,0.000000,6.636006,0.007093,-0.001230,-0.001230,NaN,NaN
15/09/2017 12:26,8648.743680,-40.000000,-34.080000,5.000000,-27.010815,-30.509003,-16.477165,5.537497,-30.842375,-30.745977,-30.790161,-26.320946,-44.111095,-27.010815,-30.509003,-16.477165,10.330081,-30.842375,-30.745977,-30.790161,-26.320946,0.000000,0.000000,6.591068,0.007093,-0.001230,0.000058,NaN,-128.043548
15/09/2017 12:27,8708.797115,-40.000000,-34.110000,5.000000,-27.046438,-30.517187,-16.840183,5.567412,-30.866621,-30.766207,-30.806372,-26.336861,-44.354525,-27.046438,-30.517187,-16.840183,10.338873,-30.866621,-30.766207,-30.806372,-26.336861,0.000000,0.000000,6.537142,0.007415,-0.001230,-0.001230,NaN,NaN
15/09/2017 12:28,8768.853550,-40.000000,-34.140000,5.000000,-27.113619,-30.577600,-16.631882,5.575018,-30.910967,-30.818588,-30.854738,-26.400099,-44.176788,-27.113619,-30.577600,-16.631882,10.341108,-30.910967,-30.818588,-30.854738,-26.400099,0.000000,0.000000,6.606048,0.007415,-0.001230,-0.001230,NaN,NaN
15/09/2017 12:29,8828.907985,-40.000000,-34.170000,5.000000,-27.153040,-30.593666,-16.639605,5.603412,-30.939083,-30.842686,-30.882851,-26.439518,-44.139599,-27.153040,-30.593666,-16.639605,10.349453,-30.939083,-30.842686,-30.882851,-26.439518,0.000000,0.000000,6.603052,0.007415,0.000058,-0.001230,-128.043548,NaN
15/09/2017 12:30,8888.965420,-40.000000,-34.200000,5.000000,-27.212618,-30.630270,-16.647766,5.618621,-30.975687,-30.891344,-30.919456,-26.491213,-44.122975,-27.212618,-30.630270,-16.647766,10.353923,-30.975687,-30.891344,-30.919456,-26.491213,0.000000,0.000000,6.600056,0.007415,-0.002519,-0.001230,NaN,NaN
15/09/2017 12:31,8949.022855,-40.000000,-34.230000,5.000000,-27.251736,-30.678158,-16.875227,5.636874,-31.011526,-30.923161,-30.955294,-26.530329,-44.276824,-27.251736,-30.678158,-16.875227,10.359287,-31.011526,-30.923161,-30.955294,-26.530329,0.000000,0.000000,6.585076,0.007415,-0.001230,-0.001230,NaN,NaN
15/09/2017 12:32,9009.078290,-40.000000,-34.250000,5.000000,-27.306332,-30.705667,-16.836042,5.666280,-31.039036,-30.950674,-30.970755,-26.569157,-44.201174,-27.306332,-30.705667,-16.836042,10.367929,-31.039036,-30.950674,-30.970755,-26.569157,0.000000,0.000000,6.588072,0.007415,-0.001230,0.000058,NaN,-128.043548
15/09/2017 12:33,9069.133725,-40.000000,-34.280000,5.000000,-27.360746,-30.753075,-17.039885,5.709380,-31.086443,-30.994064,-31.026196,-26.627514,-44.299387,-27.360746,-30.753075,-17.039885,10.380596,-31.086443,-30.994064,-31.026196,-26.627514,0.000000,0.000000,6.594064,0.007093,-0.001230,-0.001230,NaN,NaN
15/09/2017 12:34,9129.189160,-40.000000,-34.310000,5.000000,-27.430494,-30.783978,-17.224003,5.729154,-31.121363,-31.028984,-31.069149,-26.685436,-44.417087,-27.430494,-30.783978,-17.224003,10.386408,-31.121363,-31.028984,-31.069149,-26.685436,0.000000,0.000000,6.588072,0.007415,-0.001230,-0.001230,NaN,NaN
15/09/2017 12:35,9189.244595,-40.000000,-34.340000,5.000000,-27.464752,-30.826914,-17.041363,5.757039,-31.156263,-31.059866,-31.083967,-26.719692,-44.229700,-27.464752,-30.826914,-17.041363,10.394603,-31.156263,-31.059866,-31.083967,-26.719692,0.000000,0.000000,6.594064,0.007415,-0.001230,-0.001230,NaN,NaN
15/09/2017 12:36,9249.300030,-40.000000,-34.360000,5.000000,-27.511299,-30.850237,-17.102388,5.795066,-31.183609,-31.099260,-31.123360,-26.750473,-44.222360,-27.511299,-30.850237,-17.102388,10.405779,-31.183609,-31.099260,-31.123360,-26.750473,0.000000,0.000000,6.609043,0.007415,-0.001230,-0.001230,NaN,NaN
15/09/2017 12:37,9309.358465,-40.000000,-34.380000,5.000000,-27.562401,-30.874191,-17.040483,5.813319,-31.219608,-31.135260,-31.143295,-26.793692,-44.146004,-27.562401,-30.874191,-17.040483,10.411143,-31.219608,-31.135260,-31.143295,-26.793692,0.000000,0.000000,6.600056,0.007415,-0.001230,-0.001230,NaN,NaN
15/09/2017 12:38,9369.414900,-40.000000,-34.410000,5.000000,-27.589834,-30.910173,-17.383900,5.841713,-31.243544,-31.155180,-31.171247,-26.829008,-44.379334,-27.589834,-30.910173,-17.383900,10.419488,-31.243544,-31.155180,-31.171247,-26.829008,0.000000,0.000000,6.591068,0.007415,-0.001230,-0.001230,NaN,NaN
15/09/2017 12:39,9429.470335,-40.000000,-34.430000,5.000000,-27.648680,-30.946032,-17.310268,5.851347,-31.283417,-31.195051,-31.211119,-26.883909,-44.306340,-27.648680,-30.946032,-17.310268,10.422319,-31.283417,-31.195051,-31.211119,-26.883909,0.000000,0.000000,6.585076,0.007415,-0.001230,-0.001230,NaN,NaN
15/09/2017 12:40,9489.525770,-40.000000,-34.450000,5.000000,-27.705217,-30.987572,-17.354055,5.866556,-31.296841,-31.220526,-31.236591,-26.920740,-44.319283,-27.705217,-30.987572,-17.354055,10.426789,-31.296841,-31.220526,-31.236591,-26.920740,0.000000,0.000000,6.591068,0.007093,-0.002519,-0.001230,NaN,NaN
15/09/2017 12:41,9549.580205,-40.000000,-34.480000,5.000000,-27.742229,-31.005198,-17.448206,5.882275,-31.330534,-31.250204,-31.266270,-26.953810,-44.371903,-27.742229,-31.005198,-17.448206,10.431409,-31.330534,-31.250204,-31.266270,-26.953810,0.000000,0.000000,6.573093,0.007415,-0.002519,-0.002519,NaN,NaN
15/09/2017 12:42,9609.636640,-40.000000,-34.500000,5.000000,-27.794991,-31.042889,-17.530756,5.901034,-31.360191,-31.279863,-31.299944,-26.990803,-44.410931,-27.794991,-31.042889,-17.530756,10.436922,-31.360191,-31.279863,-31.299944,-26.990803,0.000000,0.000000,6.591068,0.007093,-0.001230,-0.001230,NaN,NaN
15/09/2017 12:43,9669.692075,-40.000000,-34.520000,5.000000,-27.851240,-31.076101,-17.609007,5.912190,-31.401436,-31.325125,-31.345205,-27.043108,-44.457567,-27.851240,-31.076101,-17.609007,10.440201,-31.401436,-31.325125,-31.345205,-27.043108,0.000000,0.000000,6.606048,0.007415,-0.001230,-0.001230,NaN,NaN
15/09/2017 12:44,9729.748510,-40.000000,-34.540000,5.000000,-27.887642,-31.109171,-17.467070,5.943624,-31.426472,-31.338112,-31.366226,-27.075567,-44.298622,-27.887642,-31.109171,-17.467070,10.449439,-31.426472,-31.338112,-31.366226,-27.075567,0.000000,0.000000,6.621027,0.007415,-0.001230,-0.002519,NaN,NaN
15/09/2017 12:45,9789.806945,-40.000000,-34.560000,5.000000,-27.927673,-31.133892,-17.768782,5.946668,-31.451195,-31.374884,-31.386932,-27.115599,-44.536197,-27.927673,-31.133892,-17.768782,10.450334,-31.451195,-31.374884,-31.386932,-27.115599,0.000000,0.000000,6.606048,0.007093,0.000058,-0.001230,-128.043548,NaN
15/09/2017 12:46,9849.865380,-40.000000,-34.580000,5.000000,-27.955717,-31.150415,-17.668850,5.963905,-31.479769,-31.399437,-31.415503,-27.143642,-44.431418,-27.955717,-31.150415,-17.668850,10.455400,-31.479769,-31.399437,-31.415503,-27.143642,0.000000,0.000000,6.627019,0.007093,-0.001230,-0.001230,NaN,NaN
15/09/2017 12:47,9909.921815,-40.000000,-34.600000,5.000000,-28.003166,-31.198761,-17.572481,5.972018,-31.508030,-31.431717,-31.447784,-27.179264,-44.342545,-28.003166,-31.198761,-17.572481,10.457784,-31.508030,-31.431717,-31.447784,-27.179264,0.000000,0.000000,6.585076,0.007415,0.000058,-0.001230,-128.043548,NaN
15/09/2017 12:48,9969.975250,-40.000000,-34.610000,5.000000,-28.034868,-31.231062,-17.723200,5.997371,-31.536312,-31.451965,-31.455982,-27.207026,-44.427387,-28.034868,-31.231062,-17.723200,10.465235,-31.536312,-31.451965,-31.455982,-27.207026,0.000000,0.000000,6.585076,0.007415,-0.001230,-0.001230,NaN,NaN
15/09/2017 12:49,10030.029685,-40.000000,-34.640000,5.000000,-28.085951,-31.246960,-17.761642,6.003455,-31.576309,-31.499998,-31.516064,-27.254168,-44.449606,-28.085951,-31.246960,-17.761642,10.467023,-31.576309,-31.499998,-31.516064,-27.254168,0.000000,0.000000,6.606048,0.007415,-0.001230,-0.001230,NaN,NaN
15/09/2017 12:50,10090.085120,-40.000000,-34.650000,5.000000,-28.110073,-31.263504,-17.858612,6.015624,-31.572773,-31.496460,-31.516541,-27.278288,-44.510208,-28.110073,-31.263504,-17.858612,10.470599,-31.572773,-31.496460,-31.516541,-27.278288,0.000000,0.000000,6.600056,0.007415,-0.001230,0.000058,NaN,-128.043548
15/09/2017 12:51,10150.140555,-40.000000,-34.680000,5.000000,-28.169655,-31.284044,-17.770262,6.040467,-31.617413,-31.541100,-31.557167,-27.318161,-44.404201,-28.169655,-31.284044,-17.770262,10.477901,-31.617413,-31.541100,-31.557167,-27.318161,0.000000,0.000000,6.579085,0.007415,-0.001230,-0.001230,NaN,NaN
15/09/2017 12:52,10210.194990,-40.000000,-34.690000,5.000000,-28.205893,-31.337032,-18.164764,6.043508,-31.634251,-31.561954,-31.574003,-27.362280,-44.716739,-28.205893,-31.337032,-18.164764,10.478794,-31.634251,-31.561954,-31.574003,-27.362280,0.000000,0.000000,6.576089,0.007093,-0.001230,-0.001230,NaN,NaN
15/09/2017 12:53,10270.256425,-40.000000,-34.710000,5.000000,-28.226355,-31.337799,-18.049692,6.076973,-31.655102,-31.582804,-31.594852,-27.382744,-44.577374,-28.226355,-31.337799,-18.049692,10.488629,-31.655102,-31.582804,-31.594852,-27.382744,0.000000,0.000000,6.582080,0.007093,-0.001230,-0.001230,NaN,NaN
15/09/2017 12:54,10330.313860,-40.000000,-34.720000,5.000000,-28.266840,-31.371014,-18.220591,6.094214,-31.676266,-31.612003,-31.624052,-27.415346,-44.690638,-28.266840,-31.371014,-18.220591,10.493696,-31.676266,-31.612003,-31.624052,-27.415346,0.000000,0.000000,6.576089,0.007415,-0.001230,-0.001230,NaN,NaN
15/09/2017 12:55,10390.370295,-40.000000,-34.750000,5.000000,-28.306120,-31.403000,-18.131662,6.117535,-31.712271,-31.643991,-31.652023,-27.446737,-44.586696,-28.306120,-31.403000,-18.131662,10.500550,-31.712271,-31.643991,-31.652023,-27.446737,0.000000,0.000000,6.582080,0.007415,-0.001230,-0.001230,NaN,NaN
15/09/2017 12:56,10450.426730,-40.000000,-34.760000,5.000000,-28.356915,-31.430658,-18.162106,6.147451,-31.743944,-31.671646,-31.675663,-27.489653,-44.569700,-28.356915,-31.430658,-18.162106,10.509342,-31.743944,-31.671646,-31.675663,-27.489653,0.000000,0.000000,6.567101,0.007093,-0.001230,-0.001230,NaN,NaN
15/09/2017 12:57,10510.487165,-40.000000,-34.780000,5.000000,-28.381161,-31.459375,-18.070036,6.150491,-31.748564,-31.680283,-31.688314,-27.509956,-44.491449,-28.381161,-31.459375,-18.070036,10.510236,-31.748564,-31.680283,-31.688314,-27.509956,0.000000,0.000000,6.573093,0.007415,-0.001230,-0.001230,NaN,NaN
15/09/2017 12:58,10571.436652,-40.000000,-34.800000,5.000000,-28.416803,-31.479628,-18.197588,6.176857,-31.784878,-31.712582,-31.720615,-27.549538,-44.557665,-28.416803,-31.479628,-18.197588,10.517984,-31.784878,-31.712582,-31.720615,-27.549538,0.000000,0.000000,6.576089,0.007093,0.000058,-0.001230,-128.043548,NaN
15/09/2017 12:59,10631.494087,-40.000000,-34.810000,5.000000,-28.460312,-31.515923,-18.328983,6.192069,-31.813143,-31.740845,-31.752893,-27.585165,-44.642487,-28.460312,-31.515923,-18.328983,10.522455,-31.813143,-31.740845,-31.752893,-27.585165,0.000000,0.000000,6.573093,0.007415,-0.001230,0.000058,NaN,-128.043548
15/09/2017 13:00,10691.556522,-40.000000,-34.820000,5.000000,-28.495646,-31.523806,-18.139681,6.227053,-31.833075,-31.776846,-31.780861,-27.612616,-44.442204,-28.495646,-31.523806,-18.139681,10.532737,-31.833075,-31.776846,-31.780861,-27.612616,0.000000,0.000000,6.582080,0.007415,-0.002519,-0.001230,NaN,NaN
15/09/2017 13:01,10751.610957,-40.000000,-34.840000,5.000000,-28.534597,-31.567509,-18.401731,6.254431,-31.856695,-31.792433,-31.808500,-27.651564,-44.615898,-28.534597,-31.567509,-18.401731,10.540783,-31.856695,-31.792433,-31.808500,-27.651564,0.000000,0.000000,6.582080,0.007415,-0.001230,-0.001230,NaN,NaN
15/09/2017 13:02,10811.670392,-40.000000,-34.850000,5.000000,-28.578123,-31.583742,-18.235895,6.276744,-31.880962,-31.824730,-31.824730,-27.679323,-44.452030,-28.578123,-31.583742,-18.235895,10.547340,-31.880962,-31.824730,-31.824730,-27.679323,0.000000,0.000000,6.555117,0.007093,-0.001230,-0.001230,NaN,NaN
15/09/2017 13:03,10871.725827,-40.000000,-34.870000,5.000000,-28.621323,-31.615707,-18.552288,6.307162,-31.920959,-31.844646,-31.848663,-27.730406,-44.665868,-28.621323,-31.615707,-18.552288,10.556280,-31.920959,-31.844646,-31.848663,-27.730406,0.000000,0.000000,6.567101,0.007093,-0.001230,-0.001230,NaN,NaN
15/09/2017 13:04,10931.779262,-40.000000,-34.880000,5.000000,-28.632557,-31.623137,-18.528543,6.327443,-31.924372,-31.856094,-31.872158,-27.729815,-44.619447,-28.632557,-31.623137,-18.528543,10.562241,-31.924372,-31.856094,-31.872158,-27.729815,0.000000,0.000000,6.567101,0.007093,-0.001230,-0.001230,NaN,NaN
15/09/2017 13:05,10991.833697,-40.000000,-34.900000,5.000000,-28.667118,-31.646301,-18.195648,6.347218,-31.947538,-31.887289,-31.887289,-27.764376,-44.324513,-28.667118,-31.646301,-18.195648,10.568052,-31.947538,-31.887289,-31.887289,-27.764376,0.000000,0.000000,6.570097,0.007415,-0.001230,-0.001230,NaN,NaN
15/09/2017 13:06,11051.891132,-40.000000,-34.910000,5.000000,-28.701387,-31.649084,-18.476276,6.361924,-31.970406,-31.910156,-31.906139,-27.790764,-44.531093,-28.701387,-31.649084,-18.476276,10.572374,-31.970406,-31.910156,-31.906139,-27.790764,0.000000,0.000000,6.641998,0.007415,0.000058,-0.001230,-128.043548,NaN
15/09/2017 13:07,11111.948567,-40.000000,-34.920000,5.000000,-28.723675,-31.687857,-18.478796,6.400964,-31.989092,-31.924828,-31.924828,-27.828815,-44.481080,-28.723675,-31.687857,-18.478796,10.583848,-31.989092,-31.924828,-31.924828,-27.828815,0.000000,0.000000,6.561109,0.007093,0.000058,-0.002519,-128.043548,NaN
15/09/2017 13:08,11172.005002,-40.000000,-34.930000,5.000000,-28.750042,-31.710705,-18.404249,6.419217,-31.995876,-31.935627,-31.939644,-27.855183,-44.396686,-28.750042,-31.710705,-18.404249,10.589212,-31.995876,-31.935627,-31.939644,-27.855183,0.000000,0.000000,6.576089,0.007093,-0.001230,-0.001230,NaN,NaN
15/09/2017 13:09,11232.062437,-40.000000,-34.950000,5.000000,-28.787642,-31.724916,-18.541441,6.441526,-32.022137,-31.961891,-31.961891,-27.861248,-44.477887,-28.787642,-31.724916,-18.541441,10.595769,-32.022137,-31.961891,-31.961891,-27.861248,0.000000,0.000000,6.573093,0.007415,-0.001230,-0.001230,NaN,NaN
15/09/2017 13:10,11292.122872,-40.000000,-34.950000,5.000000,-28.821447,-31.731243,-18.763704,6.471948,-32.044529,-31.980267,-31.988298,-27.902935,-44.617300,-28.821447,-31.731243,-18.763704,10.604710,-32.044529,-31.980267,-31.988298,-27.902935,0.000000,0.000000,6.585076,0.007093,-0.001230,-0.001230,NaN,NaN
15/09/2017 13:11,11352.180307,-40.000000,-34.970000,5.000000,-28.843584,-31.757816,-18.410927,6.486651,-32.071102,-32.010857,-32.006840,-27.932959,-44.313057,-28.843584,-31.757816,-18.410927,10.609031,-32.071102,-32.010857,-32.006840,-27.932959,0.000000,0.000000,6.558113,0.007415,0.000058,-0.001230,-128.045028,NaN
15/09/2017 13:12,11412.239743,-40.000000,-34.970000,5.000000,-28.889072,-31.804163,-18.579002,6.508960,-32.093353,-32.029087,-32.025070,-27.958736,-44.419582,-28.889072,-31.804163,-18.579002,10.615587,-32.093353,-32.029087,-32.025070,-27.958736,0.000000,0.000000,6.567101,0.007093,-0.001230,0.000058,NaN,-128.043548
15/09/2017 13:13,11472.294178,-40.000000,-34.990000,5.000000,-28.907251,-31.806618,-18.716475,6.534310,-32.107857,-32.051624,-32.055641,-27.976913,-44.497592,-28.907251,-31.806618,-18.716475,10.623037,-32.107857,-32.051624,-32.055641,-27.976913,0.000000,0.000000,6.564105,0.007415,-0.001230,-0.001230,NaN,NaN
15/09/2017 13:14,11532.351613,-40.000000,-35.000000,5.000000,-28.940910,-31.824846,-18.757160,6.570816,-32.130100,-32.069851,-32.073868,-27.998747,-44.483082,-28.940910,-31.824846,-18.757160,10.633766,-32.130100,-32.069851,-32.073868,-27.998747,0.000000,0.000000,6.558113,0.007415,0.000058,-0.001230,-128.043548,NaN
15/09/2017 13:15,11592.407048,-40.000000,-35.010000,5.000000,-28.979105,-31.859745,-18.771400,6.593128,-32.152946,-32.096718,-32.100735,-28.040884,-44.465751,-28.979105,-31.859745,-18.771400,10.640324,-32.152946,-32.096718,-32.100735,-28.040884,0.000000,0.000000,6.570097,0.007093,0.000058,-0.001230,-128.045028,NaN
15/09/2017 13:16,11652.463483,-40.000000,-35.020000,5.000000,-28.997467,-31.866402,-18.762360,6.616956,-32.163624,-32.103378,-32.099358,-28.055304,-44.427731,-28.997467,-31.866402,-18.762360,10.647326,-32.163624,-32.103378,-32.099358,-28.055304,0.000000,0.000000,6.564105,0.007415,-0.001230,0.000058,NaN,-128.043548
15/09/2017 13:17,11712.525918,-40.000000,-35.040000,5.000000,-29.020201,-31.877518,-18.815504,6.649406,-32.174736,-32.110474,-32.122524,-28.093807,-44.429091,-29.020201,-31.877518,-18.815504,10.656863,-32.174736,-32.110474,-32.122524,-28.093807,0.000000,0.000000,6.639002,0.007093,-0.001230,-0.001230,NaN,NaN
15/09/2017 13:18,11772.581353,-40.000000,-35.040000,5.000000,-29.066135,-31.920303,-18.906813,6.679321,-32.213509,-32.157280,-32.153263,-28.120033,-44.464802,-29.066135,-31.920303,-18.906813,10.665655,-32.213509,-32.157280,-32.153263,-28.120033,0.000000,0.000000,6.570097,0.007093,-0.001230,-0.001230,NaN,NaN
15/09/2017 13:19,11832.636788,-40.000000,-35.060000,5.000000,-29.064625,-31.914747,-19.106071,6.693012,-32.207951,-32.151718,-32.151718,-28.118519,-44.608757,-29.064625,-31.914747,-19.106071,10.669679,-32.207951,-32.151718,-32.151718,-28.118519,0.000000,0.000000,6.564105,0.007093,-0.001230,-0.001230,NaN,NaN
15/09/2017 13:20,11892.690223,-40.000000,-35.060000,5.000000,-29.102676,-31.925402,-19.069988,6.727996,-32.226639,-32.166389,-32.170406,-28.152628,-44.535199,-29.102676,-31.925402,-19.069988,10.679960,-32.226639,-32.166389,-32.170406,-28.152628,0.000000,0.000000,6.570097,0.007415,-0.001230,-0.001230,NaN,NaN
15/09/2017 13:21,11952.748658,-40.000000,-35.080000,5.000000,-29.121159,-31.956284,-18.937534,6.753346,-32.245468,-32.193256,-32.189236,-28.171112,-44.395862,-29.121159,-31.956284,-18.937534,10.687410,-32.245468,-32.193256,-32.189236,-28.171112,0.000000,0.000000,6.582080,0.007093,-0.001230,-0.001230,NaN,NaN
15/09/2017 13:22,12012.806093,-40.000000,-35.080000,5.000000,-29.163319,-31.979155,-19.021282,6.776164,-32.268341,-32.208096,-32.212112,-28.201447,-44.435023,-29.163319,-31.979155,-19.021282,10.694117,-32.268341,-32.208096,-32.212112,-28.201447,0.000000,0.000000,6.561109,0.007415,-0.001230,-0.001230,NaN,NaN
15/09/2017 13:23,12072.860528,-40.000000,-35.100000,5.000000,-29.178778,-31.990889,-18.943773,6.789852,-32.284092,-32.219826,-32.219826,-28.216906,-44.355003,-29.178778,-31.990889,-18.943773,10.698139,-32.284092,-32.219826,-32.219826,-28.216906,0.000000,0.000000,6.555117,0.007415,-0.001230,-0.001230,NaN,NaN
15/09/2017 13:24,12132.916963,-40.000000,-35.110000,5.000000,-29.194546,-32.006954,-19.063446,6.815204,-32.296143,-32.227863,-32.231876,-28.216906,-44.420304,-29.194546,-32.006954,-19.063446,10.705590,-32.296143,-32.227863,-32.231876,-28.216906,0.000000,0.000000,6.546130,0.007737,-0.001230,-0.001230,NaN,NaN
15/09/2017 13:25,12192.978398,-40.000000,-35.120000,5.000000,-29.201818,-31.994284,-18.912289,6.841570,-32.287487,-32.231255,-32.227238,-28.236004,-44.264806,-29.201818,-31.994284,-18.912289,10.713339,-32.287487,-32.231255,-32.227238,-28.236004,0.000000,0.000000,6.561109,0.007737,-0.001230,-0.001230,NaN,NaN
15/09/2017 13:26,12253.032834,-40.000000,-35.130000,5.000000,-29.236687,-32.029804,-18.923271,6.857795,-32.318993,-32.258747,-32.258747,-28.274811,-44.253521,-29.236687,-32.029804,-18.923271,10.718107,-32.318993,-32.258747,-32.258747,-28.274811,0.000000,0.000000,6.576089,0.007415,-0.002519,-0.001230,NaN,NaN
15/09/2017 13:27,12313.099269,-40.000000,-35.140000,5.000000,-29.256395,-32.045872,-19.127872,6.870470,-32.335060,-32.282848,-32.278828,-28.286636,-44.403809,-29.256395,-32.045872,-19.127872,10.721832,-32.335060,-32.282848,-32.278828,-28.286636,0.000000,0.000000,6.576089,0.007093,-0.001230,-0.001230,NaN,NaN
15/09/2017 13:28,12373.156704,-40.000000,-35.150000,5.000000,-29.296125,-32.058239,-19.305752,6.891766,-32.355457,-32.299225,-32.287178,-28.326368,-44.521857,-29.296125,-32.058239,-19.305752,10.728091,-32.355457,-32.299225,-32.287178,-28.326368,0.000000,0.000000,6.558113,0.007415,0.000058,0.000058,-128.043548,-128.043548
15/09/2017 13:29,12433.212139,-40.000000,-35.160000,5.000000,-29.303417,-32.073700,-19.189360,6.929794,-32.358868,-32.302639,-32.294605,-28.317890,-44.380511,-29.303417,-32.073700,-19.189360,10.739267,-32.358868,-32.302639,-32.294605,-28.317890,0.000000,0.000000,6.558113,0.007415,0.000058,-0.001230,-128.043548,NaN
15/09/2017 13:30,12493.270574,-40.000000,-35.170000,5.000000,-29.330538,-32.077232,-19.304712,6.943481,-32.374454,-32.322239,-32.314205,-28.341070,-44.457404,-29.330538,-32.077232,-19.304712,10.743290,-32.374454,-32.322239,-32.314205,-28.341070,0.000000,0.000000,6.558113,0.007415,-0.001230,-0.001230,NaN,NaN
15/09/2017 13:31,12553.330009,-40.000000,-35.180000,5.000000,-29.373310,-32.100727,-19.450827,6.968325,-32.397949,-32.341717,-32.329666,-28.364132,-44.545733,-29.373310,-32.100727,-19.450827,10.750591,-32.397949,-32.341717,-32.329666,-28.364132,0.000000,0.000000,6.570097,0.007415,-0.001230,-0.001230,NaN,NaN
15/09/2017 13:32,12613.388444,-40.000000,-35.190000,5.000000,-29.368755,-32.120186,-19.060324,6.991144,-32.405357,-32.341095,-32.341095,-28.375343,-44.200566,-29.368755,-32.120186,-19.060324,10.757298,-32.405357,-32.341095,-32.341095,-28.375343,0.000000,0.000000,6.552122,0.007415,-0.001230,-0.001230,NaN,NaN
15/09/2017 13:33,12673.444880,-40.000000,-32.770000,5.000000,-28.985451,-26.813351,-10.948713,7.070746,-16.191143,-13.820854,-20.561171,-27.889547,-37.530194,-28.985451,-26.813351,-10.948713,10.780692,-16.191143,-13.820854,-20.561171,-27.889547,0.000000,0.000000,6.573093,0.007415,-0.001230,-0.001230,NaN,NaN
15/09/2017 13:34,12733.508315,-40.000000,-30.800000,5.000000,-27.820713,-16.710516,-8.244908,7.776021,-4.078665,-0.665083,-11.367718,-26.212334,-34.471635,-27.820713,-16.710516,-8.244908,10.987967,-4.078665,-0.665083,-11.367718,-26.212334,0.000000,0.000000,6.381356,0.007415,-0.001230,-0.001230,NaN,NaN
15/09/2017 13:35,12793.566750,-40.000000,-33.380000,5.000000,-26.076176,-8.626793,-6.231964,8.313470,2.959880,6.206606,-4.285689,-24.223387,-32.210169,-26.076176,-8.626793,-6.231964,11.145920,2.959880,6.206606,-4.285689,-24.223387,0.000000,0.000000,6.519167,0.007093,-0.001230,0.000058,NaN,-128.043548
15/09/2017 13:36,12853.627185,-40.000000,-32.960000,5.000000,-24.087536,-2.158999,-4.344756,8.269358,7.446974,10.285453,1.437715,-21.982450,-30.725310,-24.087536,-2.158999,-4.344756,11.132956,7.446974,10.285453,1.437715,-21.982450,0.000000,0.000000,6.540138,0.007415,-0.001230,-0.001230,NaN,NaN
15/09/2017 13:37,12913.684620,-40.000000,-32.260000,5.000000,-22.036270,2.981684,-3.366496,7.819624,10.476261,12.884229,5.995697,-19.739590,-30.467187,-22.036270,2.981684,-3.366496,11.000782,10.476261,12.884229,5.995697,-19.739590,0.000000,0.000000,6.537142,0.007093,-0.001230,-0.001230,NaN,NaN
15/09/2017 13:38,12973.749056,-40.000000,-31.640000,5.000000,-19.982037,7.171263,-2.179738,7.235023,12.658284,14.780120,9.734863,-17.507517,-30.255751,-19.982037,7.171263,-2.179738,10.828972,12.658284,14.780120,9.734863,-17.507517,0.000000,0.000000,6.570097,0.006771,-0.001230,-0.001230,NaN,NaN
15/09/2017 13:39,13033.812491,-40.000000,-31.340000,5.000000,-18.012650,10.548155,-1.236439,6.654478,14.323612,16.237350,12.755460,-15.302646,-30.303431,-18.012650,10.548155,-1.236439,10.658354,14.323612,16.237350,12.755460,-15.302646,0.000000,0.000000,6.588072,0.007093,-0.001230,-0.001230,NaN,NaN
15/09/2017 13:40,13093.874927,-40.000000,-31.440000,5.000000,-16.101591,13.275853,-0.255542,6.165704,15.709833,17.463785,15.267628,-13.237170,-30.256081,-16.101591,13.275853,-0.255542,10.514707,15.709833,17.463785,15.267628,-13.237170,0.000000,0.000000,6.594064,0.007415,-0.001230,-0.001230,NaN,NaN
15/09/2017 13:41,13153.940362,-40.000000,-31.640000,5.000000,-14.224692,15.561906,0.604181,5.774785,16.918247,18.571865,17.364166,-11.132509,-30.206130,-14.224692,15.561906,0.604181,10.399818,16.918247,18.571865,17.364166,-11.132509,0.000000,0.000000,6.609043,0.007093,0.000058,-0.001230,-128.043548,NaN
15/09/2017 13:42,13214.002798,-40.000000,-31.690000,5.000000,-12.398121,17.531965,1.644468,5.463979,18.044773,19.620358,19.163288,-9.183514,-29.921410,-12.398121,17.531965,1.644468,10.308475,18.044773,19.620358,19.163288,-9.183514,0.000000,0.000000,6.603052,0.007093,-0.001230,-0.001230,NaN,NaN
15/09/2017 13:43,13274.066233,-40.000000,-31.930000,5.000000,-10.628575,19.198156,2.118840,5.206915,19.079245,20.571096,20.696192,-7.285201,-30.014315,-10.628575,19.198156,2.118840,10.232925,19.079245,20.571096,20.696192,-7.285201,0.000000,0.000000,6.633011,0.007415,-0.001230,-0.001230,NaN,NaN
15/09/2017 13:44,13334.132669,-40.000000,-32.180000,5.000000,-8.944759,20.664642,3.175153,4.976217,20.057558,21.514561,22.048059,-5.443747,-29.629353,-8.944759,20.664642,3.175153,10.165125,20.057558,21.514561,22.048059,-5.443747,0.000000,0.000000,6.647990,0.007415,-0.001230,-0.001230,NaN,NaN
15/09/2017 13:45,13394.193104,-40.000000,-32.320000,5.000000,-7.290024,21.916731,4.152196,4.784563,20.967470,22.361925,23.226561,-3.644561,-29.252316,-7.290024,21.916731,4.152196,10.108799,20.967470,22.361925,23.226561,-3.644561,0.000000,0.000000,6.627019,0.007415,-0.001230,-0.002519,NaN,NaN
15/09/2017 13:46,13454.257540,-40.000000,-32.460000,5.000000,-5.711296,22.970154,4.509940,4.604567,21.656643,22.992229,24.140169,-1.978403,-29.347128,-5.711296,22.970154,4.509940,10.055900,21.656643,22.992229,24.140169,-1.978403,0.000000,0.000000,6.639002,0.007093,-0.001230,-0.001230,NaN,NaN
15/09/2017 13:47,13514.319975,-40.000000,-32.700000,5.000000,-4.182003,23.813839,5.314324,4.454487,22.205986,23.475344,24.884516,-0.365481,-29.049518,-4.182003,23.813839,5.314324,10.011792,22.205986,23.475344,24.884516,-0.365481,0.000000,0.000000,6.722887,0.007415,-0.001230,-0.002519,NaN,NaN
15/09/2017 13:48,13574.388411,-40.000000,-32.940000,5.000000,-2.721706,24.487724,5.941733,4.300857,22.673828,23.902714,25.488493,1.107301,-28.909148,-2.721706,24.487724,5.941733,9.966641,22.673828,23.902714,25.488493,1.107301,0.000000,0.000000,6.650986,0.007093,-0.001230,-0.001230,NaN,NaN
15/09/2017 13:49,13634.452846,-40.000000,-33.140000,5.000000,-1.329538,25.077271,6.678283,4.156355,23.094128,24.271503,26.004456,2.553251,-28.678686,-1.329538,25.077271,6.678283,9.924173,23.094128,24.271503,26.004456,2.553251,0.000000,0.000000,6.656978,0.007093,-0.001230,-0.001230,NaN,NaN
15/09/2017 13:50,13694.514281,-40.000000,-33.250000,5.000000,0.008983,25.541416,7.095480,4.030613,23.447893,24.570080,26.402370,3.901301,-28.659749,0.008983,25.541416,7.095480,9.887218,23.447893,24.570080,26.402370,3.901301,0.000000,0.000000,6.659974,0.007093,-0.001230,-0.001230,NaN,NaN
15/09/2017 13:51,13754.581717,-40.000000,-33.380000,5.000000,1.289920,25.943449,7.588193,3.920082,23.757946,24.832302,26.738178,5.182238,-28.556212,1.289920,25.943449,7.588193,9.854734,23.757946,24.832302,26.738178,5.182238,0.000000,0.000000,6.453257,0.007093,-0.001230,-0.001230,NaN,NaN
15/09/2017 13:52,13814.643152,-40.000000,-33.450000,5.000000,2.481646,26.254362,8.389563,3.819689,24.039423,25.051229,27.012297,6.373964,-28.202551,2.481646,26.254362,8.389563,9.825230,24.039423,25.051229,27.012297,6.373964,0.000000,0.000000,6.692928,0.007093,-0.001230,-0.001230,NaN,NaN
15/09/2017 13:53,13874.702588,-40.000000,-33.730000,5.000000,3.670048,26.528898,9.052483,3.725890,24.295565,25.274258,27.242682,7.539846,-27.945124,3.670048,26.528898,9.052483,9.797663,24.295565,25.274258,27.242682,7.539846,0.000000,0.000000,6.686937,0.007415,-0.001230,-0.001230,NaN,NaN
15/09/2017 13:54,13934.764023,-40.000000,-33.700000,5.000000,4.768526,26.774158,9.520383,3.641722,24.555538,25.508478,27.458508,8.638324,-27.816407,4.768526,26.774158,9.520383,9.772926,24.555538,25.508478,27.458508,8.638324,0.000000,0.000000,6.713900,0.007415,-0.001230,-0.001230,NaN,NaN
15/09/2017 13:55,13994.828458,-40.000000,-33.960000,5.000000,5.798991,26.967463,10.039977,3.552992,24.767241,25.698103,27.618698,9.665036,-27.667773,5.798991,26.967463,10.039977,9.746849,24.767241,25.698103,27.618698,9.665036,0.000000,0.000000,6.674953,0.007415,-0.001230,-0.001230,NaN,NaN
15/09/2017 13:56,14054.889894,-40.000000,-33.840000,5.000000,6.818411,27.146261,10.514124,3.458686,24.982834,25.891621,27.771740,10.659048,-27.576312,6.818411,27.146261,10.514124,9.719133,24.982834,25.891621,27.771740,10.659048,0.000000,0.000000,6.695924,0.007415,-0.001230,-0.001230,NaN,NaN
15/09/2017 13:57,14114.953329,-40.000000,-34.020000,5.000000,7.781394,27.310209,11.218529,3.373000,25.165180,26.055571,27.891539,11.526957,-27.296429,7.781394,27.310209,11.218529,9.693951,25.165180,26.055571,27.891539,11.526957,0.000000,0.000000,6.677949,0.007415,-0.001230,-0.001230,NaN,NaN
15/09/2017 13:58,14175.019765,-40.000000,-34.260000,5.000000,8.695873,27.419256,11.599930,3.304550,25.336773,26.205088,27.993227,12.413734,-27.213772,8.695873,27.419256,11.599930,9.673834,25.336773,26.205088,27.993227,12.413734,0.000000,0.000000,6.695924,0.007415,-0.001230,-0.001230,NaN,NaN
15/09/2017 13:59,14235.081200,-40.000000,-34.460000,5.000000,9.580773,27.543461,11.379785,3.229004,25.505129,26.351366,28.084316,13.167180,-27.604515,9.580773,27.543461,11.379785,9.651631,25.505129,26.351366,28.084316,13.167180,0.000000,0.000000,6.713900,0.007093,-0.001230,-0.001230,NaN,NaN
15/09/2017 14:00,14295.145636,-40.000000,-34.610000,5.000000,10.397125,27.633825,12.518961,3.152948,25.650682,26.471165,28.159964,13.864153,-26.993511,10.397125,27.633825,12.518961,9.629279,25.650682,26.471165,28.159964,13.864153,0.000000,0.000000,6.704912,0.007093,-0.001230,-0.001230,NaN,NaN
15/09/2017 14:01,14355.208071,-40.000000,-34.590000,5.000000,11.202149,27.739189,12.937522,3.078415,25.811234,26.613321,28.243252,14.617153,-26.919527,11.202149,27.739189,12.937522,9.607374,25.811234,26.613321,28.243252,14.617153,0.000000,0.000000,6.725883,0.007415,0.000058,-0.001230,-128.045028,NaN
15/09/2017 14:02,14415.272506,-40.000000,-34.690000,5.000000,11.951126,27.800100,13.311183,3.029234,25.953093,26.751497,28.326239,15.317822,-26.802422,11.951126,27.800100,13.311183,9.592920,25.953093,26.751497,28.326239,15.317822,0.000000,0.000000,6.722887,0.007093,-0.002519,-0.001230,NaN,NaN
15/09/2017 14:03,14475.334942,-40.000000,-34.800000,5.000000,12.670241,27.868233,13.536070,2.968391,26.091131,26.867464,28.383333,15.940321,-26.836792,12.670241,27.868233,13.536070,9.575039,26.091131,26.867464,28.383333,15.940321,0.000000,0.000000,6.704912,0.007093,-0.006384,-0.001230,NaN,NaN
15/09/2017 14:04,14535.397377,-40.000000,-34.910000,5.000000,13.359935,27.966106,14.132862,2.900451,26.225798,26.983734,28.459133,16.540833,-26.626424,13.359935,27.966106,14.132862,9.555072,26.225798,26.983734,28.459133,16.540833,0.000000,0.000000,6.713900,0.007093,-0.001230,-0.001230,NaN,NaN
15/09/2017 14:05,14595.461812,-40.000000,-35.010000,5.000000,14.008736,28.005091,14.161091,2.849242,26.360445,27.092625,28.505476,17.111595,-26.781565,14.008736,28.005091,14.161091,9.540022,26.360445,27.092625,28.505476,17.111595,0.000000,0.000000,6.728879,0.007415,0.000058,0.000058,-128.043548,-128.043548
15/09/2017 14:06,14655.526248,-40.000000,-35.120000,5.000000,14.645500,28.076317,14.816437,2.793973,26.486858,27.200645,28.565664,17.692619,-26.494950,14.645500,28.076317,14.816437,9.523779,26.486858,27.200645,28.565664,17.692619,0.000000,0.000000,6.716896,0.007093,-0.001230,-0.001230,NaN,NaN
15/09/2017 14:07,14715.589684,-40.000000,-35.230000,5.000000,15.251961,28.121212,15.155345,2.767102,26.590622,27.308084,28.617916,18.198750,-26.342730,15.251961,28.121212,15.155345,9.515882,26.590622,27.308084,28.617916,18.198750,0.000000,0.000000,6.707908,0.007093,-0.001230,-0.001230,NaN,NaN
15/09/2017 14:08,14775.651119,-40.000000,-35.390000,5.000000,15.824358,28.187572,15.400735,2.713865,26.704815,27.407560,28.673241,18.693111,-26.355879,15.824358,28.187572,15.400735,9.500236,26.704815,27.407560,28.673241,18.693111,0.000000,0.000000,6.695924,0.007093,-0.001230,-0.001230,NaN,NaN
15/09/2017 14:09,14835.715554,-40.000000,-35.520000,5.000000,16.366299,28.238491,15.968686,2.673809,26.810925,27.491594,28.716799,19.164448,-26.089283,16.366299,28.238491,15.968686,9.488463,26.810925,27.491594,28.716799,19.164448,0.000000,0.000000,6.740863,0.007093,-0.001230,-0.001230,NaN,NaN
15/09/2017 14:10,14895.778990,-40.000000,-35.670000,5.000000,16.903500,28.303114,15.885316,2.640343,26.908661,27.593012,28.777744,19.601316,-26.274833,16.903500,28.303114,15.885316,9.478628,26.908661,27.593012,28.777744,19.601316,0.000000,0.000000,6.713900,0.007415,-0.001230,-0.001230,NaN,NaN
15/09/2017 14:11,14955.841425,-40.000000,-35.800000,5.000000,17.403675,28.334763,16.426369,2.605359,26.999178,27.668810,28.809393,20.030584,-26.013805,17.403675,28.334763,16.426369,9.468347,26.999178,27.668810,28.809393,20.030584,0.000000,0.000000,6.737867,0.007093,-0.001230,-0.002519,NaN,NaN
15/09/2017 14:12,15015.906861,-40.000000,-35.920000,5.000000,17.869967,28.369648,16.736586,2.563275,27.081892,27.744167,28.844276,20.415003,-25.950388,17.869967,28.369648,16.736586,9.455978,27.081892,27.744167,28.844276,20.415003,0.000000,0.000000,6.722887,0.007093,-0.002519,-0.001230,NaN,NaN
15/09/2017 14:13,15075.969296,-40.000000,-36.040000,5.000000,18.350523,28.422337,17.016478,2.540969,27.182411,27.833647,28.904324,20.787792,-25.834396,18.350523,28.422337,17.016478,9.449423,27.182411,27.833647,28.904324,20.787792,0.000000,0.000000,6.734871,0.007093,-0.001230,-0.001230,NaN,NaN
15/09/2017 14:14,15136.032732,-40.000000,-36.150000,5.000000,18.771797,28.471519,17.434036,2.514601,27.253674,27.908588,28.931433,21.142357,-25.635930,18.771797,28.471519,17.434036,9.441673,27.253674,27.908588,28.931433,21.142357,0.000000,0.000000,6.746854,0.006771,-0.001230,0.000058,NaN,-128.043548
15/09/2017 14:15,15196.095167,-40.000000,-36.250000,5.000000,19.197788,28.484901,17.674227,2.495335,27.333282,27.966122,28.963209,21.464800,-25.538871,19.197788,28.484901,17.674227,9.436011,27.333282,27.966122,28.963209,21.464800,0.000000,0.000000,6.731875,0.007093,-0.001230,-0.001230,NaN,NaN
15/09/2017 14:16,15256.159603,-40.000000,-36.360000,5.000000,19.602987,28.536564,17.811874,2.460857,27.418058,28.043539,29.003838,21.759296,-25.578080,19.602987,28.536564,17.811874,9.425879,27.418058,28.043539,29.003838,21.759296,0.000000,0.000000,6.734871,0.007093,-0.001230,-0.001230,NaN,NaN
15/09/2017 14:17,15316.223038,-40.000000,-36.450000,5.000000,19.962996,28.547167,17.774271,2.441083,27.480169,28.094612,29.021797,22.064241,-25.685557,19.962996,28.547167,17.774271,9.420067,27.480169,28.094612,29.021797,22.064241,0.000000,0.000000,6.752846,0.007093,-0.001230,-0.001230,NaN,NaN
15/09/2017 14:18,15376.287473,-40.000000,-36.560000,5.000000,20.346884,28.614273,18.105881,2.423339,27.547276,28.161718,29.059467,22.363140,-25.519121,20.346884,28.614273,18.105881,9.414852,27.547276,28.161718,29.059467,22.363140,0.000000,0.000000,6.731875,0.007415,-0.001230,-0.001230,NaN,NaN
15/09/2017 14:19,15436.348908,-40.000000,-36.650000,5.000000,20.691118,28.649445,18.643064,2.401027,27.619240,28.218964,29.090960,22.630110,-25.224559,20.691118,28.649445,18.643064,9.408295,27.619240,28.218964,29.090960,22.630110,0.000000,0.000000,6.752846,0.007415,-0.001230,-0.001230,NaN,NaN
15/09/2017 14:20,15496.413344,-40.000000,-36.760000,5.000000,21.021801,28.660025,18.631458,2.378721,27.673973,28.270020,29.108898,22.887205,-25.326118,21.021801,28.660025,18.631458,9.401739,27.673973,28.270020,29.108898,22.887205,0.000000,0.000000,6.740863,0.007093,-0.002519,-0.001230,NaN,NaN
15/09/2017 14:21,15556.477780,-40.000000,-36.850000,5.000000,21.327454,28.682369,19.230005,2.367564,27.718395,28.307083,29.134926,23.111914,-24.942913,21.327454,28.682369,19.230005,9.398460,27.718395,28.307083,29.134926,23.111914,0.000000,0.000000,6.746854,0.007093,0.000058,-0.001230,-128.045028,NaN
15/09/2017 14:22,15616.539215,-40.000000,-36.950000,5.000000,21.636362,28.741087,19.400789,2.351340,27.780788,28.369478,29.167885,23.369312,-24.889146,21.636362,28.741087,19.400789,9.393692,27.780788,28.369478,29.167885,23.369312,0.000000,0.000000,6.761834,0.006771,-0.002519,-0.001230,NaN,NaN
15/09/2017 14:23,15676.603651,-40.000000,-37.030000,5.000000,21.922741,28.773594,19.351866,2.317877,27.835373,28.416702,29.181997,23.574745,-25.067723,21.922741,28.773594,19.351866,9.383858,27.835373,28.416702,29.181997,23.574745,0.000000,0.000000,6.746854,0.007093,-0.001230,-0.001230,NaN,NaN
15/09/2017 14:24,15736.667086,-40.000000,-37.120000,5.000000,22.209707,28.780937,19.868372,2.310777,27.886866,28.460835,29.215092,23.784447,-24.728266,22.209707,28.780937,19.868372,9.381771,27.886866,28.460835,29.215092,23.784447,0.000000,0.000000,6.758838,0.007415,-0.001230,-0.001230,NaN,NaN
15/09/2017 14:25,15796.731521,-40.000000,-37.190000,5.000000,22.468710,28.822859,19.680323,2.295059,27.939827,28.510118,29.234940,23.991940,-24.931369,22.468710,28.822859,19.680323,9.377151,27.939827,28.510118,29.234940,23.991940,0.000000,0.000000,6.746854,0.007093,-0.001230,-0.001230,NaN,NaN
15/09/2017 14:26,15856.794957,-40.000000,-37.270000,5.000000,22.732573,28.847569,20.341028,2.279340,27.971897,28.545866,29.244934,24.178535,-24.527443,22.732573,28.847569,20.341028,9.372532,27.971897,28.545866,29.244934,24.178535,0.000000,0.000000,6.737867,0.007415,-0.001230,-0.001230,NaN,NaN
15/09/2017 14:27,15916.859392,-40.000000,-37.350000,5.000000,22.960653,28.865931,20.241653,2.260075,28.016010,28.582624,29.259615,24.347752,-24.683717,22.960653,28.865931,20.241653,9.366870,28.016010,28.582624,29.259615,24.347752,0.000000,0.000000,6.767826,0.007093,-0.001230,-0.001230,NaN,NaN
15/09/2017 14:28,15976.920827,-40.000000,-37.420000,5.000000,23.218609,28.921522,20.643099,2.239287,28.086321,28.641897,29.311529,24.550516,-24.489726,23.218609,28.921522,20.643099,9.360761,28.086321,28.641897,29.311529,24.550516,0.000000,0.000000,6.746854,0.007093,-0.001230,-0.001230,NaN,NaN
15/09/2017 14:29,16036.991263,-40.000000,-37.480000,5.000000,23.429039,28.933271,20.496639,2.240809,28.116465,28.672041,29.323275,24.713116,-24.587474,23.429039,28.933271,20.496639,9.361208,28.116465,28.672041,29.323275,24.713116,0.000000,0.000000,6.719891,0.007093,-0.001230,0.000058,NaN,-128.043548
15/09/2017 14:30,16097.053699,-40.000000,-37.540000,5.000000,23.628586,28.959892,20.876469,2.203288,28.139406,28.694981,29.327820,24.842754,-24.486123,23.628586,28.959892,20.876469,9.350181,28.139406,28.694981,29.327820,24.842754,0.000000,0.000000,6.752846,0.007415,0.000058,-0.001230,-128.045028,NaN
15/09/2017 14:31,16157.113134,-40.000000,-37.600000,5.000000,23.847538,28.998556,20.988722,2.205316,28.207508,28.752045,29.355448,25.021233,-24.396864,23.847538,28.998556,20.988722,9.350777,28.207508,28.752045,29.355448,25.021233,0.000000,0.000000,6.740863,0.007093,-0.001230,-0.001230,NaN,NaN
15/09/2017 14:32,16217.175570,-40.000000,-37.650000,5.000000,24.040581,29.011312,20.979403,2.193147,28.231300,28.775837,29.371883,25.137009,-24.459136,24.040581,29.011312,20.979403,9.347200,28.231300,28.775837,29.371883,25.137009,0.000000,0.000000,6.758838,0.007415,-0.001230,-0.001230,NaN,NaN
15/09/2017 14:33,16277.238005,-40.000000,-37.690000,5.000000,24.229374,29.038216,21.436785,2.178444,28.276600,28.813778,29.395107,25.292688,-24.201147,24.229374,29.038216,21.436785,9.342879,28.276600,28.813778,29.395107,25.292688,0.000000,0.000000,6.755842,0.007415,-0.001230,-0.001230,NaN,NaN
15/09/2017 14:34,16337.302440,-40.000000,-37.740000,5.000000,24.421843,29.079838,21.588783,2.163741,28.310863,28.840681,29.422010,25.426292,-24.161242,24.421843,29.079838,21.588783,9.338558,28.310863,28.840681,29.422010,25.426292,0.000000,0.000000,6.761834,0.007093,-0.001230,-0.001230,NaN,NaN
15/09/2017 14:35,16397.365876,-40.000000,-37.780000,5.000000,24.576933,29.095112,21.655569,2.137882,28.340857,28.874355,29.433609,25.562986,-24.234879,24.576933,29.095112,21.655569,9.330958,28.340857,28.874355,29.433609,25.562986,0.000000,0.000000,6.758838,0.007093,-0.001230,-0.001230,NaN,NaN
15/09/2017 14:36,16457.429311,-40.000000,-37.820000,5.000000,24.749252,29.109224,21.949305,2.144979,28.366003,28.895824,29.447718,25.672758,-23.992823,24.749252,29.109224,21.949305,9.333044,28.366003,28.895824,29.447718,25.672758,0.000000,0.000000,6.764830,0.006771,-0.001230,-0.001230,NaN,NaN
15/09/2017 14:37,16517.492746,-40.000000,-37.850000,5.000000,24.932592,29.141710,22.007549,2.132304,28.420567,28.935667,29.472847,25.786190,-24.011253,24.932592,29.141710,22.007549,9.329319,28.420567,28.935667,29.472847,25.786190,0.000000,0.000000,6.770822,0.007415,-0.001230,-0.001230,NaN,NaN
15/09/2017 14:38,16577.555182,-40.000000,-37.890000,5.000000,25.079157,29.163179,21.907602,2.116079,28.445717,28.979216,29.490635,25.932756,-24.159196,25.079157,29.163179,21.907602,9.324551,28.445717,28.979216,29.490635,25.932756,0.000000,0.000000,6.782805,0.007415,-0.001230,-0.001230,NaN,NaN
15/09/2017 14:39,16637.619617,-40.000000,-37.930000,5.000000,25.236454,29.188021,22.388676,2.095798,28.481596,29.000376,29.504442,26.042221,-23.915205,25.236454,29.188021,22.388676,9.318590,28.481596,29.000376,29.504442,26.042221,0.000000,0.000000,6.773817,0.007093,-0.001230,-0.001230,NaN,NaN
15/09/2017 14:40,16697.682053,-40.000000,-37.970000,5.000000,25.375204,29.205357,22.549501,2.076023,28.509968,29.025072,29.518097,26.151537,-23.897014,25.375204,29.205357,22.549501,9.312778,28.509968,29.025072,29.518097,26.151537,0.000000,0.000000,6.752846,0.007415,0.000058,-0.001230,-128.045028,NaN
15/09/2017 14:41,16757.745488,-40.000000,-38.000000,5.000000,25.525162,29.230215,22.353607,2.082107,28.542189,29.060968,29.550314,26.238945,-24.006188,25.525162,29.230215,22.353607,9.314567,28.542189,29.060968,29.550314,26.238945,0.000000,0.000000,6.755842,0.007415,-0.001230,-0.001230,NaN,NaN
15/09/2017 14:42,16817.808924,-40.000000,-38.040000,5.000000,25.649498,29.255211,22.639833,2.079573,28.574541,29.078604,29.545877,26.326488,-23.815810,25.649498,29.255211,22.639833,9.313822,28.574541,29.078604,29.545877,26.326488,0.000000,0.000000,6.758838,0.007093,-0.001230,-0.001230,NaN,NaN
15/09/2017 14:43,16877.873359,-40.000000,-38.090000,5.000000,25.795456,29.283430,22.888809,2.066392,28.584364,29.095785,29.581453,26.435652,-23.703896,25.795456,29.283430,22.888809,9.309948,28.584364,29.095785,29.581453,26.435652,0.000000,0.000000,6.761834,0.007415,0.000058,-0.001230,-128.043548,NaN
15/09/2017 14:44,16937.937795,-40.000000,-38.130000,5.000000,25.908026,29.274586,23.052893,2.057770,28.586555,29.090622,29.565248,26.515110,-23.630158,25.908026,29.274586,23.052893,9.307414,28.586555,29.090622,29.565248,26.515110,0.000000,0.000000,6.770822,0.007415,-0.001230,-0.001230,NaN,NaN
15/09/2017 14:45,16998.000230,-40.000000,-38.180000,5.000000,26.027657,29.298553,23.006952,2.055236,28.647316,29.151382,29.607615,26.605307,-23.675103,26.027657,29.298553,23.006952,9.306669,28.647316,29.151382,29.607615,26.605307,0.000000,0.000000,6.767826,0.007415,-0.001230,-0.001230,NaN,NaN
15/09/2017 14:46,17058.063665,-40.000000,-38.220000,5.000000,26.135368,29.321642,23.188250,2.036477,28.674084,29.174471,29.612309,26.668867,-23.639759,26.135368,29.321642,23.188250,9.301156,28.674084,29.174471,29.612309,26.668867,0.000000,0.000000,6.767826,0.007093,-0.001230,-0.001230,NaN,NaN
15/09/2017 14:47,17118.127101,-40.000000,-38.260000,5.000000,26.249695,29.340305,23.184839,2.031911,28.707468,29.207851,29.630970,26.761118,-23.664874,26.249695,29.340305,23.184839,9.299814,28.707468,29.207851,29.630970,26.761118,0.000000,0.000000,6.758838,0.007093,-0.001230,0.000058,NaN,-128.043548
15/09/2017 14:48,17178.189536,-40.000000,-38.310000,5.000000,26.366253,29.383276,23.397058,2.015180,28.757797,29.254503,29.666582,26.859280,-23.598750,26.366253,29.383276,23.397058,9.294897,28.757797,29.254503,29.666582,26.859280,0.000000,0.000000,6.755842,0.007415,-0.001230,-0.001230,NaN,NaN
15/09/2017 14:49,17238.253972,-40.000000,-38.350000,5.000000,26.463671,29.392395,23.545986,2.004027,28.770592,29.256260,29.672020,26.927265,-23.549900,26.463671,29.392395,23.545986,9.291619,28.770592,29.256260,29.672020,26.927265,0.000000,0.000000,6.779809,0.007093,-0.001230,-0.002519,NaN,NaN
15/09/2017 14:50,17298.316407,-40.000000,-38.380000,5.000000,26.570084,29.417860,23.659758,1.994899,28.796059,29.285406,29.701166,27.011599,-23.515938,26.570084,29.417860,23.659758,9.288937,28.796059,29.285406,29.701166,27.011599,0.000000,0.000000,6.815760,0.006771,-0.001230,-0.001230,NaN,NaN
15/09/2017 14:51,17358.381843,-40.000000,-38.420000,5.000000,26.648682,29.430231,23.683167,1.992365,28.826826,29.312494,29.706179,27.075478,-23.512318,26.648682,29.430231,23.683167,9.288192,28.826826,29.312494,29.706179,27.075478,0.000000,0.000000,6.749850,0.007093,-0.001230,-0.001230,NaN,NaN
15/09/2017 14:52,17418.445278,-40.000000,-38.450000,5.000000,26.732578,29.440540,23.870085,1.985774,28.837137,29.319124,29.705452,27.129944,-23.414225,26.732578,29.440540,23.870085,9.286255,28.837137,29.319124,29.705452,27.129944,0.000000,0.000000,6.785801,0.007093,-0.001230,-0.001230,NaN,NaN
15/09/2017 14:53,17478.507713,-40.000000,-38.490000,5.000000,26.848274,29.464256,23.776058,1.972083,28.875566,29.361235,29.743881,27.230921,-23.550509,26.848274,29.464256,23.776058,9.282231,28.875566,29.361235,29.743881,27.230921,0.000000,0.000000,6.773817,0.007093,-0.001230,-0.002519,NaN,NaN
15/09/2017 14:54,17538.571149,-40.000000,-38.510000,5.000000,26.926014,29.475767,24.092951,1.961943,28.890759,29.372746,29.744354,27.290262,-23.379769,26.926014,29.475767,24.092951,9.279251,28.890759,29.372746,29.744354,27.290262,0.000000,0.000000,6.767826,0.007093,-0.001230,-0.001230,NaN,NaN
15/09/2017 14:55,17598.635584,-40.000000,-38.540000,5.000000,27.019516,29.499363,23.928904,1.952818,28.929073,29.403704,29.775312,27.350653,-23.542373,27.019516,29.499363,23.928904,9.276569,28.929073,29.403704,29.775312,27.350653,0.000000,0.000000,6.833735,0.007093,-0.001230,-0.001230,NaN,NaN
15/09/2017 14:56,17658.698020,-40.000000,-38.570000,5.000000,27.100208,29.524866,24.370167,1.962449,28.943537,29.429205,29.789776,27.431345,-23.182209,27.100208,29.524866,24.370167,9.279400,28.943537,29.429205,29.789776,27.431345,0.000000,0.000000,6.776813,0.007093,-0.001230,-0.001230,NaN,NaN
15/09/2017 14:57,17718.760455,-40.000000,-38.600000,5.000000,27.166348,29.517418,24.094133,1.942674,28.961845,29.436476,29.793367,27.468050,-23.478964,27.166348,29.517418,24.094133,9.273588,28.961845,29.436476,29.793367,27.468050,0.000000,0.000000,6.764830,0.007093,-0.001230,-0.001230,NaN,NaN
15/09/2017 14:58,17778.823891,-40.000000,-38.630000,5.000000,27.233503,29.529387,24.264309,1.951802,28.981171,29.452122,29.801655,27.505772,-23.311839,27.233503,29.529387,24.264309,9.276271,28.981171,29.452122,29.801655,27.505772,0.000000,0.000000,6.767826,0.007093,-0.001230,-0.001230,NaN,NaN
15/09/2017 14:59,17838.889326,-40.000000,-38.660000,5.000000,27.326872,29.552845,24.328241,1.945718,29.023027,29.479259,29.828794,27.591778,-23.298582,27.326872,29.552845,24.328241,9.274483,29.023027,29.479259,29.828794,27.591778,0.000000,0.000000,6.770822,0.007093,-0.001230,-0.001230,NaN,NaN
15/09/2017 15:00,17898.950761,-40.000000,-38.680000,5.000000,27.384455,29.558922,24.525640,1.936084,29.032782,29.485336,29.831190,27.619930,-23.210301,27.384455,29.558922,24.525640,9.271651,29.032782,29.485336,29.831190,27.619930,0.000000,0.000000,6.776813,0.007093,-0.001230,-0.001230,NaN,NaN
15/09/2017 15:01,17959.014197,-40.000000,-38.700000,5.000000,27.447189,29.566467,24.661961,1.927465,29.040325,29.500238,29.846092,27.671627,-23.159907,27.447189,29.566467,24.661961,9.269118,29.040325,29.500238,29.846092,27.671627,0.000000,0.000000,6.764830,0.007093,-0.002519,-0.001230,NaN,NaN
15/09/2017 15:02,18019.077632,-40.000000,-38.730000,5.000000,27.517874,29.578281,24.839344,1.915803,29.059498,29.519411,29.850550,27.712875,-23.097115,27.517874,29.578281,24.839344,9.265691,29.059498,29.519411,29.850550,27.712875,0.000000,0.000000,6.776813,0.007093,-0.001230,-0.001230,NaN,NaN
15/09/2017 15:03,18079.142068,-40.000000,-38.750000,5.000000,27.574581,29.587158,24.855579,1.921887,29.075735,29.520929,29.855745,27.747507,-23.053502,27.574581,29.587158,24.855579,9.267479,29.075735,29.520929,29.855745,27.747507,0.000000,0.000000,6.782805,0.007093,-0.001230,-0.001230,NaN,NaN
15/09/2017 15:04,18139.205503,-40.000000,-38.770000,5.000000,27.642159,29.595869,24.926836,1.920368,29.091803,29.540678,29.864456,27.811409,-23.011557,27.642159,29.595869,24.926836,9.267033,29.091803,29.540678,29.864456,27.811409,0.000000,0.000000,6.770822,0.007093,-0.001230,-0.001230,NaN,NaN
15/09/2017 15:05,18199.272939,-40.000000,-38.790000,5.000000,27.688839,29.609436,24.910969,1.905156,29.098011,29.546886,29.866985,27.839689,-23.103523,27.688839,29.609436,24.910969,9.262562,29.098011,29.546886,29.866985,27.839689,0.000000,0.000000,6.776813,0.007093,-0.001230,-0.001230,NaN,NaN
15/09/2017 15:06,18259.334374,-40.000000,-38.810000,5.000000,27.743626,29.616388,25.046700,1.896537,29.119682,29.568558,29.884977,27.887119,-23.054489,27.743626,29.616388,25.046700,9.260029,29.119682,29.568558,29.884977,27.887119,0.000000,0.000000,6.779809,0.007093,-0.001230,-0.001230,NaN,NaN
15/09/2017 15:07,18319.397810,-40.000000,-38.830000,5.000000,27.799728,29.609941,25.183746,1.887919,29.116917,29.569471,29.885889,27.921146,-23.004813,27.799728,29.609941,25.183746,9.257496,29.116917,29.569471,29.885889,27.921146,0.000000,0.000000,6.770822,0.007415,-0.001230,-0.001230,NaN,NaN
15/09/2017 15:08,18379.459245,-40.000000,-38.860000,5.000000,27.849346,29.633806,25.288557,1.890959,29.144463,29.574940,29.883999,27.967087,-22.915057,27.849346,29.633806,25.288557,9.258389,29.144463,29.574940,29.883999,27.967087,0.000000,0.000000,6.758838,0.007093,-0.001230,-0.001230,NaN,NaN
15/09/2017 15:09,18439.524681,-40.000000,-38.890000,5.000000,27.897482,29.648829,25.207914,1.881325,29.159481,29.589962,29.891663,27.996822,-23.023469,27.897482,29.648829,25.207914,9.255558,29.159481,29.589962,29.891663,27.996822,0.000000,0.000000,6.785801,0.007093,-0.001230,-0.001230,NaN,NaN
