COOL INOffset , COOL INScale ,COOL OUTOffset , COOL OUTScale ,ENV TEMPOffset , ENV TEMPScale ,ENV HUMIDOffset , ENV HUMIDScale ,LIDOffset , LIDScale ,BOXOffset , BOXScale ,SPAREOffset , SPAREScale ,LABOffset , LABScale ,CB1Offset , CB1Scale ,CB2Offset , CB2Scale ,CB3Offset , CB3Scale ,CB4Offset , CB4Scale ,VC1Offset , VC1Scale ,VC2Offset , VC2Scale ,VC3Offset , VC3Scale ,VC4Offset , VC4Scale ,
0.000000,1.000000,0.000000,1.000000,0.000000,1.000000,8.702650,3.402600,0.000000,1.000000,0.000000,1.000000,0.000000,1.000000,0.000000,1.000000,0.000000,1.000000,0.000000,1.000000,0.000000,1.000000,0.000000,1.000000,0.000000,1.000000,0.000000,1.000000,0.000000,1.000000,0.000000,1.000000
Time,Elapsed,Set T,Meas T,Pump,COOL IN,COOL OUT,ENV TEMP,ENV HUMID,LID,BOX,SPARE,LAB,CB1,CB2,CB3,CB4,VC1,VC2,VC3,VACCHUCK,DP,COOL IN_raw,COOL OUT_raw,ENV TEMP_raw,ENV HUMID_raw,LID_raw,BOX_raw,SPARE_raw,LAB_raw,CB1_raw,CB2_raw,CB3_raw,CB4_raw,VC1_raw,VC2_raw,VC3_raw,VC4_raw,Col 1,Col 2,N2_Flow,Vacuum,NTC_CH3_RAW,NTC_CH7_RAW,NTC_CH3,NTC_CH7,
09/04/2018 14:31,5.059289,-30.000000,-30.020000,5.000000,20.757355,20.566029,20.382065,12.014257,20.028852,20.293762,19.839624,19.925093,20.804102,20.557589,20.244848,19.976023,20.105034,20.303717,20.495041,30.588902,-6.601682,20.757355,20.566029,20.382065,12.233555,20.028852,20.293762,19.839624,19.925093,20.804102,20.557589,20.244848,19.976023,20.105034,20.303717,20.495041,30.588902,0.000000,0.000000,4.275244,0.007093,-0.001230,-0.001230,NaN,NaN
09/04/2018 14:31,10.984628,-30.000000,-30.020000,5.000000,20.750435,20.562790,20.382504,11.952907,20.018253,20.286842,19.836351,19.906956,20.801186,20.550993,20.241932,19.976793,20.087400,20.300798,20.488443,30.556864,-6.660367,20.750435,20.562790,20.382504,12.215525,20.018253,20.286842,19.836351,19.906956,20.801186,20.550993,20.241932,19.976793,20.087400,20.300798,20.488443,30.556864,0.000000,0.000000,4.224314,0.007093,-0.001230,-0.001230,NaN,NaN
09/04/2018 14:31,15.104864,-30.000000,-29.990000,5.000000,20.754837,20.563515,20.383228,13.245828,19.996870,20.280207,19.837084,19.911404,20.809439,20.559246,20.239147,19.981415,20.095655,20.305374,20.489340,30.350082,-5.470199,20.754837,20.563515,20.383228,12.595505,19.996870,20.280207,19.837084,19.911404,20.809439,20.559246,20.239147,19.981415,20.095655,20.305374,20.489340,30.350082,0.000000,0.000000,4.245285,0.007093,-0.001230,-0.001230,NaN,NaN
09/04/2018 14:31,21.027203,-30.000000,-30.020000,5.000000,20.752052,20.560730,20.376764,14.205629,20.019873,20.284781,19.830553,19.912306,20.799622,20.556789,20.236691,19.978931,20.089518,20.295559,20.479525,29.526922,-4.659294,20.752052,20.560730,20.376764,12.877584,20.019873,20.284781,19.830553,19.912306,20.799622,20.556789,20.236691,19.978931,20.089518,20.295559,20.479525,29.526922,0.000000,0.000000,4.257269,0.006771,-0.001230,-0.001230,NaN,NaN
09/04/2018 14:31,26.950541,-30.000000,-30.020000,5.000000,20.748814,20.561169,20.380884,11.763281,20.020311,20.281542,19.838430,19.909035,20.807722,20.557531,20.244791,19.983397,20.097618,20.311018,20.498661,28.835953,-6.845966,20.748814,20.561169,20.380884,12.159795,20.020311,20.281542,19.838430,19.909035,20.807722,20.557531,20.244791,19.983397,20.097618,20.311018,20.498661,28.835953,0.000000,0.000000,4.197351,0.007093,-0.001230,-0.001230,NaN,NaN
09/04/2018 14:31,31.072777,-30.000000,-30.010000,5.000000,20.757048,20.565725,20.381760,10.792830,20.021189,20.289778,19.835602,19.909920,20.801586,20.555073,20.231295,19.973482,20.098841,20.308561,20.492525,27.082150,-7.833049,20.757048,20.565725,20.381760,11.874586,20.021189,20.289778,19.835602,19.909920,20.801586,20.555073,20.231295,19.973482,20.098841,20.308561,20.492525,27.082150,0.000000,0.000000,4.218322,0.007415,-0.001230,-0.001230,NaN,NaN
09/04/2018 14:31,36.996116,-30.000000,-30.000000,5.000000,20.757486,20.569843,20.385878,10.943416,20.028986,20.286537,19.847191,19.928944,20.809710,20.552156,20.239418,19.977970,20.092245,20.305645,20.489609,25.982801,-7.671223,20.757486,20.569843,20.385878,11.918842,20.028986,20.286537,19.847191,19.928944,20.809710,20.552156,20.239418,19.977970,20.092245,20.305645,20.489609,25.982801,0.000000,0.000000,4.203343,0.007093,-0.001230,-0.001230,NaN,NaN
09/04/2018 14:31,41.116352,-30.000000,-29.980000,5.000000,20.758364,20.567041,20.375717,10.131160,20.033543,20.287415,19.844362,19.918682,20.822100,20.564550,20.244452,19.983053,20.093599,20.314356,20.498323,24.494041,-8.559139,20.758364,20.567041,20.375717,11.680126,20.033543,20.287415,19.844362,19.918682,20.822100,20.564550,20.244452,19.983053,20.093599,20.314356,20.498323,24.494041,0.000000,0.000000,4.197351,0.007415,-0.001230,-0.001230,NaN,NaN
09/04/2018 14:32,47.039690,-30.000000,-30.000000,5.000000,20.766449,20.571445,20.391159,13.861357,20.041628,20.299177,19.848810,19.923130,20.812433,20.569601,20.238464,19.984438,20.102329,20.319408,20.496014,23.100958,-4.934152,20.766449,20.571445,20.391159,12.776404,20.041628,20.299177,19.848810,19.923130,20.812433,20.569601,20.238464,19.984438,20.102329,20.319408,20.496014,23.100958,0.000000,0.000000,4.206339,0.007415,-0.001230,-0.001230,NaN,NaN
09/04/2018 14:32,52.963029,-30.000000,-29.990000,5.000000,20.759682,20.568356,20.380713,13.105379,20.027500,20.292410,19.834543,19.912579,20.809671,20.555799,20.243059,19.981647,20.103247,20.312967,20.511650,22.196768,-5.596234,20.759682,20.568356,20.380713,12.554228,20.027500,20.292410,19.834543,19.912579,20.809671,20.555799,20.243059,19.981647,20.103247,20.312967,20.511650,22.196768,0.000000,0.000000,4.200347,0.007093,-0.001230,0.000058,NaN,-128.043548
09/04/2018 14:32,57.082265,-30.000000,-29.970000,5.000000,20.756596,20.565271,20.384985,13.124647,20.039131,20.289324,19.846289,19.920609,20.818384,20.568192,20.248093,19.997879,20.115639,20.329039,20.505644,20.880934,-5.575623,20.756596,20.565271,20.384985,12.559891,20.039131,20.289324,19.846289,19.920609,20.818384,20.568192,20.248093,19.997879,20.115639,20.329039,20.505644,20.880934,0.000000,0.000000,4.203343,0.006771,-0.001230,-0.001230,NaN,NaN
09/04/2018 14:32,63.002604,-30.000000,-29.960000,5.000000,20.757034,20.573067,20.392782,13.666658,20.039568,20.293442,19.850449,19.921051,20.815773,20.569260,20.252840,19.995243,20.105669,20.319067,20.499353,20.010006,-5.097922,20.757034,20.573067,20.392782,12.719184,20.039568,20.293442,19.850449,19.921051,20.815773,20.569260,20.252840,19.995243,20.105669,20.319067,20.499353,20.010006,0.000000,0.000000,4.200347,0.007415,-0.001230,-0.001230,NaN,NaN
09/04/2018 14:32,67.122839,-30.000000,-29.960000,5.000000,20.761150,20.566149,20.389542,12.132903,20.040007,20.297560,19.836027,19.917778,20.813448,20.566935,20.243156,19.992895,20.110703,20.320423,20.497028,18.733171,-6.482127,20.761150,20.566149,20.389542,12.268424,20.040007,20.297560,19.836027,19.917778,20.813448,20.566935,20.243156,19.992895,20.110703,20.320423,20.497028,18.733171,0.000000,0.000000,4.209335,0.007093,-0.001230,-0.002519,NaN,NaN
09/04/2018 14:32,73.046178,-30.000000,-29.970000,5.000000,20.757910,20.562906,20.386301,13.010567,20.040447,20.294319,19.836470,19.914507,20.803936,20.553743,20.237322,19.975853,20.097509,20.303551,20.483835,17.486134,-5.675978,20.757910,20.562906,20.386301,12.526363,20.040447,20.294319,19.836470,19.914507,20.803936,20.553743,20.237322,19.975853,20.097509,20.303551,20.483835,17.486134,0.000000,0.000000,4.206339,0.006771,-0.001230,-0.001230,NaN,NaN
09/04/2018 14:32,78.969517,-30.000000,-29.970000,5.000000,20.758060,20.574097,20.393810,12.973555,20.047956,20.301828,19.840340,19.918375,20.801001,20.558167,20.234388,19.972891,20.094576,20.307974,20.491940,16.669367,-5.702859,20.758060,20.574097,20.393810,12.515486,20.047956,20.301828,19.840340,19.918375,20.801001,20.558167,20.234388,19.972891,20.094576,20.307974,20.491940,16.669367,0.000000,0.000000,4.206339,0.007093,-0.001230,0.000058,NaN,-128.043548
09/04/2018 14:32,83.089752,-30.000000,-29.970000,5.000000,20.762028,20.574383,20.394098,12.901556,20.051924,20.305796,19.836912,19.926098,20.817091,20.570578,20.257837,19.996574,20.118025,20.316706,20.515388,15.492781,-5.767235,20.762028,20.574383,20.394098,12.494326,20.051924,20.305796,19.836912,19.926098,20.817091,20.570578,20.257837,19.996574,20.118025,20.316706,20.515388,15.492781,0.000000,0.000000,4.200347,0.007415,-0.001230,-0.001230,NaN,NaN
09/04/2018 14:32,89.012091,-30.000000,-29.960000,5.000000,20.755108,20.563784,20.390858,13.107916,20.048681,20.298874,19.829924,19.915392,20.814632,20.568119,20.248022,19.990374,20.104528,20.310570,20.494534,14.323475,-5.585592,20.755108,20.563784,20.390858,12.554974,20.048681,20.298874,19.829924,19.915392,20.814632,20.568119,20.248022,19.990374,20.104528,20.310570,20.494534,14.323475,0.000000,0.000000,4.206339,0.007415,-0.001230,-0.001230,NaN,NaN
09/04/2018 14:32,93.131327,-30.000000,-29.970000,5.000000,20.751581,20.560257,20.394688,13.737136,20.045155,20.302706,19.841225,19.915545,20.811850,20.554298,20.237879,19.980133,20.090708,20.307785,20.495430,13.558884,-5.036322,20.751581,20.560257,20.394688,12.739897,20.045155,20.302706,19.841225,19.915545,20.811850,20.554298,20.237879,19.980133,20.090708,20.307785,20.495430,13.558884,0.000000,0.000000,4.224314,0.007415,-0.001230,-0.001230,NaN,NaN
09/04/2018 14:32,99.054666,-30.000000,-29.970000,5.000000,20.755697,20.564375,20.391447,12.586183,20.056631,20.306824,19.841667,19.919704,20.805710,20.551840,20.239100,19.981363,20.095606,20.301647,20.485613,12.434168,-6.056387,20.755697,20.564375,20.391447,12.401640,20.056631,20.306824,19.841667,19.919704,20.805710,20.551840,20.239100,19.981363,20.095606,20.301647,20.485613,12.434168,0.000000,0.000000,4.227310,0.007093,-0.002519,0.000058,NaN,-128.045028
09/04/2018 14:33,104.978004,-30.000000,-29.970000,5.000000,20.766735,20.571733,20.395126,11.020994,20.049273,20.303144,19.849100,19.915987,20.806475,20.559961,20.247223,19.989569,20.100050,20.309769,20.501095,11.717752,-7.582820,20.766735,20.571733,20.395126,11.941642,20.049273,20.303144,19.849100,19.915987,20.806475,20.559961,20.247223,19.989569,20.100050,20.309769,20.501095,11.717752,0.000000,0.000000,4.221318,0.007093,-0.001230,-0.001230,NaN,NaN
09/04/2018 14:33,109.097240,-30.000000,-29.990000,5.000000,20.755985,20.568342,20.395414,9.343242,20.064278,20.314470,19.849390,19.919994,20.815037,20.564844,20.252104,19.994497,20.104933,20.307293,20.498617,10.633893,-9.460547,20.755985,20.568342,20.395414,11.448563,20.064278,20.314470,19.849390,19.919994,20.815037,20.564844,20.252104,19.994497,20.104933,20.307293,20.498617,10.633893,0.000000,0.000000,4.218322,0.007415,-0.001230,-0.001230,NaN,NaN
09/04/2018 14:33,115.018579,-30.000000,-29.950000,5.000000,20.748627,20.572020,20.399094,9.776748,20.064278,20.310789,19.849390,19.919994,20.805065,20.562231,20.238453,19.988144,20.098640,20.308361,20.484966,9.579144,-8.944481,20.748627,20.572020,20.399094,11.575967,20.064278,20.310789,19.849390,19.919994,20.805065,20.562231,20.238453,19.988144,20.098640,20.308361,20.484966,9.579144,0.000000,0.000000,4.209335,0.007093,-0.001230,-0.001230,NaN,NaN
09/04/2018 14:33,119.139814,-30.000000,-29.940000,5.000000,20.763496,20.575851,20.410284,9.856860,20.075468,20.321981,19.864408,19.935013,20.809509,20.570354,20.250256,19.988914,20.099405,20.309124,20.496767,8.885538,-8.842910,20.763496,20.575851,20.410284,11.599511,20.075468,20.321981,19.864408,19.935013,20.809509,20.570354,20.250256,19.988914,20.099405,20.309124,20.496767,8.885538,0.000000,0.000000,4.197351,0.007415,-0.001230,-0.001230,NaN,NaN
09/04/2018 14:33,125.061153,-30.000000,-29.950000,5.000000,20.748627,20.568342,20.402771,10.046486,20.067955,20.318148,19.864254,19.931141,20.799520,20.560366,20.251305,19.989975,20.104132,20.310173,20.486780,7.854412,-8.632644,20.748627,20.568342,20.402771,11.655241,20.067955,20.318148,19.864254,19.931141,20.799520,20.560366,20.251305,19.989975,20.104132,20.310173,20.486780,7.854412,0.000000,0.000000,4.203343,0.007415,-0.001230,-0.001230,NaN,NaN
09/04/2018 14:33,130.986492,-30.000000,-29.960000,5.000000,20.770569,20.582924,20.406319,10.568219,20.075180,20.314335,19.860403,19.931007,20.800282,20.557449,20.237350,19.983315,20.101215,20.314615,20.498581,7.183323,-8.053278,20.770569,20.582924,20.406319,11.808575,20.075180,20.314335,19.860403,19.931007,20.800282,20.557449,20.237350,19.983315,20.101215,20.314615,20.498581,7.183323,0.000000,0.000000,4.191359,0.007415,-0.001230,-0.001230,NaN,NaN
09/04/2018 14:33,135.106728,-30.000000,-29.970000,5.000000,20.762905,20.578939,20.398655,11.524977,20.078556,20.317709,19.856379,19.926983,20.819592,20.576759,20.260340,20.006468,20.109488,20.322887,20.514212,6.215868,-7.066890,20.762905,20.578939,20.398655,12.089759,20.078556,20.317709,19.856379,19.926983,20.819592,20.576759,20.260340,20.006468,20.109488,20.322887,20.514212,6.215868,0.000000,0.000000,4.197351,0.007093,-0.001230,-0.001230,NaN,NaN
09/04/2018 14:33,141.030066,-30.000000,-29.950000,5.000000,20.758938,20.567616,20.405725,11.468699,20.074589,20.317423,19.859806,19.922977,20.809452,20.566618,20.250198,20.000008,20.110386,20.316425,20.496712,5.237136,-7.117370,20.758938,20.567616,20.405725,12.073219,20.074589,20.317423,19.859806,19.922977,20.809452,20.566618,20.250198,20.000008,20.110386,20.316425,20.496712,5.237136,0.000000,0.000000,4.224314,0.007093,-0.001230,-0.001230,NaN,NaN
09/04/2018 14:33,146.952405,-30.000000,-29.930000,5.000000,20.762314,20.578348,20.412781,11.456530,20.077963,20.320797,19.855782,19.930101,20.817268,20.578114,20.265373,20.004145,20.114523,20.316883,20.508207,4.607025,-7.123800,20.762314,20.578348,20.412781,12.069643,20.077963,20.320797,19.855782,19.930101,20.817268,20.578114,20.265373,20.004145,20.114523,20.316883,20.508207,4.607025,0.000000,0.000000,4.197351,0.007093,-0.001230,-0.001230,NaN,NaN
09/04/2018 14:33,151.071640,-30.000000,-29.930000,5.000000,20.758060,20.570417,20.401169,11.465655,20.070032,20.309187,19.851486,19.925808,20.825390,20.582556,20.266136,20.012264,20.126324,20.328684,20.512650,3.684456,-7.124146,20.758060,20.570417,20.401169,12.072325,20.070032,20.309187,19.851486,19.925808,20.825390,20.582556,20.266136,20.012264,20.126324,20.328684,20.512650,3.684456,0.000000,0.000000,4.206339,0.007093,-0.001230,-0.001230,NaN,NaN
09/04/2018 14:33,156.995980,-30.000000,-29.920000,5.000000,20.768661,20.581017,20.411768,11.436249,20.087990,20.330824,19.858477,19.929081,20.825848,20.579334,20.262915,20.012722,20.112064,20.321783,20.505749,3.065605,-7.144987,20.768661,20.581017,20.411768,12.063683,20.087990,20.330824,19.858477,19.929081,20.825848,20.579334,20.262915,20.012722,20.112064,20.321783,20.505749,3.065605,0.000000,0.000000,4.212331,0.007093,-0.001230,-0.001230,NaN,NaN
09/04/2018 14:33,161.115215,-30.000000,-29.920000,5.000000,20.760406,20.580120,20.414553,11.391122,20.087095,20.329927,19.868719,19.935608,20.811741,20.572586,20.256166,19.998604,20.105314,20.318714,20.491642,2.157895,-7.188130,20.760406,20.580120,20.414553,12.050420,20.087095,20.329927,19.868719,19.935608,20.811741,20.572586,20.256166,19.998604,20.105314,20.318714,20.491642,2.157895,0.000000,0.000000,4.224314,0.007093,-0.001230,-0.001230,NaN,NaN
09/04/2018 14:34,167.038554,-30.000000,-29.930000,5.000000,20.759529,20.579243,20.417355,11.391631,20.086218,20.329050,19.864117,19.927288,20.804821,20.569347,20.252926,19.999046,20.102076,20.315475,20.492081,1.268777,-7.185327,20.759529,20.579243,20.417355,12.050570,20.086218,20.329050,19.864117,19.927288,20.804821,20.569347,20.252926,19.999046,20.102076,20.315475,20.492081,1.268777,0.000000,0.000000,4.218322,0.007093,-0.001230,-0.001230,NaN,NaN
09/04/2018 14:34,172.961893,-30.000000,-29.930000,5.000000,20.755278,20.578671,20.402065,10.286309,20.085646,20.332157,19.867254,19.930428,20.808958,20.569803,20.257063,20.003191,20.106213,20.319613,20.492538,0.687461,-8.364906,20.755278,20.578671,20.402065,11.725723,20.085646,20.332157,19.867254,19.930428,20.808958,20.569803,20.257063,20.003191,20.106213,20.319613,20.492538,0.687461,0.000000,0.000000,4.203343,0.007093,-0.001230,-0.001230,NaN,NaN
09/04/2018 14:34,177.081129,-30.000000,-29.930000,5.000000,20.754400,20.577793,20.419584,14.152898,20.088448,20.327600,19.858936,19.933258,20.794544,20.559071,20.242651,19.996099,20.102837,20.297840,20.489164,-0.170156,-4.667155,20.754400,20.577793,20.419584,12.862086,20.088448,20.327600,19.858936,19.933258,20.794544,20.559071,20.242651,19.996099,20.102837,20.297840,20.489164,-0.170156,0.000000,0.000000,4.200347,0.007093,-0.001230,-0.001230,NaN,NaN
09/04/2018 14:34,183.002467,-30.000000,-29.930000,5.000000,20.761015,20.580729,20.411482,13.612915,20.080345,20.326859,19.858187,19.921358,20.802210,20.566734,20.250315,20.003801,20.103144,20.301826,20.493149,-0.736236,-5.128360,20.761015,20.580729,20.411482,12.703389,20.080345,20.326859,19.858187,19.921358,20.802210,20.566734,20.250315,20.003801,20.103144,20.301826,20.493149,-0.736236,0.000000,0.000000,4.203343,0.006771,-0.001230,-0.001230,NaN,NaN
09/04/2018 14:34,187.123703,-30.000000,-29.940000,5.000000,20.763531,20.583244,20.425035,13.786823,20.093897,20.336731,19.868158,19.938763,20.806042,20.559528,20.246786,20.000275,20.103296,20.316694,20.493301,-1.560965,-4.968966,20.763531,20.583244,20.425035,12.754499,20.093897,20.336731,19.868158,19.938763,20.806042,20.559528,20.246786,20.000275,20.103296,20.316694,20.493301,-1.560965,0.000000,0.000000,4.218322,0.007093,-0.001230,-0.001230,NaN,NaN
09/04/2018 14:34,193.048042,-30.000000,-29.940000,5.000000,20.754988,20.571024,20.416492,13.002961,20.085356,20.328190,19.863247,19.930136,20.809874,20.567039,20.257978,19.996716,20.107128,20.316849,20.486095,-2.389493,-5.657814,20.754988,20.571024,20.416492,12.524128,20.085356,20.328190,19.863247,19.930136,20.809874,20.567039,20.257978,19.996716,20.107128,20.316849,20.486095,-2.389493,0.000000,0.000000,4.221318,0.007093,-0.001230,-0.001230,NaN,NaN
09/04/2018 14:34,198.970380,-30.000000,-29.940000,5.000000,20.757944,20.585016,20.423128,12.540046,20.091991,20.334824,19.869947,19.929405,20.810026,20.563515,20.254452,20.000580,20.107281,20.313322,20.478889,-2.921520,-6.072812,20.757944,20.585016,20.423128,12.388081,20.091991,20.334824,19.869947,19.929405,20.810026,20.563515,20.254452,20.000580,20.107281,20.313322,20.478889,-2.921520,0.000000,0.000000,4.203343,0.007093,-0.001230,-0.001230,NaN,NaN
09/04/2018 14:34,203.090616,-30.000000,-29.940000,5.000000,20.767666,20.591061,20.432850,12.627761,20.105392,20.348227,19.872335,19.946655,20.806347,20.570871,20.254452,20.004261,20.110960,20.313322,20.489927,-3.715996,-5.984044,20.767666,20.591061,20.432850,12.413859,20.105392,20.348227,19.872335,19.946655,20.806347,20.570871,20.254452,20.004261,20.110960,20.313322,20.489927,-3.715996,0.000000,0.000000,4.200347,0.007415,-0.001230,-0.001230,NaN,NaN
09/04/2018 14:34,209.014955,-30.000000,-29.950000,5.000000,20.758839,20.589590,20.420343,12.595817,20.107603,20.346756,19.863419,19.941456,20.802822,20.567347,20.258284,20.008093,20.103754,20.313473,20.486403,-4.491306,-6.023704,20.758839,20.589590,20.420343,12.404471,20.107603,20.346756,19.863419,19.941456,20.802822,20.567347,20.258284,20.008093,20.103754,20.313473,20.486403,-4.491306,0.000000,0.000000,4.203343,0.007093,-0.001230,-0.001230,NaN,NaN
09/04/2018 14:34,213.134191,-30.000000,-29.940000,5.000000,20.757961,20.581354,20.423145,12.377798,20.103046,20.345879,19.866251,19.936853,20.810179,20.574703,20.250927,19.997026,20.100075,20.309795,20.475363,-5.000682,-6.223537,20.757961,20.581354,20.423145,12.340397,20.103046,20.345879,19.866251,19.936853,20.810179,20.574703,20.250927,19.997026,20.100075,20.309795,20.475363,-5.000682,0.000000,0.000000,4.227310,0.007093,-0.001230,-0.001230,NaN,NaN
09/04/2018 14:34,219.056530,-30.000000,-29.940000,5.000000,20.782246,20.594601,20.436392,12.689110,20.112614,20.355448,19.875912,19.950233,20.810026,20.570871,20.254452,20.004261,20.110960,20.320681,20.493607,-5.730693,-5.924944,20.782246,20.594601,20.436392,12.431890,20.112614,20.355448,19.875912,19.950233,20.810026,20.570871,20.254452,20.004261,20.110960,20.320681,20.493607,-5.730693,0.000000,0.000000,4.209335,0.007093,-0.001230,-0.001230,NaN,NaN
09/04/2018 14:35,224.978868,-30.000000,-29.930000,5.000000,20.777538,20.597252,20.431684,12.277405,20.111586,20.354418,19.874874,19.938047,20.817232,20.578079,20.269016,20.011465,20.121843,20.324207,20.486095,-6.244029,-6.310692,20.777538,20.597252,20.431684,12.310892,20.111586,20.354418,19.874874,19.938047,20.817232,20.578079,20.269016,20.011465,20.121843,20.324207,20.486095,-6.244029,0.000000,0.000000,4.209335,0.006771,-0.001230,-0.001230,NaN,NaN
09/04/2018 14:35,229.099104,-30.000000,-29.930000,5.000000,20.772543,20.610655,20.437727,11.220761,20.113949,20.353104,19.877262,19.955296,20.820759,20.592642,20.268864,20.022350,20.118011,20.327732,20.493301,-6.955033,-7.342175,20.772543,20.610655,20.437727,12.000352,20.113949,20.353104,19.877262,19.955296,20.820759,20.592642,20.268864,20.022350,20.118011,20.327732,20.493301,-6.955033,0.000000,0.000000,4.197351,0.007093,-0.001230,-0.001230,NaN,NaN
09/04/2018 14:35,235.022442,-30.000000,-29.930000,5.000000,20.767242,20.601673,20.436106,12.708885,20.108646,20.351480,19.871906,19.938797,20.827812,20.584980,20.272240,20.025726,20.125069,20.334787,20.504036,-7.669994,-5.907124,20.767242,20.601673,20.436106,12.437701,20.108646,20.351480,19.871906,19.938797,20.827812,20.584980,20.272240,20.025726,20.125069,20.334787,20.504036,-7.669994,0.000000,0.000000,4.206339,0.007415,-0.001230,-0.001230,NaN,NaN
09/04/2018 14:35,239.142678,-30.000000,-29.940000,5.000000,20.773724,20.597116,20.442587,12.145578,20.111450,20.357964,19.878452,19.945341,20.809263,20.573788,20.257368,20.010855,20.110197,20.308878,20.478125,-8.145318,-6.426480,20.773724,20.597116,20.442587,12.272149,20.111450,20.357964,19.878452,19.945341,20.809263,20.573788,20.257368,20.010855,20.110197,20.308878,20.478125,-8.145318,0.000000,0.000000,4.221318,0.007415,-0.001230,-0.001230,NaN,NaN
09/04/2018 14:35,245.063017,-30.000000,-29.940000,5.000000,20.768444,20.591837,20.440987,12.234308,20.117207,20.356361,19.880552,19.940010,20.816469,20.573635,20.264574,20.014383,20.121082,20.316086,20.500050,-8.829712,-6.343690,20.768444,20.591837,20.440987,12.298226,20.117207,20.356361,19.880552,19.940010,20.816469,20.573635,20.264574,20.014383,20.121082,20.316086,20.500050,-8.829712,0.000000,0.000000,4.215326,0.007093,-0.001230,-0.001230,NaN,NaN
09/04/2018 14:35,250.986355,-30.000000,-29.950000,5.000000,20.756508,20.590939,20.421692,12.533452,20.101593,20.340746,19.861065,19.935385,20.805128,20.569653,20.256912,20.006720,20.109739,20.308422,20.481348,-9.289986,-6.080086,20.756508,20.590939,20.421692,12.386143,20.101593,20.340746,19.861065,19.935385,20.805128,20.569653,20.256912,20.006720,20.109739,20.308422,20.481348,-9.289986,0.000000,0.000000,4.179376,0.007415,-0.001230,-0.001230,NaN,NaN
09/04/2018 14:35,255.107591,-30.000000,-29.940000,5.000000,20.765945,20.596697,20.434807,12.019835,20.118387,20.350183,19.866880,19.941200,20.815859,20.576704,20.256605,20.010092,20.109434,20.311794,20.484722,-9.951732,-6.553025,20.765945,20.596697,20.434807,12.235194,20.118387,20.350183,19.866880,19.941200,20.815859,20.576704,20.256605,20.010092,20.109434,20.311794,20.484722,-9.951732,0.000000,0.000000,4.191359,0.007093,-0.001230,-0.001230,NaN,NaN
09/04/2018 14:35,261.030930,-30.000000,-29.940000,5.000000,20.756676,20.583750,20.425541,12.635873,20.101761,20.333557,19.861237,19.928125,20.811741,20.579945,20.259848,20.002295,20.112675,20.311356,20.491642,-10.619291,-5.982628,20.756676,20.583750,20.425541,12.416244,20.101761,20.333557,19.861237,19.928125,20.811741,20.579945,20.259848,20.002295,20.112675,20.311356,20.491642,-10.619291,0.000000,0.000000,4.191359,0.007415,-0.001230,-0.001230,NaN,NaN
09/04/2018 14:35,266.953269,-30.000000,-29.930000,5.000000,20.766684,20.590076,20.435547,11.956457,20.115448,20.354603,19.878777,19.949381,20.818794,20.575960,20.263222,20.005669,20.105011,20.303694,20.483978,-11.059696,-6.613413,20.766684,20.590076,20.435547,12.216568,20.115448,20.354603,19.878777,19.949381,20.818794,20.575960,20.263222,20.005669,20.105011,20.303694,20.483978,-11.059696,0.000000,0.000000,4.200347,0.007093,-0.001230,-0.001230,NaN,NaN
09/04/2018 14:35,271.073504,-30.000000,-29.940000,5.000000,20.772440,20.595835,20.437624,13.954650,20.113846,20.353001,19.873442,19.932898,20.807451,20.571976,20.255556,20.001684,20.104704,20.310745,20.483673,-11.696985,-4.817140,20.772440,20.595835,20.437624,12.803823,20.113846,20.353001,19.873442,19.932898,20.807451,20.571976,20.255556,20.001684,20.104704,20.310745,20.483673,-11.696985,0.000000,0.000000,4.197351,0.007093,-0.001230,0.000058,NaN,-128.045028
09/04/2018 14:35,276.996843,-30.000000,-29.920000,5.000000,20.763901,20.583614,20.425406,13.109944,20.108986,20.348141,19.868534,19.942854,20.806993,20.564159,20.258778,20.008585,20.111605,20.299250,20.486895,-12.125970,-5.555216,20.763901,20.583614,20.425406,12.555570,20.108986,20.348141,19.868534,19.942854,20.806993,20.564159,20.258778,20.008585,20.111605,20.299250,20.486895,-12.125970,0.000000,0.000000,4.221318,0.007093,-0.001230,-0.001230,NaN,NaN
09/04/2018 14:35,281.117079,-30.000000,-29.930000,5.000000,20.761993,20.589066,20.430855,11.954429,20.118116,20.353592,19.870321,19.937210,20.813896,20.571062,20.258322,20.000771,20.100111,20.302473,20.479080,-12.747973,-6.619220,20.761993,20.589066,20.430855,12.215972,20.118116,20.353592,19.870321,19.937210,20.813896,20.571062,20.258322,20.000771,20.100111,20.302473,20.479080,-12.747973,0.000000,0.000000,4.218322,0.007093,-0.001230,-0.001230,NaN,NaN
09/04/2018 14:36,287.039418,-30.000000,-29.930000,5.000000,20.771429,20.594824,20.436613,10.749227,20.120193,20.359348,19.887285,19.943024,20.824322,20.581490,20.261391,20.011198,20.110538,20.312901,20.485828,-13.354698,-7.834706,20.771429,20.594824,20.436613,11.861772,20.120193,20.359348,19.887285,19.943024,20.824322,20.581490,20.261391,20.011198,20.110538,20.312901,20.485828,-13.354698,0.000000,0.000000,4.191359,0.007093,-0.001230,0.000058,NaN,-128.043548
09/04/2018 14:36,292.958756,-30.000000,-29.940000,5.000000,20.773926,20.600998,20.446468,11.925020,20.126368,20.365524,19.893522,19.945545,20.816658,20.577503,20.264763,20.010891,20.106554,20.305237,20.485521,-13.760362,-6.634818,20.773926,20.600998,20.446468,12.207329,20.126368,20.365524,19.893522,19.945545,20.816658,20.577503,20.264763,20.010891,20.106554,20.305237,20.485521,-13.760362,0.000000,0.000000,4.197351,0.007415,0.000058,-0.001230,-128.045028,NaN
09/04/2018 14:36,297.078992,-30.000000,-29.940000,5.000000,20.768492,20.595564,20.429996,12.609002,20.117256,20.349052,19.869453,19.936340,20.816069,20.576914,20.271530,20.021339,20.113321,20.319363,20.481253,-14.355483,-6.003624,20.768492,20.595564,20.429996,12.408346,20.117256,20.349052,19.869453,19.936340,20.816069,20.576914,20.271530,20.021339,20.113321,20.319363,20.481253,-14.355483,0.000000,0.000000,4.215326,0.007093,-0.001230,-0.001230,NaN,NaN
09/04/2018 14:36,303.002331,-30.000000,-29.950000,5.000000,20.756271,20.587023,20.432491,12.761110,20.112394,20.347868,19.879406,19.935146,20.815762,20.591326,20.267546,20.013676,20.116695,20.315376,20.491983,-14.730264,-5.862546,20.756271,20.587023,20.432491,12.453050,20.112394,20.347868,19.879406,19.935146,20.815762,20.591326,20.267546,20.013676,20.116695,20.315376,20.491983,-14.730264,0.000000,0.000000,4.209335,0.007093,-0.001230,-0.001230,NaN,NaN
09/04/2018 14:36,307.122566,-30.000000,-29.940000,5.000000,20.769083,20.599834,20.437944,11.696860,20.136242,20.368038,19.896063,19.955517,20.815001,20.579525,20.259424,20.005554,20.108574,20.307255,20.476503,-15.313985,-6.864415,20.769083,20.599834,20.437944,12.140274,20.136242,20.368038,19.896063,19.955517,20.815001,20.579525,20.259424,20.005554,20.108574,20.307255,20.476503,-15.313985,0.000000,0.000000,4.191359,0.007415,-0.001230,-0.001230,NaN,NaN
09/04/2018 14:36,313.044905,-30.000000,-29.950000,5.000000,20.770872,20.594267,20.432377,11.699903,20.123316,20.355112,19.890438,19.949896,20.832634,20.593479,20.284418,20.023188,20.122528,20.324890,20.497818,-15.862961,-6.865980,20.770872,20.594267,20.432377,12.141169,20.123316,20.355112,19.890438,19.949896,20.832634,20.593479,20.284418,20.023188,20.122528,20.324890,20.497818,-15.862961,0.000000,0.000000,4.197351,0.007093,-0.001230,-0.001230,NaN,NaN
09/04/2018 14:36,318.968244,-30.000000,-29.950000,5.000000,20.769556,20.600309,20.438419,11.783053,20.125679,20.357475,19.889109,19.941132,20.828495,20.593021,20.276600,20.030087,20.125750,20.328110,20.493679,-16.222462,-6.779469,20.769556,20.600309,20.438419,12.165606,20.125679,20.357475,19.889109,19.941132,20.828495,20.593021,20.276600,20.030087,20.125750,20.328110,20.493679,-16.222462,0.000000,0.000000,4.221318,0.007093,-0.001230,-0.001230,NaN,NaN
09/04/2018 14:36,323.090480,-30.000000,-29.960000,5.000000,20.778532,20.601927,20.447397,12.602917,20.127296,20.370131,19.887028,19.953915,20.824072,20.592276,20.275856,20.010946,20.117645,20.312649,20.492935,-16.775280,-5.994872,20.778532,20.601927,20.447397,12.406558,20.127296,20.370131,19.887028,19.953915,20.824072,20.592276,20.275856,20.010946,20.117645,20.312649,20.492935,-16.775280,0.000000,0.000000,4.194355,0.007415,-0.001230,-0.001230,NaN,NaN
09/04/2018 14:36,329.014819,-30.000000,-29.950000,5.000000,20.769115,20.599869,20.441658,11.545258,20.128918,20.368073,19.888664,19.944403,20.812424,20.573269,20.267887,20.006659,20.102320,20.304682,20.473928,-17.327959,-7.011492,20.769115,20.599869,20.441658,12.095719,20.128918,20.368073,19.888664,19.944403,20.812424,20.573269,20.267887,20.006659,20.102320,20.304682,20.473928,-17.327959,0.000000,0.000000,4.218322,0.007093,-0.002519,-0.001230,NaN,NaN
09/04/2018 14:36,333.137054,-30.000000,-29.970000,5.000000,20.775005,20.598400,20.451227,10.781167,20.131128,20.370283,19.887180,19.946636,20.815340,20.587225,20.263445,20.009575,20.105236,20.307598,20.476847,-17.676193,-7.788902,20.775005,20.598400,20.451227,11.871159,20.131128,20.370283,19.887180,19.946636,20.815340,20.587225,20.263445,20.009575,20.105236,20.307598,20.476847,-17.676193,0.000000,0.000000,4.185367,0.006771,-0.001230,0.000058,NaN,-128.043548
09/04/2018 14:36,339.058393,-30.000000,-29.960000,5.000000,20.769133,20.603565,20.449036,12.944652,20.125256,20.364410,19.888681,19.948137,20.829142,20.593668,20.266211,20.016018,20.111679,20.314041,20.483288,-18.194448,-5.683126,20.769133,20.603565,20.449036,12.506991,20.125256,20.364410,19.888681,19.948137,20.829142,20.593668,20.266211,20.016018,20.111679,20.314041,20.483288,-18.194448,0.000000,0.000000,4.203343,0.007093,-0.001230,-0.001230,NaN,NaN
09/04/2018 14:37,344.981732,-30.000000,-29.950000,5.000000,20.775175,20.609608,20.451397,11.458049,20.138657,20.374132,19.894783,19.946806,20.817514,20.582039,20.269299,20.015427,20.100050,20.306091,20.482698,-18.534784,-7.090703,20.775175,20.609608,20.451397,12.070089,20.138657,20.374132,19.894783,19.946806,20.817514,20.582039,20.269299,20.015427,20.100050,20.306091,20.482698,-18.534784,0.000000,0.000000,4.206339,0.006771,-0.001230,-0.001230,NaN,NaN
09/04/2018 14:37,349.101967,-30.000000,-29.950000,5.000000,20.772829,20.599901,20.441692,11.955445,20.125273,20.364426,19.888699,19.940722,20.820278,20.584803,20.268383,20.010832,20.110172,20.312532,20.481781,-19.029879,-6.609346,20.772829,20.599901,20.441692,12.216270,20.125273,20.364426,19.888699,19.940722,20.820278,20.584803,20.268383,20.010832,20.110172,20.312532,20.481781,-19.029879,0.000000,0.000000,4.194355,0.007093,-0.001230,-0.001230,NaN,NaN
09/04/2018 14:37,355.025306,-30.000000,-29.950000,5.000000,20.785791,20.601826,20.450975,12.124284,20.130877,20.370031,19.894358,19.950098,20.822887,20.598450,20.270992,20.028158,20.131180,20.326183,20.499109,-19.509689,-6.439856,20.785791,20.601826,20.450975,12.265891,20.130877,20.370031,19.894358,19.950098,20.822887,20.598450,20.270992,20.028158,20.131180,20.326183,20.499109,-19.509689,0.000000,0.000000,4.194355,0.007415,-0.001230,-0.001230,NaN,NaN
09/04/2018 14:37,360.045593,-30.000000,-29.940000,5.000000,20.773418,20.600491,20.456999,11.414953,20.136898,20.368694,19.896725,19.945032,20.844374,20.605219,20.296158,20.031248,20.130590,20.318233,20.491161,-19.846163,-7.129430,20.773418,20.600491,20.456999,12.057424,20.136898,20.368694,19.896725,19.945032,20.844374,20.605219,20.296158,20.031248,20.130590,20.318233,20.491161,-19.846163,0.000000,0.000000,4.218322,0.007093,-0.001230,-0.001230,NaN,NaN
09/04/2018 14:37,365.062881,-30.000000,-29.940000,5.000000,20.767698,20.594772,20.443920,13.128704,20.123821,20.366655,19.890947,19.946688,20.839624,20.593113,20.280373,20.037539,20.125843,20.328203,20.486412,-20.328932,-5.523274,20.767698,20.594772,20.443920,12.561083,20.123821,20.366655,19.890947,19.946688,20.839624,20.593113,20.280373,20.037539,20.125843,20.328203,20.486412,-20.328932,0.000000,0.000000,4.191359,0.007093,-0.001230,-0.001230,NaN,NaN
09/04/2018 14:37,370.986219,-30.000000,-29.940000,5.000000,20.766382,20.608171,20.449963,12.648548,20.137222,20.369019,19.893337,19.941643,20.827978,20.592503,20.279760,20.022211,20.121552,20.320234,20.482124,-20.656780,-5.950869,20.766382,20.608171,20.449963,12.419969,20.137222,20.369019,19.893337,19.941643,20.827978,20.592503,20.279760,20.022211,20.121552,20.320234,20.482124,-20.656780,0.000000,0.000000,4.200347,0.007093,-0.001230,-0.001230,NaN,NaN
09/04/2018 14:37,375.106455,-30.000000,-29.950000,5.000000,20.768002,20.602434,20.455261,12.477681,20.127804,20.363277,19.894970,19.946993,20.819397,20.591280,20.285900,20.013632,20.116652,20.311653,20.477222,-21.127201,-6.104074,20.768002,20.602434,20.455261,12.369752,20.127804,20.363277,19.894970,19.946993,20.819397,20.591280,20.285900,20.013632,20.116652,20.311653,20.477222,-21.127201,0.000000,0.000000,4.215326,0.007093,-0.001230,0.000058,NaN,-128.043548
09/04/2018 14:37,381.030794,-30.000000,-29.960000,5.000000,20.773453,20.600525,20.449675,12.228224,20.129576,20.365051,19.878180,19.948784,20.825859,20.590385,20.277643,20.020094,20.123114,20.310759,20.480005,-21.589386,-6.342296,20.773453,20.600525,20.449675,12.296438,20.129576,20.365051,19.878180,19.948784,20.825859,20.590385,20.277643,20.020094,20.123114,20.310759,20.480005,-21.589386,0.000000,0.000000,4.209335,0.007093,-0.001230,-0.001230,NaN,NaN
09/04/2018 14:37,386.955132,-30.000000,-29.960000,5.000000,20.761099,20.591850,20.437321,12.080678,20.124580,20.363735,19.876850,19.936308,20.832607,20.597132,20.280712,20.034199,20.122503,20.313826,20.486753,-21.885698,-6.492680,20.761099,20.591850,20.437321,12.253076,20.124580,20.363735,19.876850,19.936308,20.832607,20.597132,20.280712,20.034199,20.122503,20.313826,20.486753,-21.885698,0.000000,0.000000,4.206339,0.007093,-0.001230,-0.001230,NaN,NaN
09/04/2018 14:37,391.076368,-30.000000,-29.960000,5.000000,20.770229,20.604660,20.450129,11.258788,20.133709,20.369184,19.893503,19.941811,20.820501,20.588705,20.275965,20.011055,20.110397,20.301720,20.474648,-22.359896,-7.293230,20.770229,20.604660,20.450129,12.011528,20.133709,20.369184,19.893503,19.941811,20.820501,20.588705,20.275965,20.011055,20.110397,20.301720,20.474648,-22.359896,0.000000,0.000000,4.185367,0.007093,-0.001230,-0.001230,NaN,NaN
09/04/2018 14:37,397.000707,-30.000000,-29.970000,5.000000,20.761555,20.592306,20.445135,11.489486,20.117678,20.364189,19.888458,19.936768,20.823439,20.580605,20.278902,20.010313,20.113335,20.304657,20.473906,-22.656349,-7.064327,20.761555,20.592306,20.445135,12.079329,20.117678,20.364189,19.888458,19.936768,20.823439,20.580605,20.278902,20.010313,20.113335,20.304657,20.473906,-22.656349,0.000000,0.000000,4.194355,0.007093,0.000058,-0.001230,-128.043548,NaN
09/04/2018 14:37,401.120943,-30.000000,-29.960000,5.000000,20.770683,20.601437,20.457945,11.303407,20.134167,20.369640,19.890247,19.942272,20.829880,20.590725,20.270626,20.020433,20.119776,20.307419,20.476667,-23.079136,-7.241447,20.770683,20.601437,20.457945,12.024641,20.134167,20.369640,19.890247,19.942272,20.829880,20.590725,20.270626,20.020433,20.119776,20.307419,20.476667,-23.079136,0.000000,0.000000,4.212331,0.007093,-0.002519,-0.001230,NaN,NaN
09/04/2018 14:38,407.045281,-30.000000,-29.970000,5.000000,20.765099,20.595852,20.452360,11.844911,20.135941,20.364056,19.884607,19.944063,20.832493,20.604376,20.280598,20.026726,20.118708,20.313711,20.479280,-23.509968,-6.707701,20.765099,20.595852,20.452360,12.183785,20.135941,20.364056,19.884607,19.944063,20.832493,20.604376,20.280598,20.026726,20.118708,20.313711,20.479280,-23.509968,0.000000,0.000000,4.191359,0.007093,-0.001230,-0.001230,NaN,NaN
09/04/2018 14:38,412.970621,-30.000000,-29.970000,5.000000,20.778502,20.609253,20.462082,11.845927,20.141983,20.373777,19.898144,19.946451,20.824522,20.585367,20.265268,20.015076,20.110737,20.313099,20.478668,-23.798399,-6.698742,20.778502,20.609253,20.462082,12.184084,20.141983,20.373777,19.898144,19.946451,20.824522,20.585367,20.265268,20.015076,20.110737,20.313099,20.478668,-23.798399,0.000000,0.000000,4.188363,0.007093,-0.001230,-0.001230,NaN,NaN
09/04/2018 14:38,417.090856,-30.000000,-29.970000,5.000000,20.776745,20.611176,20.456646,13.425820,20.136547,20.379381,19.896370,19.948393,20.838188,20.606394,20.282616,20.028744,20.120726,20.312050,20.488657,-24.193733,-5.252235,20.776745,20.611176,20.456646,12.648403,20.136547,20.379381,19.896370,19.948393,20.838188,20.606394,20.282616,20.028744,20.120726,20.312050,20.488657,-24.193733,0.000000,0.000000,4.200347,0.007093,-0.001230,-0.001230,NaN,NaN
09/04/2018 14:38,423.015195,-30.000000,-29.960000,5.000000,20.778519,20.616629,20.454739,11.218732,20.145678,20.377474,19.890728,19.953899,20.829611,20.594135,20.285074,20.020164,20.123186,20.314508,20.472717,-24.608961,-7.330365,20.778519,20.616629,20.454739,11.999756,20.145678,20.377474,19.890728,19.953899,20.829611,20.594135,20.285074,20.020164,20.123186,20.314508,20.472717,-24.608961,0.000000,0.000000,4.218322,0.007093,-0.001230,-0.001230,NaN,NaN
09/04/2018 14:38,427.135431,-30.000000,-29.970000,5.000000,20.773655,20.615446,20.460913,12.849837,20.144495,20.372612,19.889530,19.948988,20.829020,20.593546,20.277124,20.019575,20.115236,20.306561,20.483166,-24.869774,-5.758681,20.773655,20.615446,20.460913,12.479126,20.144495,20.372612,19.889530,19.948988,20.829020,20.593546,20.277124,20.019575,20.115236,20.306561,20.483166,-24.869774,0.000000,0.000000,4.206339,0.007093,-0.001230,-0.001230,NaN,NaN
09/04/2018 14:38,433.059770,-30.000000,-29.970000,5.000000,20.783092,20.610165,20.459312,12.531934,20.146572,20.371010,19.891630,19.947371,20.831633,20.607195,20.290775,20.029545,20.125206,20.320208,20.482098,-25.253302,-6.050492,20.783092,20.610165,20.459312,12.385696,20.146572,20.371010,19.891630,19.947371,20.831633,20.607195,20.290775,20.029545,20.125206,20.320208,20.482098,-25.253302,0.000000,0.000000,4.182372,0.007093,-0.001230,-0.001230,NaN,NaN
09/04/2018 14:38,438.984108,-30.000000,-29.960000,5.000000,20.781908,20.616339,20.472847,11.083359,20.145390,20.380863,19.886719,19.949892,20.823509,20.591713,20.282652,20.021421,20.120762,20.319445,20.473974,-25.526127,-7.454817,20.781908,20.616339,20.472847,11.959970,20.145390,20.380863,19.886719,19.949892,20.823509,20.591713,20.282652,20.021421,20.120762,20.319445,20.473974,-25.526127,0.000000,0.000000,4.194355,0.007093,-0.001230,-0.001230,NaN,NaN
09/04/2018 14:38,443.104344,-30.000000,-29.970000,5.000000,20.776474,20.607225,20.467413,11.979273,20.147314,20.382790,19.888664,19.951836,20.826118,20.586966,20.274225,20.012995,20.119694,20.314697,20.480265,-25.909655,-6.565266,20.776474,20.607225,20.467413,12.223273,20.147314,20.382790,19.888664,19.951836,20.826118,20.586966,20.274225,20.012995,20.119694,20.314697,20.480265,-25.909655,0.000000,0.000000,4.194355,0.007415,-0.001230,0.000058,NaN,-128.045028
09/04/2018 14:38,449.028683,-30.000000,-29.970000,5.000000,20.785891,20.620321,20.465792,12.871134,20.149372,20.395885,19.894459,19.953913,20.817713,20.582237,20.262138,20.000908,20.092892,20.295254,20.457142,-26.293161,-5.735427,20.785891,20.620321,20.465792,12.485385,20.149372,20.395885,19.894459,19.953913,20.817713,20.582237,20.262138,20.000908,20.092892,20.295254,20.457142,-26.293161,0.000000,0.000000,4.206339,0.007415,-0.001230,-0.001230,NaN,NaN
09/04/2018 14:38,454.951022,-30.000000,-29.970000,5.000000,20.784880,20.619310,20.468460,10.994628,20.152039,20.383835,19.889721,19.949177,20.820782,20.581627,20.276245,20.003977,20.103317,20.302000,20.463890,-26.542171,-7.550497,20.784880,20.619310,20.468460,11.933893,20.152039,20.383835,19.889721,19.949177,20.820782,20.581627,20.276245,20.003977,20.103317,20.302000,20.463890,-26.542171,0.000000,0.000000,4.182372,0.007415,-0.001230,-0.001230,NaN,NaN
09/04/2018 14:38,459.072258,-30.000000,-29.970000,5.000000,20.790617,20.621368,20.474197,11.060034,20.150417,20.389572,19.895514,19.943823,20.823545,20.588070,20.275330,20.006741,20.113441,20.301086,20.466654,-26.893995,-7.477863,20.790617,20.621368,20.474197,11.953115,20.150417,20.389572,19.895514,19.943823,20.823545,20.588070,20.275330,20.006741,20.113441,20.301086,20.466654,-26.893995,0.000000,0.000000,4.200347,0.007093,-0.001230,-0.001230,NaN,NaN
09/04/2018 14:39,464.995596,-30.000000,-29.970000,5.000000,20.767378,20.601810,20.458317,11.050399,20.138216,20.366335,19.875761,19.938932,20.830160,20.598366,20.281946,20.028074,20.116377,20.315060,20.476948,-27.135262,-7.500795,20.767378,20.601810,20.458317,11.950284,20.138216,20.366335,19.875761,19.938932,20.830160,20.598366,20.281946,20.028074,20.116377,20.315060,20.476948,-27.135262,0.000000,0.000000,4.200347,0.007093,-0.001230,-0.001230,NaN,NaN
09/04/2018 14:39,469.116832,-30.000000,-29.960000,5.000000,20.780472,20.614904,20.471411,11.066624,20.147635,20.372070,19.885271,19.948442,20.829092,20.597298,20.284557,20.019648,20.126347,20.310312,20.475880,-27.479370,-7.473307,20.780472,20.614904,20.471411,11.955052,20.147635,20.372070,19.885271,19.948442,20.829092,20.597298,20.284557,20.019648,20.126347,20.310312,20.475880,-27.479370,0.000000,0.000000,4.191359,0.007415,-0.001230,-0.001230,NaN,NaN
09/04/2018 14:39,475.039171,-30.000000,-29.960000,5.000000,20.789757,20.624187,20.480696,11.065102,20.145878,20.377674,19.887215,19.946671,20.831856,20.607418,20.294680,20.029770,20.129110,20.320435,20.482325,-27.823315,-7.467315,20.789757,20.624187,20.480696,11.954605,20.145878,20.377674,19.887215,19.946671,20.831856,20.607418,20.294680,20.029770,20.129110,20.320435,20.482325,-27.823315,0.000000,0.000000,4.215326,0.007093,-0.001230,-0.001230,NaN,NaN
09/04/2018 14:39,480.964509,-30.000000,-29.960000,5.000000,20.792120,20.615513,20.472021,11.059021,20.148243,20.376360,19.878452,19.937910,20.827587,20.592112,20.275692,20.021820,20.113802,20.308805,20.470695,-28.056534,-7.480686,20.792120,20.615513,20.472021,11.952818,20.148243,20.376360,19.878452,19.937910,20.827587,20.592112,20.275692,20.021820,20.113802,20.308805,20.470695,-28.056534,0.000000,0.000000,4.209335,0.007093,-0.001230,-0.001230,NaN,NaN
09/04/2018 14:39,485.084745,-30.000000,-29.970000,5.000000,20.782988,20.624779,20.473927,11.058006,20.142790,20.378265,19.884094,19.939835,20.837708,20.598555,20.289492,20.028263,20.123924,20.315247,20.477137,-28.388649,-7.480186,20.782988,20.624779,20.473927,11.952519,20.142790,20.378265,19.884094,19.939835,20.837708,20.598555,20.289492,20.028263,20.123924,20.315247,20.477137,-28.388649,0.000000,0.000000,4.185367,0.007093,-0.001230,-0.001230,NaN,NaN
09/04/2018 14:39,491.003084,-30.000000,-29.970000,5.000000,20.785503,20.619934,20.472763,11.055978,20.145306,20.377100,19.879202,19.942375,20.822227,20.590433,20.274014,20.016462,20.108444,20.303448,20.472696,-28.614166,-7.513593,20.785503,20.619934,20.472763,11.951923,20.145306,20.377100,19.879202,19.942375,20.822227,20.590433,20.274014,20.016462,20.108444,20.303448,20.472696,-28.614166,0.000000,0.000000,4.191359,0.007415,0.000058,-0.001230,-128.043548,NaN
09/04/2018 14:39,495.123320,-30.000000,-29.970000,5.000000,20.768879,20.606989,20.463497,11.024034,20.128679,20.367836,19.877277,19.929300,20.824860,20.596741,20.284002,20.022772,20.118433,20.309757,20.467966,-28.930658,-7.523943,20.768879,20.606989,20.463497,11.942535,20.128679,20.367836,19.877277,19.929300,20.824860,20.596741,20.284002,20.022772,20.118433,20.309757,20.467966,-28.930658,0.000000,0.000000,4.197351,0.006771,-0.001230,-0.001230,NaN,NaN
09/04/2018 14:39,501.048658,-30.000000,-29.970000,5.000000,20.766972,20.601404,20.461592,11.005781,20.145172,20.365929,19.871635,19.931091,20.834980,20.595827,20.275728,20.014498,20.113838,20.312521,20.467052,-29.258837,-7.544479,20.766972,20.601404,20.461592,11.937171,20.145172,20.365929,19.871635,19.931091,20.834980,20.595827,20.275728,20.014498,20.113838,20.312521,20.467052,-29.258837,0.000000,0.000000,4.191359,0.007093,-0.001230,-0.001230,NaN,NaN
09/04/2018 14:39,506.972997,-30.000000,-29.990000,5.000000,20.773014,20.607447,20.460274,10.943925,20.129137,20.368290,19.866589,19.937193,20.830538,20.591385,20.267605,20.006374,20.109394,20.297039,20.462606,-29.472527,-7.610099,20.773014,20.607447,20.460274,11.918992,20.129137,20.368290,19.866589,19.937193,20.830538,20.591385,20.267605,20.006374,20.109394,20.297039,20.462606,-29.472527,0.000000,0.000000,4.188363,0.006771,-0.001230,-0.001230,NaN,NaN
09/04/2018 14:39,511.094233,-30.000000,-29.980000,5.000000,20.774786,20.609219,20.465725,10.964713,20.138268,20.366385,19.868378,19.938984,20.829622,20.590467,20.270369,20.009138,20.115839,20.299803,20.469051,-29.777050,-7.583930,20.774786,20.609219,20.465725,11.925101,20.138268,20.366385,19.868378,19.938984,20.829622,20.590467,20.270369,20.009138,20.115839,20.299803,20.469051,-29.777050,0.000000,0.000000,4.212331,0.007415,-0.001230,-0.001230,NaN,NaN
09/04/2018 14:39,517.018572,-30.000000,-29.980000,5.000000,20.776558,20.607311,20.463818,10.930235,20.143719,20.371836,19.870169,19.929623,20.839611,20.604137,20.284037,20.026485,20.122147,20.317150,20.482719,-30.067192,-7.621544,20.776558,20.607311,20.463818,11.914968,20.143719,20.371836,19.870169,19.929623,20.839611,20.604137,20.284037,20.026485,20.122147,20.317150,20.482719,-30.067192,0.000000,0.000000,4.206339,0.007093,-0.001230,-0.001230,NaN,NaN
09/04/2018 14:39,521.138807,-30.000000,-29.980000,5.000000,20.779074,20.609825,20.473692,10.916544,20.142553,20.378029,19.876425,19.947029,20.838850,20.599693,20.279594,20.014687,20.114027,20.305351,20.470919,-30.280899,-7.627852,20.779074,20.609825,20.473692,11.910945,20.142553,20.378029,19.876425,19.947029,20.838850,20.599693,20.279594,20.014687,20.114027,20.305351,20.470919,-30.280899,0.000000,0.000000,4.185367,0.007093,-0.001230,-0.001230,NaN,NaN
09/04/2018 14:40,527.061146,-30.000000,-29.990000,5.000000,20.784525,20.615276,20.479143,10.891701,20.148006,20.379801,19.881929,19.945103,20.823217,20.598780,20.267641,20.013769,20.116791,20.308115,20.470003,-30.579117,-7.649494,20.784525,20.615276,20.479143,11.903644,20.148006,20.379801,19.881929,19.945103,20.823217,20.598780,20.267641,20.013769,20.116791,20.308115,20.470003,-30.579117,0.000000,0.000000,4.191359,0.007093,-0.001230,-0.001230,NaN,NaN
09/04/2018 14:40,532.986485,-30.000000,-29.970000,5.000000,20.783344,20.614096,20.477961,10.881560,20.146824,20.378620,19.884453,19.943909,20.829830,20.594357,20.274258,20.016706,20.116049,20.307371,20.469261,-30.772722,-7.661118,20.783344,20.614096,20.477961,11.900663,20.146824,20.378620,19.884453,19.943909,20.829830,20.594357,20.274258,20.016706,20.116049,20.307371,20.469261,-30.772722,0.000000,0.000000,4.215326,0.007415,-0.001230,-0.001230,NaN,NaN
09/04/2018 14:40,537.106721,-30.000000,-29.970000,5.000000,20.781301,20.608374,20.468561,10.868885,20.133745,20.369221,19.874958,19.934416,20.836121,20.596968,20.273190,20.015638,20.118658,20.306303,20.475550,-31.063074,-7.682107,20.781301,20.608374,20.468561,11.896938,20.133745,20.369221,19.874958,19.934416,20.836121,20.596968,20.273190,20.015638,20.118658,20.306303,20.475550,-31.063074,0.000000,0.000000,4.215326,0.007093,-0.001230,-0.001230,NaN,NaN
09/04/2018 14:40,543.031060,-30.000000,-29.970000,5.000000,20.786753,20.613825,20.470333,10.844548,20.135515,20.359953,19.869316,19.947353,20.827696,20.603260,20.275801,20.018250,20.106554,20.301556,20.463446,-31.353424,-7.706315,20.786753,20.613825,20.470333,11.889786,20.135515,20.359953,19.869316,19.947353,20.827696,20.603260,20.275801,20.018250,20.106554,20.301556,20.463446,-31.353424,0.000000,0.000000,4.197351,0.007093,-0.002519,-0.001230,NaN,NaN
09/04/2018 14:40,548.954398,-30.000000,-29.980000,5.000000,20.781605,20.608677,20.468864,10.825786,20.137728,20.365843,19.871550,19.938437,20.841801,20.595289,20.282547,20.021317,20.120659,20.304623,20.473871,-31.526800,-7.727320,20.781605,20.608677,20.468864,11.884272,20.137728,20.365843,19.871550,19.938437,20.841801,20.595289,20.282547,20.021317,20.120659,20.304623,20.473871,-31.526800,0.000000,0.000000,4.200347,0.007093,-0.001230,-0.001230,NaN,NaN
09/04/2018 14:40,553.074634,-30.000000,-29.980000,5.000000,20.787058,20.610451,20.477995,10.793336,20.139502,20.367617,19.877056,19.936512,20.844278,20.597767,20.288706,20.027475,20.126816,20.318140,20.476351,-31.805248,-7.754229,20.787058,20.610451,20.477995,11.874735,20.139502,20.367617,19.877056,19.936512,20.844278,20.597767,20.288706,20.027475,20.126816,20.318140,20.476351,-31.805248,0.000000,0.000000,4.182372,0.007093,0.000058,-0.001230,-128.043548,NaN
09/04/2018 14:40,558.998973,-30.000000,-29.970000,5.000000,20.793098,20.620171,20.480358,10.775086,20.145542,20.369980,19.879442,19.946331,20.836006,20.593172,20.276751,20.015520,20.118542,20.309866,20.475433,-31.991009,-7.771660,20.793098,20.620171,20.480358,11.869371,20.145542,20.369980,19.879442,19.946331,20.836006,20.593172,20.276751,20.015520,20.118542,20.309866,20.475433,-31.991009,0.000000,0.000000,4.200347,0.006771,-0.001230,-0.002519,NaN,NaN
09/04/2018 14:40,563.118208,-30.000000,-29.970000,5.000000,20.776321,20.603395,20.459904,10.738580,20.139803,20.360563,19.869932,19.933102,20.842316,20.606840,20.283062,20.029190,20.117493,20.305136,20.474384,-32.257240,-7.827095,20.776321,20.603395,20.459904,11.858643,20.139803,20.360563,19.869932,19.933102,20.842316,20.606840,20.283062,20.029190,20.117493,20.305136,20.474384,-32.257240,0.000000,0.000000,4.212331,0.007093,-0.001230,-0.001230,NaN,NaN
09/04/2018 14:40,569.040547,-30.000000,-29.970000,5.000000,20.781773,20.619884,20.476391,10.710187,20.152613,20.369690,19.879150,19.949755,20.841095,20.598261,20.281841,20.024290,20.119951,20.318634,20.480522,-32.519642,-7.843953,20.781773,20.619884,20.476391,11.850298,20.152613,20.369690,19.879150,19.949755,20.841095,20.598261,20.281841,20.024290,20.119951,20.318634,20.480522,-32.519642,0.000000,0.000000,4.206339,0.007093,-0.001230,-0.001230,NaN,NaN
09/04/2018 14:40,574.964886,-30.000000,-29.980000,5.000000,20.791647,20.615042,20.478907,10.690412,20.151449,20.379566,19.881693,19.956013,20.855049,20.612215,20.295794,20.038244,20.130226,20.325228,20.483438,-32.681137,-7.863029,20.791647,20.615042,20.478907,11.844486,20.151449,20.379566,19.881693,19.956013,20.855049,20.612215,20.295794,20.038244,20.130226,20.325228,20.483438,-32.681137,0.000000,0.000000,4.203343,0.007093,-0.001230,-0.001230,NaN,NaN
09/04/2018 14:40,579.085122,-30.000000,-29.970000,5.000000,20.797100,20.620493,20.484358,10.672159,20.156900,20.388697,19.887197,19.961517,20.839281,20.600126,20.280027,20.026155,20.118139,20.316820,20.482389,-32.943356,-7.878126,20.797100,20.620493,20.484358,11.839122,20.156900,20.388697,19.887197,19.961517,20.839281,20.600126,20.280027,20.026155,20.118139,20.316820,20.482389,-32.943356,0.000000,0.000000,4.200347,0.007415,-0.001230,-0.001230,NaN,NaN
09/04/2018 14:41,585.003460,-30.000000,-29.970000,5.000000,20.795784,20.630215,20.483044,10.650862,20.151905,20.380022,19.882153,19.949041,20.853085,20.599213,20.282793,20.028921,20.124584,20.319586,20.481476,-33.109028,-7.894197,20.795784,20.630215,20.483044,11.832863,20.151905,20.380022,19.882153,19.949041,20.853085,20.599213,20.282793,20.028921,20.124584,20.319586,20.481476,-33.109028,0.000000,0.000000,4.203343,0.007093,-0.001230,-0.001230,NaN,NaN
09/04/2018 14:41,589.124696,-30.000000,-29.980000,5.000000,20.808592,20.620947,20.492172,10.628553,20.153675,20.381792,19.883942,19.954544,20.852016,20.601824,20.289083,20.020494,20.105120,20.303801,20.458332,-33.375282,-7.918554,20.808592,20.620947,20.492172,11.826306,20.153675,20.381792,19.883942,19.954544,20.852016,20.601824,20.289083,20.020494,20.105120,20.303801,20.458332,-33.375282,0.000000,0.000000,4.188363,0.007093,-0.001230,-0.001230,NaN,NaN
09/04/2018 14:41,595.048035,-30.000000,-29.980000,5.000000,20.791662,20.604017,20.482601,10.600669,20.147785,20.368542,19.870560,19.948595,20.850510,20.596638,20.283895,20.030025,20.122009,20.309652,20.475222,-33.605869,-7.956331,20.791662,20.604017,20.482601,11.818111,20.147785,20.368542,19.870560,19.948595,20.850510,20.596638,20.283895,20.030025,20.122009,20.309652,20.475222,-33.605869,0.000000,0.000000,4.206339,0.007093,-0.001230,-0.003807,NaN,NaN
09/04/2018 14:41,600.971374,-30.000000,-29.980000,5.000000,20.797705,20.628458,20.492323,10.593569,20.153828,20.370907,19.880379,19.943550,20.842236,20.599401,20.282982,20.021751,20.106377,20.312416,20.470627,-33.767529,-7.956087,20.797705,20.628458,20.492323,11.816025,20.153828,20.370907,19.880379,19.943550,20.842236,20.599401,20.282982,20.021751,20.106377,20.312416,20.470627,-33.767529,0.000000,0.000000,4.185367,0.007093,-0.001230,-0.001230,NaN,NaN
09/04/2018 14:41,605.091609,-30.000000,-29.990000,5.000000,20.795666,20.622738,20.482925,10.575822,20.144430,20.372547,19.885750,19.956354,20.844711,20.605558,20.285460,20.031588,20.116211,20.307535,20.473103,-34.005814,-7.982863,20.795666,20.622738,20.482925,11.810809,20.144430,20.372547,19.885750,19.956354,20.844711,20.605558,20.285460,20.031588,20.116211,20.307535,20.473103,-34.005814,0.000000,0.000000,4.188363,0.007093,-0.001230,-0.001230,NaN,NaN
09/04/2018 14:41,611.015948,-30.000000,-29.990000,5.000000,20.797285,20.631716,20.491903,10.552501,20.153408,20.381523,19.879953,19.950558,20.839811,20.596977,20.276878,20.026688,20.118670,20.306314,20.471882,-34.228050,-8.000778,20.797285,20.631716,20.491903,11.803955,20.153408,20.381523,19.879953,19.950558,20.839811,20.596977,20.276878,20.026688,20.118670,20.306314,20.471882,-34.228050,0.000000,0.000000,4.200347,0.007093,-0.001230,-0.001230,NaN,NaN
09/04/2018 14:41,615.137184,-30.000000,-30.000000,5.000000,20.795815,20.615528,20.483074,10.409517,20.151937,20.376375,19.882183,19.949074,20.853462,20.603268,20.283171,20.029299,20.121281,20.312605,20.478174,-34.373814,-8.163587,20.795815,20.615528,20.483074,11.761933,20.151937,20.376375,19.882183,19.949074,20.853462,20.603268,20.283171,20.029299,20.121281,20.312605,20.478174,-34.373814,0.000000,0.000000,4.194355,0.007415,-0.001230,-0.001230,NaN,NaN
09/04/2018 14:41,621.061522,-30.000000,-30.010000,5.000000,20.805098,20.624811,20.484999,8.895027,20.146503,20.367262,19.872980,19.939869,20.844900,20.598387,20.285648,20.028095,20.116400,20.304045,20.462254,-34.604065,-9.942807,20.805098,20.624811,20.484999,11.316835,20.146503,20.367262,19.872980,19.939869,20.844900,20.598387,20.285648,20.028095,20.116400,20.304045,20.462254,-34.604065,0.000000,0.000000,4.203343,0.007093,-0.001230,-0.001230,NaN,NaN
09/04/2018 14:41,626.985861,-30.000000,-29.990000,5.000000,20.799950,20.627022,20.494568,6.806076,20.156073,20.376831,19.878929,19.953249,20.858704,20.612190,20.288412,20.034542,20.119165,20.310488,20.472378,-34.757690,-12.912979,20.799950,20.627022,20.494568,10.702908,20.156073,20.376831,19.878929,19.953249,20.858704,20.612190,20.288412,20.034542,20.119165,20.310488,20.472378,-34.757690,0.000000,0.000000,4.206339,0.007415,-0.001230,-0.001230,NaN,NaN
09/04/2018 14:41,631.107097,-30.000000,-29.980000,5.000000,20.794365,20.621437,20.485304,8.542137,20.154165,20.378603,19.880720,19.951324,20.842783,20.596270,20.272491,20.014940,20.106922,20.298246,20.467495,-34.975891,-10.397216,20.794365,20.621437,20.485304,11.213123,20.154165,20.378603,19.880720,19.951324,20.842783,20.596270,20.272491,20.014940,20.106922,20.298246,20.467495,-34.975891,0.000000,0.000000,4.212331,0.007093,-0.001230,-0.001230,NaN,NaN
09/04/2018 14:41,637.030436,-30.000000,-29.990000,5.000000,20.803341,20.630415,20.497959,9.845704,20.163145,20.376543,19.886070,19.960390,20.844786,20.598272,20.278173,20.027981,20.116285,20.303928,20.469498,-35.182564,-8.784994,20.803341,20.630415,20.497959,11.596232,20.163145,20.376543,19.886070,19.960390,20.844786,20.598272,20.278173,20.027981,20.116285,20.303928,20.469498,-35.182564,0.000000,0.000000,4.215326,0.007093,-0.001230,-0.001230,NaN,NaN
09/04/2018 14:42,642.955775,-30.000000,-29.980000,5.000000,20.794819,20.614534,20.485758,9.878663,20.143583,20.368021,19.870031,19.951784,20.854927,20.604734,20.284636,20.023405,20.108028,20.299353,20.461243,-35.328136,-8.756911,20.794819,20.614534,20.485758,11.605919,20.143583,20.368021,19.870031,19.951784,20.854927,20.604734,20.284636,20.023405,20.108028,20.299353,20.461243,-35.328136,0.000000,0.000000,4.212331,0.007415,-0.001230,-0.001230,NaN,NaN
09/04/2018 14:42,647.077011,-30.000000,-30.000000,5.000000,20.814701,20.630735,20.498280,9.891844,20.152426,20.376863,19.882681,19.960714,20.846041,20.603207,20.286787,20.029236,20.124899,20.308863,20.470753,-35.526611,-8.731664,20.814701,20.630735,20.498280,11.609793,20.152426,20.376863,19.882681,19.960714,20.846041,20.603207,20.286787,20.029236,20.124899,20.308863,20.470753,-35.526611,0.000000,0.000000,4.212331,0.007093,-0.001230,-0.001230,NaN,NaN
09/04/2018 14:42,652.999350,-30.000000,-29.990000,5.000000,20.820879,20.629557,20.500780,9.860916,20.158606,20.372004,19.877771,19.952091,20.844975,20.591103,20.271004,20.020811,20.109114,20.304117,20.469687,-35.676384,-8.765195,20.820879,20.629557,20.500780,11.600703,20.158606,20.372004,19.877771,19.952091,20.844975,20.591103,20.271004,20.020811,20.109114,20.304117,20.469687,-35.676384,0.000000,0.000000,4.203343,0.007093,-0.002519,-0.001230,NaN,NaN
09/04/2018 14:42,657.120585,-30.000000,-29.990000,5.000000,20.804253,20.620287,20.487833,9.862438,20.141979,20.366415,19.875843,19.953880,20.843620,20.589748,20.269650,20.015778,20.104080,20.299084,20.460974,-35.870655,-8.773894,20.804253,20.620287,20.487833,11.601151,20.141979,20.366415,19.875843,19.953880,20.843620,20.589748,20.269650,20.015778,20.104080,20.299084,20.460974,-35.870655,0.000000,0.000000,4.215326,0.007093,-0.001230,-0.001230,NaN,NaN
09/04/2018 14:42,663.043924,-30.000000,-29.990000,5.000000,20.809704,20.629419,20.500643,9.831507,20.158468,20.375547,19.885065,19.959385,20.846079,20.599564,20.279465,20.029272,20.110218,20.297863,20.463430,-36.068798,-8.799204,20.809704,20.629419,20.500643,11.592060,20.158468,20.375547,19.885065,19.959385,20.846079,20.599564,20.279465,20.029272,20.110218,20.297863,20.463430,-36.068798,0.000000,0.000000,4.194355,0.007093,-0.001230,-0.001230,NaN,NaN
09/04/2018 14:42,668.968263,-30.000000,-29.980000,5.000000,20.797503,20.628256,20.484762,9.857872,20.142588,20.367025,19.880173,19.954493,20.848709,20.598515,20.274736,20.028223,20.112846,20.307850,20.469740,-36.194454,-8.781628,20.797503,20.628256,20.484762,11.599809,20.142588,20.367025,19.880173,19.954493,20.848709,20.598515,20.274736,20.028223,20.112846,20.307850,20.469740,-36.194454,0.000000,0.000000,4.191359,0.007415,-0.001230,-0.001230,NaN,NaN
09/04/2018 14:42,673.088499,-30.000000,-29.980000,5.000000,20.799427,20.626499,20.490366,9.843675,20.144512,20.365271,19.870970,19.949005,20.851015,20.604504,20.273365,20.026852,20.118835,20.306479,20.475727,-36.384724,-8.793461,20.799427,20.626499,20.490366,11.595636,20.144512,20.365271,19.870970,19.949005,20.851015,20.604504,20.273365,20.026852,20.118835,20.306479,20.475727,-36.384724,0.000000,0.000000,4.191359,0.006771,-0.001230,-0.001230,NaN,NaN
09/04/2018 14:42,679.013837,-30.000000,-29.990000,5.000000,20.801199,20.631952,20.495817,9.835057,20.153643,20.378080,19.880192,19.954512,20.849661,20.595789,20.283049,20.018139,20.110121,20.297766,20.470692,-36.570961,-8.799001,20.801199,20.631952,20.495817,11.593103,20.153643,20.378080,19.880192,19.954512,20.849661,20.595789,20.283049,20.018139,20.110121,20.297766,20.470692,-36.570961,0.000000,0.000000,4.200347,0.007093,-0.001230,-0.001230,NaN,NaN
09/04/2018 14:42,683.136073,-30.000000,-29.990000,5.000000,20.803698,20.623411,20.483597,9.809707,20.148781,20.365860,19.875282,19.945885,20.845064,20.594872,20.278452,20.024580,20.109205,20.304207,20.466097,-36.692459,-8.838144,20.803698,20.623411,20.483597,11.585653,20.148781,20.365860,19.875282,19.945885,20.845064,20.594872,20.278452,20.024580,20.109205,20.304207,20.466097,-36.692459,0.000000,0.000000,4.194355,0.007415,-0.001230,-0.001230,NaN,NaN
09/04/2018 14:42,689.061412,-30.000000,-30.010000,5.000000,20.809299,20.629013,20.500238,9.672808,20.147026,20.371464,19.877226,19.947828,20.840012,20.597179,20.280758,20.019529,20.107832,20.302835,20.464725,-36.882729,-8.984071,20.809299,20.629013,20.500238,11.545420,20.147026,20.371464,19.877226,19.947828,20.840012,20.597179,20.280758,20.019529,20.107832,20.302835,20.464725,-36.882729,0.000000,0.000000,4.197351,0.007093,-0.001230,-0.001230,NaN,NaN
09/04/2018 14:42,694.985751,-30.000000,-30.000000,5.000000,20.804457,20.616814,20.488039,10.858745,20.145863,20.362942,19.876049,19.946655,20.850153,20.599960,20.283541,20.025990,20.110613,20.298258,20.467505,-37.004204,-7.676936,20.804457,20.616814,20.488039,11.893958,20.145863,20.362942,19.876049,19.946655,20.850153,20.599960,20.283541,20.025990,20.110613,20.298258,20.467505,-37.004204,0.000000,0.000000,4.197351,0.007093,0.000058,-0.001230,-128.043548,NaN
09/04/2018 14:42,699.106987,-30.000000,-30.000000,5.000000,20.813721,20.633434,20.508339,10.718299,20.169844,20.383242,19.889122,19.967157,20.852306,20.602116,20.278337,20.024466,20.105410,20.296734,20.462301,-37.182594,-7.809327,20.813721,20.633434,20.508339,11.852682,20.169844,20.383242,19.889122,19.967157,20.852306,20.602116,20.278337,20.024466,20.105410,20.296734,20.462301,-37.182594,0.000000,0.000000,4.191359,0.007093,-0.001230,-0.001230,NaN,NaN
09/04/2018 14:43,705.030325,-30.000000,-30.020000,5.000000,20.819038,20.638754,20.502619,10.565176,20.160446,20.377523,19.890778,19.950233,20.861839,20.611647,20.287867,20.033997,20.122299,20.313623,20.475512,-37.340885,-7.978373,20.819038,20.638754,20.502619,11.807680,20.160446,20.377523,19.890778,19.950233,20.861839,20.611647,20.287867,20.033997,20.122299,20.313623,20.475512,-37.340885,0.000000,0.000000,4.194355,0.007415,-0.001230,-0.001230,NaN,NaN
09/04/2018 14:43,710.954664,-30.000000,-30.010000,5.000000,20.806818,20.637569,20.501436,10.598638,20.155582,20.372662,19.878433,19.952755,20.857244,20.607052,20.279594,20.025723,20.114025,20.309029,20.470917,-37.450325,-7.943223,20.806818,20.637569,20.501436,11.817514,20.155582,20.372662,19.878433,19.952755,20.857244,20.607052,20.279594,20.025723,20.114025,20.309029,20.470917,-37.450325,0.000000,0.000000,4.209335,0.007415,-0.001230,-0.001230,NaN,NaN
09/04/2018 14:43,715.075900,-30.000000,-30.000000,5.000000,20.805065,20.635817,20.499681,8.561405,20.157507,20.378265,19.876661,19.962132,20.848532,20.598339,20.270882,20.028048,20.108992,20.296637,20.465883,-37.628529,-10.360484,20.805065,20.635817,20.499681,11.218786,20.157507,20.378265,19.876661,19.962132,20.848532,20.598339,20.270882,20.028048,20.108992,20.296637,20.465883,-37.628529,0.000000,0.000000,4.203343,0.006771,-0.001230,-0.001230,NaN,NaN
09/04/2018 14:43,720.997239,-30.000000,-29.990000,5.000000,20.822277,20.645670,20.509537,9.927337,20.160004,20.384439,19.875467,19.960936,20.832897,20.582705,20.266285,20.008736,20.100718,20.292040,20.450249,-37.758060,-8.681901,20.822277,20.645670,20.509537,11.620224,20.160004,20.384439,19.875467,19.960936,20.832897,20.582705,20.266285,20.008736,20.100718,20.292040,20.450249,-37.758060,0.000000,0.000000,4.188363,0.006771,-0.001230,-0.001230,NaN,NaN
09/04/2018 14:43,725.117474,-30.000000,-29.990000,5.000000,20.813316,20.633032,20.500578,5.799629,20.154724,20.368122,19.862703,19.955603,20.846241,20.596048,20.283308,20.018400,20.110382,20.290667,20.456236,-37.908169,-14.656794,20.813316,20.633032,20.500578,10.407120,20.154724,20.368122,19.862703,19.955603,20.846241,20.596048,20.283308,20.018400,20.110382,20.290667,20.456236,-37.908169,0.000000,0.000000,4.218322,0.007093,-0.001230,-0.001230,NaN,NaN
09/04/2018 14:43,731.042813,-30.000000,-30.010000,5.000000,20.800657,20.631409,20.498955,6.116014,20.153101,20.377539,19.875929,19.946533,20.837681,20.587490,20.271070,20.013517,20.101822,20.285786,20.451355,-38.074154,-14.080255,20.800657,20.631409,20.498955,10.500103,20.153101,20.377539,19.875929,19.946533,20.837681,20.587490,20.271070,20.013517,20.101822,20.285786,20.451355,-38.074154,0.000000,0.000000,4.218322,0.007093,-0.001230,-0.001230,NaN,NaN
09/04/2018 14:43,736.967152,-30.000000,-29.990000,5.000000,20.807291,20.634363,20.501909,6.119057,20.141338,20.362095,19.860331,19.938366,20.840445,20.586573,20.270153,20.012604,20.104586,20.288549,20.450439,-38.183601,-14.072540,20.807291,20.634363,20.501909,10.500998,20.141338,20.362095,19.860331,19.938366,20.840445,20.586573,20.270153,20.012604,20.104586,20.288549,20.450439,-38.183601,0.000000,0.000000,4.227310,0.007415,-0.001230,-0.001230,NaN,NaN
09/04/2018 14:43,741.088388,-30.000000,-29.980000,5.000000,20.813488,20.636881,20.504427,6.680843,20.162251,20.383009,19.881454,19.955772,20.850109,20.596237,20.272461,20.018589,20.110571,20.290857,20.452747,-38.337727,-13.109403,20.813488,20.636881,20.504427,10.666102,20.162251,20.383009,19.881454,19.955772,20.850109,20.596237,20.272461,20.018589,20.110571,20.290857,20.452747,-38.337727,0.000000,0.000000,4.224314,0.007415,-0.001230,-0.001230,NaN,NaN
09/04/2018 14:43,747.012727,-30.000000,-30.000000,5.000000,20.812153,20.639227,20.503092,5.097397,20.157238,20.370638,19.872673,19.950710,20.856268,20.606075,20.285976,20.039463,20.113049,20.308052,20.469942,-38.467564,-16.048213,20.812153,20.639227,20.503092,10.200739,20.157238,20.370638,19.872673,19.950710,20.856268,20.606075,20.285976,20.039463,20.113049,20.308052,20.469942,-38.467564,0.000000,0.000000,4.221318,0.007093,-0.001230,-0.001230,NaN,NaN
09/04/2018 14:43,751.133962,-30.000000,-29.990000,5.000000,20.800238,20.634668,20.494856,5.742842,20.145321,20.366079,19.868071,19.949823,20.848146,20.608992,20.285213,20.031342,20.127003,20.307289,20.472857,-38.560780,-14.767962,20.800238,20.634668,20.494856,10.390430,20.145321,20.366079,19.868071,19.949823,20.848146,20.608992,20.285213,20.031342,20.127003,20.307289,20.472857,-38.560780,0.000000,0.000000,4.212331,0.007093,-0.001230,-0.001230,NaN,NaN
09/04/2018 14:43,757.058301,-30.000000,-29.990000,5.000000,20.802601,20.633352,20.504578,6.010552,20.140327,20.364763,19.874174,19.948494,20.850777,20.607943,20.284163,20.030291,20.122274,20.306240,20.475487,-38.702499,-14.265392,20.802601,20.633352,20.504578,10.469109,20.140327,20.364763,19.874174,19.948494,20.850777,20.607943,20.284163,20.030291,20.122274,20.306240,20.475487,-38.702499,0.000000,0.000000,4.209335,0.007415,0.000058,-0.001230,-128.043548,NaN
09/04/2018 14:44,762.983640,-30.000000,-30.000000,5.000000,20.820120,20.647192,20.507378,6.162660,20.157846,20.374924,19.877005,19.955040,20.853540,20.603348,20.279568,20.022018,20.117680,20.309004,20.470894,-38.819973,-13.990861,20.820120,20.647192,20.507378,10.513812,20.157846,20.374924,19.877005,19.955040,20.853540,20.603348,20.279568,20.022018,20.117680,20.309004,20.470894,-38.819973,0.000000,0.000000,4.203343,0.007093,-0.001230,-0.001230,NaN,NaN
09/04/2018 14:44,767.105876,-30.000000,-29.990000,5.000000,20.822483,20.649555,20.517101,6.275728,20.160210,20.377287,19.879391,19.949995,20.845112,20.594919,20.282181,20.017271,20.109253,20.293217,20.458786,-38.965740,-13.784812,20.822483,20.649555,20.517101,10.547042,20.160210,20.377287,19.879391,19.949995,20.845112,20.594919,20.282181,20.017271,20.109253,20.293217,20.458786,-38.965740,0.000000,0.000000,4.218322,0.007093,-0.001230,-0.001230,NaN,NaN
09/04/2018 14:44,773.028214,-30.000000,-30.000000,5.000000,20.813808,20.644560,20.508427,6.442539,20.151533,20.372292,19.870630,19.948666,20.847591,20.608437,20.277300,20.027107,20.115410,20.303055,20.464943,-39.099590,-13.504610,20.813808,20.644560,20.508427,10.596066,20.151533,20.372292,19.870630,19.948666,20.847591,20.608437,20.277300,20.027107,20.115410,20.303055,20.464943,-39.099590,0.000000,0.000000,4.209335,0.006771,-0.001230,-0.001230,NaN,NaN
09/04/2018 14:44,778.952553,-30.000000,-29.990000,5.000000,20.816456,20.647209,20.514753,6.538366,20.165220,20.374941,19.873304,19.955057,20.846979,20.607826,20.273010,20.019138,20.118479,20.298765,20.460653,-39.200668,-13.337903,20.816456,20.647209,20.514753,10.624229,20.165220,20.374941,19.873304,19.955057,20.846979,20.607826,20.273010,20.019138,20.118479,20.298765,20.460653,-39.200668,0.000000,0.000000,4.218322,0.007093,-0.001230,-0.001230,NaN,NaN
09/04/2018 14:44,783.073789,-30.000000,-29.990000,5.000000,20.811462,20.638535,20.502401,7.549886,20.160225,20.362587,19.883123,19.942579,20.849440,20.602926,20.282827,20.021597,20.106220,20.293865,20.466793,-39.326515,-11.760955,20.811462,20.638535,20.502401,10.921508,20.160225,20.362587,19.883123,19.942579,20.849440,20.602926,20.282827,20.021597,20.106220,20.293865,20.466793,-39.326515,0.000000,0.000000,4.218322,0.007093,-0.001230,-0.001230,NaN,NaN
09/04/2018 14:44,789.001128,-30.000000,-29.990000,5.000000,20.814245,20.644997,20.512541,7.439355,20.155651,20.369049,19.874786,19.941673,20.852356,20.602163,20.282064,20.020834,20.112818,20.293102,20.469709,-39.419724,-11.916518,20.814245,20.644997,20.512541,10.889024,20.155651,20.369049,19.874786,19.941673,20.852356,20.602163,20.282064,20.020834,20.112818,20.293102,20.469709,-39.419724,0.000000,0.000000,4.254273,0.007093,-0.001230,-0.001230,NaN,NaN
09/04/2018 14:44,793.122364,-30.000000,-30.000000,5.000000,20.812643,20.643394,20.514620,9.222568,20.157728,20.363770,19.884317,19.954922,20.854984,20.604792,20.284693,20.023462,20.119125,20.306768,20.464979,-39.545383,-9.511577,20.812643,20.643394,20.514620,11.413097,20.157728,20.363770,19.884317,19.954922,20.854984,20.604792,20.284693,20.023462,20.119125,20.306768,20.464979,-39.545383,0.000000,0.000000,4.227310,0.007093,-0.001230,-0.001230,NaN,NaN
09/04/2018 14:44,799.046703,-30.000000,-30.000000,5.000000,20.818686,20.642078,20.513302,9.598784,20.156412,20.366131,19.879271,19.938728,20.853918,20.611084,20.279947,20.029755,20.114378,20.309381,20.463913,-39.679089,-9.060578,20.818686,20.642078,20.513302,11.523664,20.156412,20.366131,19.879271,19.938728,20.853918,20.611084,20.279947,20.029755,20.114378,20.309381,20.463913,-39.679089,0.000000,0.000000,4.215326,0.007093,-0.001230,-0.001230,NaN,NaN
09/04/2018 14:44,804.971042,-30.000000,-30.000000,5.000000,20.821487,20.641201,20.512426,9.817310,20.151854,20.372612,19.878386,19.941557,20.853174,20.610340,20.282883,20.029011,20.117313,20.308638,20.466846,-39.764248,-8.806094,20.821487,20.641201,20.512426,11.587888,20.151854,20.372612,19.878386,19.941557,20.853174,20.610340,20.282883,20.029011,20.117313,20.308638,20.466846,-39.764248,0.000000,0.000000,4.215326,0.007093,-0.001230,-0.001230,NaN,NaN
09/04/2018 14:44,809.091277,-30.000000,-30.000000,5.000000,20.816626,20.647377,20.511242,9.716414,20.154350,20.367750,19.877190,19.944078,20.851954,20.601761,20.285341,20.031469,20.116093,20.303738,20.472984,-39.898129,-8.924219,20.816626,20.647377,20.511242,11.558235,20.154350,20.367750,19.877190,19.944078,20.851954,20.601761,20.285341,20.031469,20.116093,20.303738,20.472984,-39.898129,0.000000,0.000000,4.218322,0.006771,-0.001230,-0.001230,NaN,NaN
09/04/2018 14:44,815.015616,-30.000000,-30.000000,5.000000,20.815460,20.642532,20.517437,9.695117,20.153187,20.366587,19.879730,19.942902,20.869280,20.626448,20.298990,20.041439,20.133421,20.321066,20.490313,-39.999702,-8.944100,20.815460,20.642532,20.517437,11.551976,20.153187,20.366587,19.879730,19.942902,20.869280,20.626448,20.298990,20.041439,20.133421,20.321066,20.490313,-39.999702,0.000000,0.000000,4.218322,0.006771,-0.001230,-0.001230,NaN,NaN
09/04/2018 14:44,819.136852,-30.000000,-30.020000,5.000000,20.810886,20.641638,20.505505,8.009254,20.144934,20.362013,19.871393,19.930851,20.861311,20.614799,20.287342,20.037149,20.125452,20.313097,20.482344,-40.086826,-11.101431,20.810886,20.641638,20.505505,11.056513,20.144934,20.362013,19.871393,19.930851,20.861311,20.614799,20.287342,20.037149,20.125452,20.313097,20.482344,-40.086826,0.000000,0.000000,4.215326,0.006771,-0.001230,-0.001230,NaN,NaN
09/04/2018 14:45,825.061191,-30.000000,-29.990000,5.000000,20.813686,20.644440,20.511984,10.215329,20.147734,20.364813,19.866791,19.944828,20.863941,20.624788,20.293650,20.036100,20.131760,20.308367,20.473936,-39.832825,-8.354723,20.813686,20.644440,20.511984,11.704863,20.147734,20.364813,19.866791,19.944828,20.863941,20.624788,20.293650,20.036100,20.131760,20.308367,20.473936,-39.832825,0.000000,0.000000,4.239294,0.006771,-0.001230,-0.001230,NaN,NaN
09/04/2018 14:45,830.986530,-30.000000,-29.990000,5.000000,20.813116,20.654905,20.511414,10.512951,20.132444,20.364241,19.888512,19.936819,20.863333,20.613140,20.296721,20.031811,20.127474,20.304079,20.465967,-39.439877,-8.027803,20.813116,20.654905,20.511414,11.792332,20.132444,20.364241,19.888512,19.936819,20.863333,20.613140,20.296721,20.031811,20.127474,20.304079,20.465967,-39.439877,0.000000,0.000000,4.257269,0.007093,-0.001230,-0.001230,NaN,NaN
09/04/2018 14:45,835.108766,-30.000000,-29.990000,5.000000,20.819597,20.646669,20.514215,10.530698,20.153645,20.367043,19.872761,19.939648,20.855059,20.615904,20.288446,20.030895,20.111841,20.314201,20.472410,-38.167645,-8.006276,20.819597,20.646669,20.514215,11.797547,20.153645,20.367043,19.872761,19.939648,20.855059,20.615904,20.288446,20.030895,20.111841,20.314201,20.472410,-38.167645,0.000000,0.000000,4.242289,0.007093,-0.001230,-0.001230,NaN,NaN
09/04/2018 14:45,841.034104,-30.000000,-30.010000,5.000000,20.811493,20.645926,20.509790,10.282253,20.156578,20.373657,19.872009,19.935181,20.861521,20.622366,20.298588,20.044718,20.133018,20.316984,20.482553,-35.252655,-8.282130,20.811493,20.645926,20.509790,11.724531,20.156578,20.373657,19.872009,19.935181,20.861521,20.622366,20.298588,20.044718,20.133018,20.316984,20.482553,-35.252655,0.000000,0.000000,4.260265,0.007093,0.000058,-0.001230,-128.043548,NaN
09/04/2018 14:45,846.958443,-30.000000,-30.020000,5.000000,20.807529,20.641960,20.502148,10.829842,20.141577,20.358654,19.868004,19.931177,20.864893,20.622059,20.294601,20.037052,20.132713,20.320358,20.478567,-33.409424,-7.695953,20.807529,20.641960,20.502148,11.885464,20.141577,20.358654,19.868004,19.931177,20.864893,20.622059,20.294601,20.037052,20.132713,20.320358,20.478567,-33.409424,0.000000,0.000000,4.245285,0.007093,-0.001230,-0.001230,NaN,NaN
09/04/2018 14:45,851.081679,-30.000000,-30.010000,5.000000,20.795900,20.626652,20.494196,10.741115,20.129946,20.339666,19.848825,19.915716,20.856924,20.614090,20.290312,20.036440,20.128422,20.319748,20.477957,-30.859621,-7.796515,20.795900,20.626652,20.494196,11.859387,20.129946,20.339666,19.848825,19.915716,20.856924,20.614090,20.290312,20.036440,20.128422,20.319748,20.477957,-30.859621,0.000000,0.000000,4.251277,0.007093,-0.001230,-0.001230,NaN,NaN
09/04/2018 14:45,857.004018,-30.000000,-30.010000,5.000000,20.799294,20.633724,20.501270,10.753283,20.140699,20.350418,19.859686,19.922859,20.856468,20.613634,20.289856,20.032305,20.127968,20.311932,20.481180,-29.239758,-7.777816,20.799294,20.633724,20.501270,11.862964,20.140699,20.350418,19.859686,19.922859,20.856468,20.613634,20.289856,20.032305,20.127968,20.311932,20.481180,-29.239758,0.000000,0.000000,4.257269,0.007093,-0.001230,-0.001230,NaN,NaN
09/04/2018 14:45,861.125254,-30.000000,-30.000000,5.000000,20.802513,20.629585,20.500811,10.724380,20.136560,20.357317,19.859222,19.918678,20.852484,20.617008,20.282192,20.035677,20.120302,20.307947,20.469835,-26.933952,-7.808963,20.802513,20.629585,20.500811,11.854469,20.136560,20.357317,19.859222,19.918678,20.852484,20.617008,20.282192,20.035677,20.120302,20.307947,20.469835,-26.933952,0.000000,0.000000,4.248281,0.007093,-0.001230,-0.001230,NaN,NaN
09/04/2018 14:45,867.049592,-30.000000,-30.000000,5.000000,20.813133,20.647566,20.518789,10.643256,20.150860,20.360579,19.855085,19.929405,20.859537,20.616703,20.289246,20.035374,20.127356,20.307642,20.473211,-24.667566,-7.881137,20.813133,20.647566,20.518789,11.830627,20.150860,20.360579,19.855085,19.929405,20.859537,20.616703,20.289246,20.035374,20.127356,20.307642,20.473211,-24.667566,0.000000,0.000000,4.239294,0.006771,-0.001230,-0.001230,NaN,NaN
09/04/2018 14:45,872.974931,-30.000000,-30.000000,5.000000,20.816353,20.643427,20.510971,10.645287,20.143042,20.360121,19.858335,19.921509,20.859230,20.620077,20.288939,20.035067,20.130730,20.311016,20.476583,-23.201431,-7.885308,20.816353,20.643427,20.510971,11.831224,20.143042,20.360121,19.858335,19.921509,20.859230,20.620077,20.288939,20.035067,20.130730,20.311016,20.476583,-23.201431,0.000000,0.000000,4.245285,0.007093,-0.001230,-0.001230,NaN,NaN
09/04/2018 14:45,877.096167,-30.000000,-30.000000,5.000000,20.808271,20.653740,20.521286,10.642750,20.149675,20.359396,19.857605,19.928209,20.873661,20.627150,20.299692,20.042141,20.134123,20.325447,20.491014,-21.009926,-7.879652,20.808271,20.653740,20.521286,11.830479,20.149675,20.359396,19.857605,19.928209,20.873661,20.627150,20.299692,20.042141,20.134123,20.325447,20.491014,-21.009926,0.000000,0.000000,4.233302,0.007093,-0.001230,-0.001230,NaN,NaN
09/04/2018 14:46,883.021506,-30.000000,-30.020000,5.000000,20.815342,20.646093,20.521000,10.644272,20.142031,20.355429,19.861032,19.924204,20.877037,20.637882,20.306746,20.056553,20.141176,20.332500,20.490711,-18.920137,-7.878250,20.815342,20.646093,20.521000,11.830926,20.142031,20.355429,19.861032,19.924204,20.877037,20.637882,20.306746,20.056553,20.141176,20.332500,20.490711,-18.920137,0.000000,0.000000,4.215326,0.007093,-0.001230,-0.001230,NaN,NaN
09/04/2018 14:46,888.043793,-30.000000,-30.040000,5.000000,20.815039,20.653149,20.520693,10.670131,20.145405,20.358805,19.860723,19.923897,20.854654,20.619181,20.291723,20.034170,20.118795,20.310120,20.475687,-17.584761,-7.850771,20.815039,20.653149,20.520693,11.838526,20.145405,20.358805,19.860723,19.923897,20.854654,20.619181,20.291723,20.034170,20.118795,20.310120,20.475687,-17.584761,0.000000,0.000000,4.227310,0.007093,-0.002519,-0.001230,NaN,NaN
09/04/2018 14:46,893.063080,-30.000000,-30.050000,5.000000,20.796049,20.641520,20.512743,10.648328,20.141134,20.347176,19.856411,19.927013,20.854351,20.622555,20.287737,20.037546,20.122169,20.309814,20.482742,-15.593110,-7.880605,20.796049,20.641520,20.512743,11.832118,20.141134,20.347176,19.856411,19.927013,20.854351,20.622555,20.287737,20.037546,20.122169,20.309814,20.482742,-15.593110,0.000000,0.000000,4.218322,0.007093,-0.001230,-0.001230,NaN,NaN
09/04/2018 14:46,898.986419,-30.000000,-30.040000,5.000000,20.806955,20.652426,20.519970,10.640722,20.141003,20.358080,19.867424,19.930595,20.868916,20.615044,20.291265,20.030035,20.125698,20.313343,20.471552,-14.303894,-7.882899,20.806955,20.652426,20.519970,11.829883,20.141003,20.358080,19.867424,19.930595,20.868916,20.615044,20.291265,20.030035,20.125698,20.313343,20.471552,-14.303894,0.000000,0.000000,4.227310,0.007415,-0.001230,-0.001230,NaN,NaN
09/04/2018 14:46,903.107655,-30.000000,-30.070000,5.000000,20.810196,20.648306,20.519531,10.643256,20.133204,20.353964,19.848402,19.915289,20.854044,20.607533,20.283752,20.029882,20.118185,20.309509,20.471397,-12.389297,-7.880534,20.810196,20.648306,20.519531,11.830627,20.133204,20.353964,19.848402,19.915289,20.854044,20.607533,20.283752,20.029882,20.118185,20.309509,20.471397,-12.389297,0.000000,0.000000,4.242289,0.006771,-0.001230,-0.001230,NaN,NaN
09/04/2018 14:46,909.033994,-30.000000,-30.070000,5.000000,20.813568,20.655359,20.526585,10.625513,20.151295,20.364695,19.862957,19.926128,20.853741,20.614584,20.294487,20.029577,20.121559,20.305525,20.474771,-10.521180,-7.893868,20.813568,20.655359,20.526585,11.825413,20.151295,20.364695,19.862957,19.926128,20.853741,20.614584,20.294487,20.029577,20.121559,20.305525,20.474771,-10.521180,0.000000,0.000000,4.224314,0.007093,-0.002519,-0.001230,NaN,NaN
09/04/2018 14:46,914.958333,-30.000000,-30.050000,5.000000,20.802244,20.644033,20.515259,10.625513,20.136292,20.353369,19.851519,19.910975,20.849909,20.610754,20.283297,20.029425,20.125088,20.312731,20.481979,-9.304541,-7.903068,20.802244,20.644033,20.515259,11.825413,20.136292,20.353369,19.851519,19.910975,20.849909,20.610754,20.283297,20.029425,20.125088,20.312731,20.481979,-9.304541,0.000000,0.000000,4.245285,0.006771,-0.001230,-0.001230,NaN,NaN
09/04/2018 14:46,919.082569,-30.000000,-30.050000,5.000000,20.805773,20.658600,20.515106,10.622469,20.136141,20.349539,19.858797,19.918255,20.868153,20.628998,20.294182,20.036631,20.121256,20.312578,20.474468,-7.529484,-7.906465,20.805773,20.658600,20.515106,11.824518,20.136141,20.349539,19.858797,19.918255,20.868153,20.628998,20.294182,20.036631,20.121256,20.312578,20.474468,-7.529484,0.000000,0.000000,4.239294,0.006771,-0.001230,-0.001230,NaN,NaN
09/04/2018 14:46,925.002907,-30.000000,-30.050000,5.000000,20.809452,20.647562,20.515106,10.634131,20.139818,20.342180,19.851364,19.914537,20.860641,20.628845,20.294027,20.040157,20.128460,20.319784,20.481672,-6.374042,-7.893929,20.809452,20.647562,20.515106,11.827946,20.139818,20.342180,19.851364,19.914537,20.860641,20.628845,20.294027,20.040157,20.128460,20.319784,20.481672,-6.374042,0.000000,0.000000,4.251277,0.006771,-0.001230,-0.001230,NaN,NaN
09/04/2018 14:46,929.122143,-30.000000,-30.060000,5.000000,20.794600,20.647429,20.511293,10.589513,20.143364,20.338367,19.843800,19.910686,20.853130,20.617655,20.286518,20.028967,20.124630,20.304914,20.470484,-4.671208,-7.945054,20.794600,20.647429,20.511293,11.814833,20.143364,20.338367,19.843800,19.910686,20.853130,20.617655,20.286518,20.028967,20.124630,20.304914,20.470484,-4.671208,0.000000,0.000000,4.236298,0.007093,-0.001230,-0.001230,NaN,NaN
09/04/2018 14:46,935.047482,-30.000000,-30.040000,5.000000,20.816961,20.647715,20.522617,10.607766,20.139971,20.357050,19.858952,19.925838,20.867847,20.628695,20.290197,20.040007,20.120949,20.315952,20.477842,-3.021437,-7.916187,20.816961,20.647715,20.522617,11.820197,20.139971,20.357050,19.858952,19.925838,20.867847,20.628695,20.290197,20.040007,20.120949,20.315952,20.477842,-3.021437,0.000000,0.000000,4.239294,0.006771,-0.001230,-0.001230,NaN,NaN
09/04/2018 14:46,940.970820,-30.000000,-30.050000,5.000000,20.809603,20.658752,20.522617,10.593063,20.136292,20.357050,19.851519,19.918406,20.856810,20.610298,20.279160,20.028967,20.120949,20.304914,20.466805,-1.930460,-7.932030,20.809603,20.658752,20.522617,11.815876,20.136292,20.357050,19.851519,19.918406,20.856810,20.610298,20.279160,20.028967,20.120949,20.304914,20.466805,-1.930460,0.000000,0.000000,4.239294,0.006771,-0.001230,-0.001230,NaN,NaN
09/04/2018 14:47,945.092056,-30.000000,-30.050000,5.000000,20.813721,20.659191,20.523056,10.589007,20.144089,20.353807,19.855677,19.915134,20.852995,20.610163,20.279026,20.028833,20.120817,20.304781,20.477707,-0.318840,-7.936048,20.813721,20.659191,20.523056,11.814684,20.144089,20.353807,19.855677,19.915134,20.852995,20.610163,20.279026,20.028833,20.120817,20.304781,20.477707,-0.318840,0.000000,0.000000,4.236298,0.006771,-0.001230,-0.001230,NaN,NaN
09/04/2018 14:47,951.015395,-30.000000,-30.020000,5.000000,20.817554,20.651987,20.526890,10.578357,20.147923,20.357641,19.859549,19.915289,20.849451,20.602938,20.279160,20.021610,20.113592,20.297556,20.466805,1.216717,-7.944428,20.817554,20.651987,20.526890,11.811554,20.147923,20.357641,19.859549,19.915289,20.849451,20.602938,20.279160,20.021610,20.113592,20.297556,20.466805,1.216717,0.000000,0.000000,4.242289,0.007093,-0.001230,-0.001230,NaN,NaN
09/04/2018 14:47,955.136631,-30.000000,-30.010000,5.000000,20.821234,20.663025,20.526890,10.729452,20.151600,20.353964,19.859549,19.922722,20.856676,20.602804,20.282703,20.025154,20.113457,20.304781,20.462990,2.226256,-7.782355,20.821234,20.663025,20.526890,11.855960,20.151600,20.353964,19.859549,19.922722,20.856676,20.602804,20.282703,20.025154,20.113457,20.304781,20.462990,2.226256,0.000000,0.000000,4.254273,0.007093,-0.001230,-0.001230,NaN,NaN
09/04/2018 14:47,961.060969,-30.000000,-30.000000,5.000000,20.817839,20.659628,20.534533,10.719818,20.151886,20.365284,19.867270,19.930439,20.864035,20.613842,20.282703,20.021475,20.117136,20.301102,20.481386,3.720126,-7.786414,20.817839,20.659628,20.534533,11.853128,20.151886,20.365284,19.867270,19.930439,20.864035,20.613842,20.282703,20.021475,20.117136,20.301102,20.481386,3.720126,0.000000,0.000000,4.221318,0.007093,-0.001230,-0.001230,NaN,NaN
09/04/2018 14:47,966.983308,-30.000000,-30.000000,5.000000,20.825352,20.678179,20.545725,10.698524,20.152039,20.365438,19.874857,19.938028,20.856810,20.617655,20.290197,20.032646,20.120949,20.315952,20.481522,4.692404,-7.800050,20.825352,20.678179,20.545725,11.846870,20.152039,20.365438,19.874857,19.938028,20.856810,20.617655,20.290197,20.032646,20.120949,20.315952,20.481522,4.692404,0.000000,0.000000,4.218322,0.007093,-0.001230,-0.001230,NaN,NaN
09/04/2018 14:47,971.107544,-30.000000,-30.000000,5.000000,20.829317,20.667427,20.542332,10.651878,20.156004,20.362045,19.867714,19.930883,20.860489,20.610298,20.275480,20.021610,20.117270,20.297556,20.466805,6.107450,-7.852756,20.829317,20.667427,20.542332,11.833161,20.156004,20.362045,19.867714,19.930883,20.860489,20.610298,20.275480,20.021610,20.117270,20.297556,20.466805,6.107450,0.000000,0.000000,4.245285,0.007093,-0.001230,-0.001230,NaN,NaN
09/04/2018 14:47,977.030883,-30.000000,-30.020000,5.000000,20.822262,20.664051,20.531599,10.636666,20.141592,20.358671,19.860588,19.927477,20.860489,20.617655,20.275480,20.025288,20.124630,20.308594,20.470484,7.514991,-7.877808,20.822262,20.664051,20.531599,11.828691,20.141592,20.358671,19.860588,19.927477,20.860489,20.617655,20.275480,20.025288,20.124630,20.308594,20.470484,7.514991,0.000000,0.000000,4.221318,0.007093,-0.001230,-0.001230,NaN,NaN
09/04/2018 14:47,982.955222,-30.000000,-30.000000,5.000000,20.811512,20.653303,20.528206,10.616384,20.134520,20.344242,19.853445,19.916618,20.867847,20.617655,20.275480,20.025288,20.117270,20.304914,20.474161,8.438338,-7.902370,20.811512,20.653303,20.528206,11.822730,20.134520,20.344242,19.853445,19.916618,20.867847,20.617655,20.275480,20.025288,20.117270,20.304914,20.474161,8.438338,0.000000,0.000000,4.215326,0.006771,-0.001230,-0.001230,NaN,NaN
09/04/2018 14:47,987.075458,-30.000000,-30.010000,5.000000,20.819309,20.661098,20.532324,10.387714,20.145998,20.359396,19.861320,19.920778,20.849604,20.610449,20.268272,20.021761,20.110064,20.301388,20.459597,9.778471,-8.147563,20.819309,20.661098,20.532324,11.755526,20.145998,20.359396,19.861320,19.920778,20.849604,20.610449,20.268272,20.021761,20.110064,20.301388,20.459597,9.778471,0.000000,0.000000,4.248281,0.007093,-0.001230,-0.001230,NaN,NaN
09/04/2018 14:47,993.000796,-30.000000,-30.030000,5.000000,20.823578,20.658010,20.540272,10.393802,20.146587,20.356306,19.854485,19.928804,20.853283,20.617807,20.279312,20.014400,20.110064,20.308746,20.463276,10.657657,-8.134438,20.823578,20.658010,20.540272,11.757315,20.146587,20.356306,19.854485,19.928804,20.853283,20.617807,20.279312,20.014400,20.110064,20.308746,20.463276,10.657657,0.000000,0.000000,4.218322,0.007093,-0.001230,-0.001230,NaN,NaN
09/04/2018 14:47,997.123032,-30.000000,-30.030000,5.000000,20.827850,20.669640,20.544544,10.380618,20.147181,20.364260,19.866232,19.929405,20.853434,20.606922,20.275785,20.014555,20.110216,20.301540,20.463428,11.943547,-8.145449,20.827850,20.669640,20.544544,11.753440,20.147181,20.364260,19.866232,19.929405,20.853434,20.606922,20.275785,20.014555,20.110216,20.301540,20.463428,11.943547,0.000000,0.000000,4.245285,0.007093,-0.001230,-0.001230,NaN,NaN
09/04/2018 14:48,1003.045371,-30.000000,-30.030000,5.000000,20.828423,20.670212,20.541435,10.377068,20.136713,20.353792,19.851946,19.918833,20.860947,20.621792,20.275938,20.029425,20.114048,20.316410,20.474621,13.222006,-8.151870,20.828423,20.670212,20.541435,11.752397,20.136713,20.353792,19.851946,19.918833,20.860947,20.621792,20.275938,20.029425,20.114048,20.316410,20.474621,13.222006,0.000000,0.000000,4.224314,0.007093,-0.001230,-0.001230,NaN,NaN
09/04/2018 14:48,1008.969710,-30.000000,-30.040000,5.000000,20.817823,20.659613,20.527159,10.361352,20.129793,20.339514,19.841240,19.908127,20.864779,20.625622,20.276091,20.022219,20.117880,20.294487,20.463734,14.032248,-8.180723,20.817823,20.659613,20.527159,11.747778,20.129793,20.339514,19.841240,19.908127,20.864779,20.625622,20.276091,20.022219,20.117880,20.294487,20.463734,14.032248,0.000000,0.000000,4.215326,0.006771,0.000058,-0.001230,-128.043548,NaN
09/04/2018 14:48,1013.089945,-30.000000,-30.050000,5.000000,20.818567,20.667715,20.535261,10.291887,20.145254,20.351295,19.849424,19.916311,20.857723,20.603851,20.269035,20.029882,20.114506,20.302149,20.467718,15.247687,-8.250827,20.818567,20.667715,20.535261,11.727363,20.145254,20.351295,19.849424,19.916311,20.857723,20.603851,20.269035,20.029882,20.114506,20.302149,20.467718,15.247687,0.000000,0.000000,4.227310,0.007093,0.000058,-0.001230,-128.043548,NaN
09/04/2018 14:48,1019.014284,-30.000000,-30.020000,5.000000,20.822819,20.657251,20.535833,10.234594,20.145828,20.355547,19.842571,19.913176,20.850365,20.614889,20.269035,20.015163,20.110826,20.302149,20.467718,16.429375,-8.313957,20.822819,20.657251,20.535833,11.710525,20.145828,20.355547,19.842571,19.913176,20.850365,20.614889,20.269035,20.015163,20.110826,20.302149,20.467718,16.429375,0.000000,0.000000,4.215326,0.007093,-0.001230,-0.001230,NaN,NaN
09/04/2018 14:48,1023.135520,-30.000000,-30.030000,5.000000,20.830635,20.668747,20.539970,10.240678,20.138927,20.348646,19.843033,19.921068,20.865082,20.614889,20.269035,20.018845,20.107145,20.305828,20.464039,17.217167,-8.303839,20.830635,20.668747,20.539970,11.712313,20.138927,20.348646,19.843033,19.921068,20.865082,20.614889,20.269035,20.018845,20.107145,20.305828,20.464039,17.217167,0.000000,0.000000,4.218322,0.006771,-0.001230,-0.001230,NaN,NaN
09/04/2018 14:48,1029.061859,-30.000000,-30.020000,5.000000,20.827526,20.672997,20.540541,10.264003,20.143177,20.360254,19.862190,19.925362,20.846992,20.600479,20.269341,20.015471,20.114811,20.298777,20.464344,18.354572,-8.277461,20.827526,20.672997,20.540541,11.719168,20.143177,20.360254,19.862190,19.925362,20.846992,20.600479,20.269341,20.015471,20.114811,20.298777,20.464344,18.354572,0.000000,0.000000,4.206339,0.007093,0.000058,-0.001230,-128.043548,NaN
09/04/2018 14:48,1034.987198,-30.000000,-30.030000,5.000000,20.827833,20.669624,20.537169,10.233578,20.136126,20.356882,19.862499,19.921955,20.850670,20.600479,20.265663,20.004433,20.100094,20.298777,20.453308,19.101488,-8.314007,20.827833,20.669624,20.537169,11.710226,20.136126,20.356882,19.862499,19.921955,20.850670,20.600479,20.265663,20.004433,20.100094,20.298777,20.453308,19.101488,0.000000,0.000000,4.236298,0.006771,-0.001230,-0.001230,NaN,NaN
09/04/2018 14:48,1039.108434,-30.000000,-30.010000,5.000000,20.832237,20.670349,20.552610,10.243213,20.155247,20.361288,19.874378,19.933836,20.854654,20.611820,20.269646,20.019455,20.111437,20.302759,20.457291,20.210777,-8.290785,20.832237,20.670349,20.552610,11.713058,20.155247,20.361288,19.874378,19.933836,20.854654,20.611820,20.269646,20.019455,20.111437,20.302759,20.457291,20.210777,0.000000,0.000000,4.233302,0.006771,-0.002519,-0.001230,NaN,NaN
09/04/2018 14:48,1045.031772,-30.000000,-30.010000,5.000000,20.832829,20.674618,20.545843,10.244735,20.141119,20.354519,19.863829,19.927000,20.854504,20.604311,20.265816,20.015623,20.103928,20.284212,20.460819,21.281303,-8.294572,20.832829,20.674618,20.545843,11.713505,20.141119,20.354519,19.863829,19.927000,20.854504,20.604311,20.265816,20.015623,20.103928,20.284212,20.460819,21.281303,0.000000,0.000000,4.224314,0.007093,-0.001230,-0.001230,NaN,NaN
09/04/2018 14:48,1050.957111,-30.000000,-30.030000,5.000000,20.829435,20.667545,20.546127,10.239156,20.141405,20.347445,19.856684,19.927288,20.854811,20.604618,20.269800,20.012251,20.115271,20.295557,20.464804,21.988033,-8.300546,20.829435,20.667545,20.546127,11.711865,20.141405,20.347445,19.856684,19.927288,20.854811,20.604618,20.269800,20.012251,20.115271,20.295557,20.464804,21.988033,0.000000,0.000000,4.224314,0.007415,-0.001230,-0.001230,NaN,NaN
09/04/2018 14:48,1055.079347,-30.000000,-30.020000,5.000000,20.826498,20.664610,20.543192,10.264509,20.142149,20.355547,19.868582,19.931755,20.843924,20.601089,20.258915,20.005043,20.100704,20.295708,20.457596,23.025747,-8.274752,20.826498,20.664610,20.543192,11.719316,20.142149,20.355547,19.868582,19.931755,20.843924,20.601089,20.258915,20.005043,20.100704,20.295708,20.457596,23.025747,0.000000,0.000000,4.221318,0.007093,-0.001230,-0.001230,NaN,NaN
09/04/2018 14:48,1061.003686,-30.000000,-30.010000,5.000000,20.837976,20.676086,20.543633,10.198088,20.142590,20.352308,19.865311,19.928482,20.847754,20.597561,20.259066,20.005196,20.104536,20.292181,20.454069,23.695530,-8.348335,20.837976,20.676086,20.543633,11.699796,20.142590,20.352308,19.865311,19.928482,20.847754,20.597561,20.259066,20.005196,20.104536,20.292181,20.454069,23.695530,0.000000,0.000000,4.230306,0.007415,-0.001230,-0.001230,NaN,NaN
09/04/2018 14:49,1065.124922,-30.000000,-30.030000,5.000000,20.835022,20.684170,20.551714,10.235610,20.158030,20.367750,19.869759,19.940361,20.844227,20.601395,20.259220,20.012707,20.112047,20.292334,20.461580,24.700134,-8.299968,20.835022,20.684170,20.551714,11.710823,20.158030,20.367750,19.869759,19.940361,20.844227,20.601395,20.259220,20.012707,20.112047,20.292334,20.461580,24.700134,0.000000,0.000000,4.245285,0.007093,-0.001230,-0.001230,NaN,NaN
09/04/2018 14:49,1071.049261,-30.000000,-30.000000,5.000000,20.835766,20.666517,20.537743,10.220397,20.140377,20.353777,19.863079,19.929966,20.844381,20.601547,20.259373,20.009180,20.101164,20.281448,20.454376,25.671621,-8.328220,20.835766,20.666517,20.537743,11.706352,20.140377,20.353777,19.863079,19.929966,20.844381,20.601547,20.259373,20.009180,20.101164,20.281448,20.454376,25.671621,0.000000,0.000000,4.236298,0.006771,-0.001230,-0.001230,NaN,NaN
09/04/2018 14:49,1076.974599,-30.000000,-30.000000,5.000000,20.836205,20.670637,20.541859,10.211272,20.133457,20.343178,19.859806,19.930408,20.844687,20.605530,20.252317,20.005806,20.105146,20.296469,20.454679,26.315804,-8.335059,20.836205,20.670637,20.541859,11.703671,20.133457,20.343178,19.859806,19.930408,20.844687,20.605530,20.252317,20.005806,20.105146,20.296469,20.454679,26.315804,0.000000,0.000000,4.221318,0.007093,-0.001230,-0.001230,NaN,NaN
09/04/2018 14:49,1081.096835,-30.000000,-30.000000,5.000000,20.840456,20.671207,20.546112,10.206707,20.145067,20.351109,19.856668,19.930988,20.852177,20.601986,20.256132,20.005939,20.097921,20.289246,20.462172,27.261517,-8.336709,20.840456,20.671207,20.546112,11.702329,20.145067,20.351109,19.856668,19.930988,20.852177,20.601986,20.256132,20.005939,20.097921,20.289246,20.462172,27.261517,0.000000,0.000000,4.215326,0.007093,-0.001230,-0.001230,NaN,NaN
09/04/2018 14:49,1087.021174,-30.000000,-30.000000,5.000000,20.830296,20.668406,20.535950,10.199104,20.131229,20.340948,19.853836,19.928156,20.852331,20.598459,20.267323,20.009771,20.101753,20.293077,20.454967,28.188854,-8.353420,20.830296,20.668406,20.535950,11.700094,20.131229,20.340948,19.853836,19.928156,20.852331,20.598459,20.267323,20.009771,20.101753,20.293077,20.454967,28.188854,0.000000,0.000000,4.224314,0.007093,-0.001230,-0.001230,NaN,NaN
09/04/2018 14:49,1092.044461,-30.000000,-30.000000,5.000000,20.838243,20.676355,20.547579,10.255891,20.135498,20.356255,19.865582,19.936186,20.859690,20.613176,20.274681,20.020809,20.109114,20.304117,20.466003,28.803295,-8.280768,20.838243,20.676355,20.547579,11.716784,20.135498,20.356255,19.865582,19.936186,20.859690,20.613176,20.274681,20.020809,20.109114,20.304117,20.466003,28.803295,0.000000,0.000000,4.230306,0.006771,-0.001230,-0.001230,NaN,NaN
09/04/2018 14:49,1097.063748,-30.000000,-30.020000,5.000000,20.842802,20.677235,20.544779,9.670274,20.143736,20.353455,19.866468,19.933355,20.856314,20.602442,20.263947,20.010075,20.113096,20.300739,20.458950,29.693989,-8.951149,20.842802,20.677235,20.544779,11.544675,20.143736,20.353455,19.866468,19.933355,20.856314,20.602442,20.263947,20.010075,20.113096,20.300739,20.458950,29.693989,0.000000,0.000000,4.242289,0.006771,-0.001230,-0.001230,NaN,NaN
09/04/2018 14:49,1102.987087,-30.000000,-30.030000,5.000000,20.836185,20.666939,20.534485,9.720470,20.126081,20.343161,19.859787,19.930391,20.849110,20.606277,20.260422,20.013908,20.102213,20.289856,20.462784,30.269135,-8.900750,20.836185,20.666939,20.534485,11.559427,20.126081,20.343161,19.859787,19.930391,20.849110,20.606277,20.260422,20.013908,20.102213,20.289856,20.462784,30.269135,0.000000,0.000000,4.233302,0.007093,-0.001230,-0.001230,NaN,NaN
09/04/2018 14:49,1107.106323,-30.000000,-30.060000,5.000000,20.844709,20.679140,20.546686,9.808691,20.145641,20.344324,19.860964,19.931568,20.849262,20.602749,20.260574,20.006702,20.106043,20.293688,20.455576,31.125465,-8.788419,20.844709,20.679140,20.546686,11.585355,20.145641,20.344324,19.860964,19.931568,20.849262,20.602749,20.260574,20.006702,20.106043,20.293688,20.455576,31.125465,0.000000,0.000000,4.221318,0.007093,-0.001230,-0.001230,NaN,NaN
09/04/2018 14:49,1113.103666,-30.000000,-30.040000,5.000000,20.845892,20.676643,20.540510,9.807169,20.132107,20.345505,19.854725,19.932760,20.853245,20.610413,20.264557,20.014364,20.113707,20.293991,20.466919,31.971018,-8.795163,20.845892,20.676643,20.540510,11.584908,20.132107,20.345505,19.854725,19.932760,20.853245,20.610413,20.264557,20.014364,20.113707,20.293991,20.466919,31.971018,0.000000,0.000000,4.215326,0.007093,-0.001230,-0.001230,NaN,NaN
