COOL INOffset , COOL INScale ,COOL OUTOffset , COOL OUTScale ,ENV TEMPOffset , ENV TEMPScale ,ENV HUMIDOffset , ENV HUMIDScale ,LIDOffset , LIDScale ,BOXOffset , BOXScale ,SPAREOffset , SPAREScale ,LABOffset , LABScale ,CB1Offset , CB1Scale ,CB2Offset , CB2Scale ,CB3Offset , CB3Scale ,CB4Offset , CB4Scale ,VC1Offset , VC1Scale ,VC2Offset , VC2Scale ,VC3Offset , VC3Scale ,COLDBLOCKOffset , COLDBLOCKScale ,
0.000000,1.000000,0.000000,1.000000,0.000000,1.000000,8.702650,3.402600,0.000000,1.000000,0.000000,1.000000,0.000000,1.000000,0.000000,1.000000,0.000000,1.000000,0.000000,1.000000,0.000000,1.000000,0.000000,1.000000,0.000000,1.000000,0.000000,1.000000,0.000000,1.000000,0.000000,1.000000
Time,Elapsed,Set T,Meas T,Pump,DP 1 2,DP,Col 1,Col 2,N2_Flow,Vacuum,NTC_CH3_RAW,NTC_CH7_RAW,NTC_CH3,NTC_CH7,,,,,COLDBLOCK,,,,,,,,,,,,,,,,,,,,,,,,,,
29/03/2018 13:24,2.960169,-15.000000,-16.010000,5.000000,0.000000,0.000000,0.000000,0.000000,4.293220,0.007093,-0.001230,-0.001230,NaN,NaN
29/03/2018 13:24,5.042288,-15.000000,-16.030000,5.000000,20.175570,20.422083,20.061512,-4.750079,19.794573,20.050474,19.835449,19.794573,20.191113,19.973774,19.709938,19.483263,19.776827,20.007149,20.154320,39.665840,NaN,20.175570,20.422083,20.061512,7.306635,19.794573,20.050474,19.835449,19.794573,20.191113,19.973774,19.709938,19.483263,19.776827,20.007149,20.154320,39.665840,0.000000,0.000000,4.308199,0.007093,-0.001230,-0.001230,NaN,NaN
29/03/2018 13:24,7.106406,-15.000000,-16.030000,5.000000,20.182928,20.440479,20.057833,-3.309615,19.794573,20.054153,19.831734,19.798288,20.194658,19.969925,19.706087,19.483128,19.769260,20.010693,20.146826,39.658421,NaN,20.182928,20.440479,20.057833,7.729978,19.794573,20.054153,19.831734,19.798288,20.194658,19.969925,19.706087,19.483128,19.769260,20.010693,20.146826,39.658421,0.000000,0.000000,4.323178,0.007415,-0.001230,-0.001230,NaN,NaN
29/03/2018 13:24,10.974627,-15.000000,-16.030000,5.000000,20.179249,20.447838,20.065189,-3.195029,19.805721,20.061512,19.842880,19.809437,20.194658,19.973639,19.709803,19.483128,19.769260,20.007013,20.146826,39.658421,NaN,20.179249,20.447838,20.065189,7.763654,19.805721,20.061512,19.842880,19.809437,20.194658,19.973639,19.709803,19.483128,19.769260,20.007013,20.146826,39.658421,0.000000,0.000000,4.314191,0.007415,-0.001230,-0.001230,NaN,NaN
29/03/2018 13:24,13.037745,-15.000000,-15.760000,5.000000,20.171890,20.425762,20.050474,-5.226177,19.790855,20.046793,19.839167,19.794573,20.194658,19.966208,19.706087,19.475697,19.772974,20.003336,20.143148,39.651134,NaN,20.171890,20.425762,20.050474,7.166714,19.790855,20.046793,19.839167,19.794573,20.194658,19.966208,19.706087,19.475697,19.772974,20.003336,20.143148,39.651134,0.000000,0.000000,4.299211,0.007093,-0.001230,-0.001230,NaN,NaN
29/03/2018 13:24,15.100863,-15.000000,-15.540000,5.000000,20.164381,20.425611,20.054001,-5.178518,19.794420,20.054001,19.831579,19.790705,20.176262,19.955059,19.698654,19.468264,19.761827,20.014372,20.143148,39.585556,NaN,20.164381,20.425611,20.054001,7.180720,19.794420,20.054001,19.831579,19.790705,20.176262,19.955059,19.698654,19.468264,19.761827,20.014372,20.143148,39.585556,0.000000,0.000000,4.317187,0.007093,-0.001230,-0.001230,NaN,NaN
29/03/2018 13:24,18.967085,-15.000000,-15.350000,5.000000,20.171740,20.436649,20.057680,-5.372201,19.798136,20.054001,19.839012,19.794420,20.176107,19.962337,19.698502,19.471825,19.761673,20.003181,20.139315,38.674572,NaN,20.171740,20.436649,20.057680,7.123798,19.798136,20.054001,19.839012,19.794420,20.176107,19.962337,19.698502,19.471825,19.761673,20.003181,20.139315,38.674572,0.000000,0.000000,4.299211,0.007093,-0.001230,-0.001230,NaN,NaN
29/03/2018 13:24,21.030203,-15.000000,-15.040000,5.000000,20.164381,20.429289,20.054001,-13.119066,19.786987,20.054001,19.831579,19.794420,20.179787,19.958620,19.698502,19.468109,19.757957,19.995781,20.131956,32.947281,NaN,20.164381,20.429289,20.054001,4.847050,19.786987,20.054001,19.831579,19.794420,20.179787,19.958620,19.698502,19.468109,19.757957,19.995781,20.131956,32.947281,0.000000,0.000000,4.305203,0.007093,-0.001230,-0.001230,NaN,NaN
29/03/2018 13:24,23.093321,-15.000000,-14.820000,5.000000,20.175419,20.436649,20.057680,-12.917269,19.798136,20.050322,19.831579,19.794420,20.179787,19.962337,19.698502,19.482973,19.772821,19.999498,20.139315,29.716532,NaN,20.175419,20.436649,20.057680,4.906356,19.798136,20.050322,19.831579,19.794420,20.179787,19.962337,19.698502,19.482973,19.772821,19.999498,20.139315,29.716532,0.000000,0.000000,4.326174,0.007093,-0.001230,-0.001230,NaN,NaN
29/03/2018 13:24,26.959542,-15.000000,-14.820000,5.000000,20.175419,20.436649,20.061359,-10.653393,19.794420,20.065039,19.835297,19.798136,20.187145,19.958620,19.698502,19.468109,19.765388,19.999498,20.139315,26.728941,NaN,20.175419,20.436649,20.061359,5.571693,19.794420,20.065039,19.835297,19.798136,20.187145,19.958620,19.698502,19.468109,19.765388,19.999498,20.139315,26.728941,0.000000,0.000000,4.299211,0.007093,-0.001230,-0.001230,NaN,NaN
29/03/2018 13:24,29.023660,-15.000000,-14.000000,5.000000,20.156887,20.425476,20.053867,-10.226478,19.790569,20.046509,19.835161,19.786854,20.183332,19.958485,19.702082,19.471689,19.772686,20.003048,20.142862,21.827980,NaN,20.156887,20.425476,20.053867,5.697161,19.790569,20.046509,19.835161,19.786854,20.183332,19.958485,19.702082,19.471689,19.772686,20.003048,20.142862,21.827980,0.000000,0.000000,4.311195,0.007415,-0.001230,-0.001230,NaN,NaN
29/03/2018 13:24,31.087778,-15.000000,-13.950000,5.000000,20.171606,20.425476,20.050188,-10.038370,19.786854,20.042830,19.827728,19.779421,20.179655,19.965918,19.705799,19.479122,19.776402,20.014084,20.146540,19.839573,NaN,20.171606,20.425476,20.050188,5.752444,19.786854,20.042830,19.827728,19.779421,20.179655,19.965918,19.705799,19.479122,19.776402,20.014084,20.146540,19.839573,0.000000,0.000000,4.293220,0.007415,-0.001230,-0.001230,NaN,NaN
29/03/2018 13:24,34.950999,-15.000000,-13.920000,5.000000,20.160568,20.429155,20.050188,-9.796011,19.790569,20.046509,19.827728,19.783136,20.179655,19.962202,19.694649,19.475405,19.765253,19.999363,20.139181,18.041031,NaN,20.160568,20.429155,20.050188,5.823672,19.790569,20.046509,19.827728,19.783136,20.179655,19.962202,19.694649,19.475405,19.765253,19.999363,20.139181,18.041031,0.000000,0.000000,4.281236,0.007093,-0.001230,-0.001230,NaN,NaN
29/03/2018 13:24,37.015117,-15.000000,-13.740000,5.000000,20.164246,20.432837,20.050188,-7.840915,19.790569,20.046509,19.824013,19.783136,20.179655,19.969633,19.705799,19.482838,19.768970,20.006727,20.146540,15.001341,NaN,20.164246,20.432837,20.050188,6.398261,19.790569,20.046509,19.824013,19.783136,20.179655,19.969633,19.705799,19.482838,19.768970,20.006727,20.146540,15.001341,0.000000,0.000000,4.317187,0.006771,-0.001230,-0.001230,NaN,NaN
29/03/2018 13:24,39.077235,-15.000000,-13.740000,5.000000,20.171606,20.429155,20.057547,-7.453547,19.794285,20.053867,19.827728,19.790569,20.172295,19.958485,19.698366,19.479122,19.772686,20.010406,20.142862,13.659866,NaN,20.171606,20.429155,20.057547,6.512105,19.794285,20.053867,19.827728,19.790569,20.172295,19.958485,19.698366,19.479122,19.772686,20.010406,20.142862,13.659866,0.000000,0.000000,4.284232,0.006771,-0.001230,-0.001230,NaN,NaN
29/03/2018 13:24,41.140353,-15.000000,-13.610000,5.000000,20.175283,20.432837,20.053867,-6.917112,19.798000,20.053867,19.827728,19.790569,20.186861,19.973196,19.713078,19.467821,19.772532,20.002897,20.142710,12.440865,NaN,20.175283,20.432837,20.053867,6.669760,19.798000,20.053867,19.827728,19.790569,20.186861,19.973196,19.713078,19.467821,19.772532,20.002897,20.142710,12.440865,0.000000,0.000000,4.281236,0.007093,-0.001230,-0.001230,NaN,NaN
29/03/2018 13:24,45.006574,-15.000000,-13.600000,5.000000,20.164246,20.429155,20.050188,-7.276594,19.786854,20.046509,19.820295,19.775703,20.183332,19.962202,19.702082,19.471689,19.768970,20.006727,20.150219,11.307637,NaN,20.164246,20.429155,20.050188,6.564111,19.786854,20.046509,19.820295,19.775703,20.183332,19.962202,19.702082,19.471689,19.768970,20.006727,20.150219,11.307637,0.000000,0.000000,4.302207,0.007415,-0.001230,-0.001230,NaN,NaN
29/03/2018 13:24,47.069692,-15.000000,-13.530000,5.000000,20.167925,20.429155,20.057547,-6.848157,19.794285,20.050188,19.838877,19.798000,20.186861,19.962048,19.701929,19.475252,19.765102,20.006575,20.142710,9.305059,NaN,20.167925,20.429155,20.057547,6.690025,19.794285,20.050188,19.838877,19.798000,20.186861,19.962048,19.701929,19.475252,19.765102,20.006575,20.142710,9.305059,0.000000,0.000000,4.284232,0.007415,-0.001230,-0.001230,NaN,NaN
29/03/2018 13:24,49.133810,-15.000000,-13.470000,5.000000,20.167925,20.432837,20.057547,-6.815201,19.790569,20.046509,19.824013,19.783136,20.190691,19.965918,19.705799,19.482838,19.780119,20.017765,20.146540,8.415649,NaN,20.167925,20.432837,20.057547,6.699711,19.790569,20.046509,19.824013,19.783136,20.190691,19.965918,19.705799,19.482838,19.780119,20.017765,20.146540,8.415649,0.000000,0.000000,4.287228,0.007415,-0.001230,-0.001230,NaN,NaN
29/03/2018 13:24,52.997031,-15.000000,-13.450000,5.000000,20.167925,20.429155,20.053867,-6.800496,19.790569,20.050188,19.820295,19.779421,20.190691,19.973351,19.716946,19.482838,19.772686,20.014084,20.150219,7.578631,NaN,20.167925,20.429155,20.053867,6.704032,19.790569,20.050188,19.820295,19.779421,20.190691,19.973351,19.716946,19.482838,19.772686,20.014084,20.150219,7.578631,0.000000,0.000000,4.311195,0.007415,-0.001230,-0.001230,NaN,NaN
29/03/2018 13:25,55.061149,-15.000000,-13.420000,5.000000,20.160568,20.418118,20.042830,-6.629627,19.786854,20.039150,19.816582,19.779421,20.198051,19.973351,19.709515,19.486555,19.776402,20.017765,20.157578,6.058488,NaN,20.160568,20.418118,20.042830,6.754250,19.786854,20.039150,19.816582,19.779421,20.198051,19.973351,19.709515,19.486555,19.776402,20.017765,20.157578,6.058488,0.000000,0.000000,4.278240,0.007093,-0.001230,-0.001230,NaN,NaN
29/03/2018 13:25,57.124267,-15.000000,-13.400000,5.000000,20.160568,20.432837,20.053867,-6.636727,19.798000,20.050188,19.831444,19.786854,20.183332,19.962202,19.713228,19.479122,19.772686,20.010406,20.153898,5.367855,NaN,20.160568,20.432837,20.053867,6.752163,19.798000,20.050188,19.831444,19.786854,20.183332,19.962202,19.713228,19.479122,19.772686,20.010406,20.153898,5.367855,0.000000,0.000000,4.302207,0.007093,-0.001230,-0.001230,NaN,NaN
29/03/2018 13:25,60.992488,-15.000000,-13.390000,5.000000,20.171740,20.429289,20.050322,-6.616952,19.794420,20.042963,19.820433,19.779556,20.190691,19.965918,19.709515,19.490269,19.776402,20.017765,20.157578,4.722262,NaN,20.171740,20.429289,20.050322,6.757975,19.794420,20.042963,19.820433,19.779556,20.190691,19.965918,19.709515,19.490269,19.776402,20.017765,20.157578,4.722262,0.000000,0.000000,4.287228,0.007093,-0.001230,-0.001230,NaN,NaN
29/03/2018 13:25,63.055606,-15.000000,-13.330000,5.000000,20.179096,20.436649,20.061359,-6.565236,19.798136,20.050322,19.831579,19.790705,20.190691,19.958485,19.702082,19.479122,19.765253,20.010406,20.146540,3.517408,NaN,20.179096,20.436649,20.061359,6.773174,19.798136,20.050322,19.831579,19.790705,20.190691,19.958485,19.702082,19.479122,19.765253,20.010406,20.146540,3.517408,0.000000,0.000000,4.290224,0.007093,-0.001230,-0.001230,NaN,NaN
29/03/2018 13:25,65.118724,-15.000000,-13.310000,5.000000,20.160568,20.432837,20.050188,-6.544447,19.798000,20.042830,19.820295,19.783136,20.183332,19.962202,19.705799,19.482838,19.772686,20.010406,20.157578,2.973159,NaN,20.160568,20.432837,20.050188,6.779284,19.798000,20.042830,19.820295,19.783136,20.183332,19.962202,19.705799,19.482838,19.772686,20.010406,20.157578,2.973159,0.000000,0.000000,4.299211,0.007093,-0.001230,-0.001230,NaN,NaN
29/03/2018 13:25,68.984946,-15.000000,-13.310000,5.000000,20.164381,20.432968,20.046642,-6.539884,19.805567,20.050322,19.827864,19.783272,20.183332,19.965918,19.702082,19.482838,19.780119,20.010406,20.150219,2.462691,NaN,20.164381,20.432968,20.046642,6.780624,19.805567,20.050322,19.827864,19.783272,20.183332,19.965918,19.702082,19.482838,19.780119,20.010406,20.150219,2.462691,0.000000,0.000000,4.278240,0.007093,-0.001230,0.000058,NaN,-128.043548
29/03/2018 13:25,71.048064,-15.000000,-13.320000,5.000000,20.164381,20.421930,20.050322,-6.601234,19.790705,20.035604,19.820433,19.772125,20.190691,19.977066,19.709515,19.486555,19.780119,20.014084,20.153898,1.509317,NaN,20.164381,20.421930,20.050322,6.762594,19.790705,20.035604,19.820433,19.772125,20.190691,19.977066,19.709515,19.486555,19.780119,20.014084,20.153898,1.509317,0.000000,0.000000,4.305203,0.007415,-0.001230,-0.001230,NaN,NaN
29/03/2018 13:25,73.099181,-15.000000,-13.320000,5.000000,20.164381,20.425611,20.050322,-4.673011,19.794420,20.042963,19.827864,19.779556,20.194504,19.980917,19.713366,19.497837,19.787685,20.032616,20.168749,1.077808,NaN,20.164381,20.425611,20.050322,7.329285,19.794420,20.042963,19.827864,19.779556,20.194504,19.980917,19.713366,19.497837,19.787685,20.032616,20.168749,1.077808,0.000000,0.000000,4.302207,0.007093,-0.001230,-0.001230,NaN,NaN
29/03/2018 13:25,76.972403,-15.000000,-13.320000,5.000000,20.153343,20.418253,20.050322,-6.252907,19.786987,20.042963,19.816717,19.783272,20.201729,19.984497,19.720661,19.497702,19.787550,20.028803,20.172295,0.646026,NaN,20.153343,20.418253,20.050322,6.864965,19.786987,20.042963,19.816717,19.783272,20.201729,19.984497,19.720661,19.497702,19.787550,20.028803,20.172295,0.646026,0.000000,0.000000,4.311195,0.007415,-0.001230,-0.001230,NaN,NaN
29/03/2018 13:25,79.108525,-15.000000,-13.340000,5.000000,20.168211,20.425762,20.046793,-6.089138,19.787142,20.054153,19.816870,19.779709,20.198185,19.980917,19.724514,19.494120,19.783970,20.021578,20.157711,-0.140071,NaN,20.168211,20.425762,20.046793,6.913095,19.787142,20.054153,19.816870,19.779709,20.198185,19.980917,19.724514,19.494120,19.783970,20.021578,20.157711,-0.140071,0.000000,0.000000,4.293220,0.007415,-0.001230,0.000058,NaN,-128.045028
