COOL INOffset , COOL INScale ,COOL OUTOffset , COOL OUTScale ,ENV TEMPOffset , ENV TEMPScale ,ENV HUMIDOffset , ENV HUMIDScale ,LIDOffset , LIDScale ,BOXOffset , BOXScale ,SPAREOffset , SPAREScale ,LABOffset , LABScale ,CB1Offset , CB1Scale ,CB2Offset , CB2Scale ,CB3Offset , CB3Scale ,CB4Offset , CB4Scale ,VC1Offset , VC1Scale ,VC2Offset , VC2Scale ,VC3Offset , VC3Scale ,VC4Offset , VC4Scale ,
0.000000,1.000000,0.000000,1.000000,0.000000,1.000000,8.702650,3.402600,0.000000,1.000000,0.000000,1.000000,0.000000,1.000000,0.000000,1.000000,0.000000,1.000000,0.000000,1.000000,0.000000,1.000000,0.000000,1.000000,0.000000,1.000000,0.000000,1.000000,0.000000,1.000000,0.000000,1.000000
Time,Elapsed,Set T,Meas T,Pump,COOL IN,COOL OUT,ENV TEMP,ENV HUMID,LID,BOX,SPARE,LAB,CB1,CB2,CB3,CB4,VC1,VC2,VC3,VACCHUCK,DP,COOL IN_raw,COOL OUT_raw,ENV TEMP_raw,ENV HUMID_raw,LID_raw,BOX_raw,SPARE_raw,LAB_raw,CB1_raw,CB2_raw,CB3_raw,CB4_raw,VC1_raw,VC2_raw,VC3_raw,VC4_raw,Col 1,Col 2,N2_Flow,Vacuum,NTC_CH3_RAW,NTC_CH7_RAW,NTC_CH3,NTC_CH7,
16/04/2018 14:42,5.069290,-30.000000,-30.020000,5.000000,19.715553,19.856760,19.737848,65.601936,19.410841,19.726700,19.068970,19.080116,20.035370,19.794184,19.682705,19.329683,19.560074,19.842491,20.024332,31.379740,13.906607,19.715553,19.856760,19.737848,27.982594,19.410841,19.726700,19.068970,19.080116,20.035370,19.794184,19.682705,19.329683,19.560074,19.842491,20.024332,31.379740,0.000000,0.000000,3.490321,0.007415,-0.001230,-0.001230,NaN,NaN
16/04/2018 14:42,11.001629,-30.000000,-30.030000,5.000000,19.732767,19.855396,19.740198,66.488722,19.416908,19.721619,19.075035,19.089899,20.033674,19.792471,19.680992,19.327971,19.562078,19.844496,20.015278,30.390724,14.088440,19.732767,19.855396,19.740198,28.243214,19.416908,19.721619,19.075035,19.089899,20.033674,19.792471,19.680992,19.327971,19.562078,19.844496,20.015278,30.390724,0.000000,0.000000,3.526271,0.007415,-0.001230,-0.001230,NaN,NaN
16/04/2018 14:42,15.122865,-30.000000,-30.030000,5.000000,19.728802,19.855146,19.743666,67.444470,19.405510,19.728802,19.074785,19.078501,20.047840,19.799347,19.684149,19.338562,19.557806,19.847654,20.022085,26.836145,14.282898,19.728802,19.855146,19.743666,28.524101,19.405510,19.728802,19.074785,19.078501,20.047840,19.799347,19.684149,19.338562,19.557806,19.847654,20.022085,26.836145,0.000000,0.000000,3.601169,0.007415,-0.001230,-0.001230,NaN,NaN
16/04/2018 14:42,21.046204,-30.000000,-30.010000,5.000000,19.732269,19.862328,19.754566,67.397314,19.423840,19.739700,19.081968,19.078253,20.043591,19.802486,19.687290,19.337986,19.568378,19.850794,20.021517,22.861935,14.283967,19.732269,19.862328,19.754566,28.510242,19.423840,19.739700,19.081968,19.078253,20.043591,19.802486,19.687290,19.337986,19.568378,19.850794,20.021517,22.861935,0.000000,0.000000,3.574206,0.007415,-0.001230,-0.001230,NaN,NaN
16/04/2018 14:42,26.968543,-30.000000,-29.990000,5.000000,19.741915,19.868259,19.764212,67.353708,19.429771,19.745632,19.087900,19.095331,20.038370,19.789780,19.682018,19.328997,19.559389,19.841805,20.016294,20.340073,14.284533,19.741915,19.868259,19.764212,28.497427,19.429771,19.745632,19.087900,19.095331,20.038370,19.789780,19.682018,19.328997,19.559389,19.841805,20.016294,20.340073,0.000000,0.000000,3.592181,0.007415,-0.001230,-0.001230,NaN,NaN
16/04/2018 14:42,31.087778,-30.000000,-30.000000,5.000000,19.752817,19.871729,19.767681,67.213772,19.429525,19.741669,19.095085,19.102516,20.041632,19.804224,19.689026,19.339724,19.562683,19.848816,20.023235,16.783113,14.259986,19.752817,19.871729,19.767681,28.456301,19.429525,19.741669,19.095085,19.102516,20.041632,19.804224,19.689026,19.339724,19.562683,19.848816,20.023235,16.783113,0.000000,0.000000,3.559226,0.007093,-0.001230,-0.001230,NaN,NaN
16/04/2018 14:42,37.011117,-30.000000,-30.000000,5.000000,19.745134,19.867764,19.756283,72.300266,19.425558,19.741419,19.083687,19.094835,20.041061,19.799929,19.681017,19.331715,19.558390,19.851954,20.015305,13.434421,15.229777,19.745134,19.867764,19.756283,29.951185,19.425558,19.741419,19.083687,19.094835,20.041061,19.799929,19.681017,19.331715,19.558390,19.851954,20.015305,13.434421,0.000000,0.000000,3.538255,0.007415,-0.001230,-0.001230,NaN,NaN
16/04/2018 14:42,41.129352,-30.000000,-30.000000,5.000000,19.739784,19.873560,19.754648,66.345236,19.431356,19.747217,19.089485,19.100632,20.039650,19.798506,19.687027,19.345154,19.564398,19.846813,20.021254,11.329741,14.073352,19.739784,19.873560,19.754648,28.201044,19.431356,19.747217,19.089485,19.100632,20.039650,19.798506,19.687027,19.345154,19.564398,19.846813,20.021254,11.329741,0.000000,0.000000,3.574206,0.007415,-0.001230,-0.001230,NaN,NaN
16/04/2018 14:43,47.052691,-30.000000,-30.020000,5.000000,19.735954,19.873446,19.750818,67.525088,19.434958,19.743385,19.085653,19.089369,20.046326,19.801531,19.693766,19.340748,19.559992,19.853556,20.016891,8.298401,14.305761,19.735954,19.873446,19.750818,28.547794,19.434958,19.743385,19.085653,19.089369,20.046326,19.801531,19.693766,19.340748,19.559992,19.853556,20.016891,8.298401,0.000000,0.000000,3.586189,0.007415,-0.001230,0.000058,NaN,-128.045028
16/04/2018 14:43,52.975030,-30.000000,-30.010000,5.000000,19.738304,19.872080,19.753168,64.874854,19.426159,19.738304,19.076857,19.091719,20.033859,19.800089,19.681177,19.331873,19.558548,19.844681,20.019142,6.371429,13.772336,19.738304,19.872080,19.753168,27.768909,19.426159,19.738304,19.076857,19.091719,20.033859,19.800089,19.681177,19.331873,19.558548,19.844681,20.019142,6.371429,0.000000,0.000000,3.547243,0.007093,-0.001230,0.000058,NaN,-128.043548
16/04/2018 14:43,57.092266,-30.000000,-29.980000,5.000000,19.745642,19.871986,19.753075,63.216881,19.422350,19.734493,19.076761,19.091627,20.044479,19.803383,19.691904,19.342600,19.565559,19.847975,20.026083,3.642251,13.426941,19.745642,19.871986,19.753075,27.281643,19.422350,19.734493,19.076761,19.091627,20.044479,19.803383,19.691904,19.342600,19.565559,19.847975,20.026083,3.642251,0.000000,0.000000,3.544247,0.007737,-0.001230,-0.001230,NaN,NaN
16/04/2018 14:43,63.013604,-30.000000,-29.990000,5.000000,19.737808,19.860435,19.741522,65.186677,19.425663,19.737808,19.083790,19.087507,20.051420,19.806677,19.691481,19.334743,19.561420,19.843838,20.018307,1.051950,13.825261,19.737808,19.860435,19.741522,27.860552,19.425663,19.737808,19.083790,19.087507,20.051420,19.806677,19.691481,19.334743,19.561420,19.843838,20.018307,1.051950,0.000000,0.000000,3.568214,0.007415,-0.001230,-0.001230,NaN,NaN
16/04/2018 14:43,67.131840,-30.000000,-30.000000,5.000000,19.747589,19.866501,19.755020,66.257518,19.428013,19.743874,19.089857,19.097290,20.049744,19.812416,19.693502,19.347916,19.567160,19.853292,20.031347,-0.570930,14.056004,19.747589,19.866501,19.755020,28.175264,19.428013,19.743874,19.089857,19.097290,20.049744,19.812416,19.693502,19.347916,19.567160,19.853292,20.031347,-0.570930,0.000000,0.000000,3.541251,0.007093,-0.001230,-0.001230,NaN,NaN
16/04/2018 14:43,73.055178,-30.000000,-30.000000,5.000000,19.743778,19.870123,19.754927,65.277945,19.427917,19.743778,19.089762,19.104626,20.042101,19.808413,19.693216,19.340197,19.559441,19.849289,20.027384,-2.924238,13.856756,19.743778,19.870123,19.754927,27.887375,19.427917,19.743778,19.089762,19.104626,20.042101,19.808413,19.693216,19.340197,19.559441,19.849289,20.027384,-2.924238,0.000000,0.000000,3.550239,0.007415,-0.001230,-0.001230,NaN,NaN
16/04/2018 14:43,78.978517,-30.000000,-30.000000,5.000000,19.745993,19.883486,19.757141,67.001324,19.430132,19.745993,19.099409,19.099409,20.058954,19.810570,19.702806,19.346069,19.569029,19.855160,20.029520,-4.408348,14.207482,19.745993,19.883486,19.757141,28.393864,19.430132,19.745993,19.099409,19.099409,20.058954,19.810570,19.702806,19.346069,19.569029,19.855160,20.029520,-4.408348,0.000000,0.000000,3.613152,0.007093,-0.001230,-0.001230,NaN,NaN
16/04/2018 14:43,83.096753,-30.000000,-29.980000,5.000000,19.742029,19.872091,19.745747,64.446421,19.433603,19.749462,19.099163,19.099163,20.058382,19.813709,19.709661,19.360357,19.572168,19.862017,20.032627,-6.526270,13.676801,19.742029,19.872091,19.745747,27.642996,19.433603,19.749462,19.099163,19.099163,20.058382,19.813709,19.709661,19.360357,19.572168,19.862017,20.032627,-6.526270,0.000000,0.000000,3.580197,0.007415,0.000058,-0.001230,-128.043548,NaN
16/04/2018 14:43,89.017091,-30.000000,-29.970000,5.000000,19.760496,19.875692,19.767929,64.971697,19.437204,19.749348,19.102764,19.110195,20.054440,19.809727,19.705679,19.348942,19.568186,19.854319,20.025005,-8.526035,13.806350,19.760496,19.875692,19.767929,27.797371,19.437204,19.749348,19.102764,19.110195,20.054440,19.809727,19.705679,19.348942,19.568186,19.854319,20.025005,-8.526035,0.000000,0.000000,3.541251,0.007415,-0.001230,-0.001230,NaN,NaN
16/04/2018 14:43,93.137327,-30.000000,-29.970000,5.000000,19.740685,19.867029,19.755548,65.765197,19.424826,19.744400,19.094101,19.101534,20.052876,19.811863,19.700382,19.351078,19.566607,19.852739,20.030800,-9.782086,13.956751,19.740685,19.867029,19.755548,28.030575,19.424826,19.744400,19.094101,19.101534,20.052876,19.811863,19.700382,19.351078,19.566607,19.852739,20.030800,-9.782086,0.000000,0.000000,3.550239,0.007415,-0.001230,0.000058,NaN,-128.045028
16/04/2018 14:43,99.059666,-30.000000,-29.970000,5.000000,19.751719,19.881781,19.759151,57.851521,19.439575,19.751719,19.097704,19.108852,20.045099,19.815157,19.703678,19.346943,19.562471,19.852318,20.026703,-11.605108,12.255941,19.751719,19.881781,19.759151,25.704802,19.439575,19.751719,19.097704,19.108852,20.045099,19.815157,19.703678,19.346943,19.562471,19.852318,20.026703,-11.605108,0.000000,0.000000,3.550239,0.007093,-0.001230,-0.001230,NaN,NaN
16/04/2018 14:44,104.981004,-30.000000,-29.970000,5.000000,19.754087,19.884148,19.757805,58.423447,19.438229,19.750372,19.103788,19.111219,20.054443,19.817162,19.701965,19.356379,19.568190,19.861753,20.028688,-12.761147,12.384722,19.754087,19.884148,19.757805,25.872887,19.438229,19.750372,19.103788,19.111219,20.054443,19.817162,19.701965,19.356379,19.568190,19.861753,20.028688,-12.761147,0.000000,0.000000,3.550239,0.007415,-0.001230,-0.001230,NaN,NaN
16/04/2018 14:44,109.100240,-30.000000,-29.980000,5.000000,19.753841,19.880184,19.761272,59.092217,19.437983,19.750126,19.110973,19.107256,20.054024,19.813025,19.697826,19.352240,19.567768,19.850183,20.028269,-14.398397,12.538620,19.753841,19.880184,19.761272,26.069433,19.437983,19.750126,19.110973,19.107256,20.054024,19.813025,19.697826,19.352240,19.567768,19.850183,20.028269,-14.398397,0.000000,0.000000,3.568214,0.007415,-0.001230,-0.001230,NaN,NaN
16/04/2018 14:44,115.022579,-30.000000,-29.990000,5.000000,19.757578,19.887638,19.765011,59.450176,19.434286,19.750145,19.103561,19.107279,20.057018,19.816048,19.697134,19.351545,19.570791,19.853207,20.031263,-15.958720,12.622145,19.757578,19.887638,19.765011,26.174635,19.434286,19.750145,19.103561,19.107279,20.057018,19.816048,19.697134,19.351545,19.570791,19.853207,20.031263,-15.958720,0.000000,0.000000,3.592181,0.007415,0.000058,-0.001230,-128.043548,NaN
16/04/2018 14:44,119.142815,-30.000000,-29.980000,5.000000,19.759792,19.886137,19.756077,59.548031,19.432783,19.752359,19.102060,19.105778,20.059002,19.818052,19.706570,19.360983,19.576509,19.855211,20.033247,-16.929461,12.635473,19.759792,19.886137,19.756077,26.203394,19.432783,19.752359,19.102060,19.105778,20.059002,19.818052,19.706570,19.360983,19.576509,19.855211,20.033247,-16.929461,0.000000,0.000000,3.583193,0.007415,-0.001230,-0.001230,NaN,NaN
16/04/2018 14:44,125.063153,-30.000000,-29.990000,5.000000,19.759678,19.882305,19.755962,59.779236,19.436386,19.744814,19.101946,19.105663,20.058298,19.821056,19.709576,19.363989,19.575800,19.861933,20.039902,-18.323803,12.686716,19.759678,19.882305,19.755962,26.271343,19.436386,19.744814,19.101946,19.105663,20.058298,19.821056,19.709576,19.363989,19.575800,19.861933,20.039902,-18.323803,0.000000,0.000000,3.553234,0.007415,-0.001230,-0.001230,NaN,NaN
16/04/2018 14:44,130.986492,-30.000000,-29.980000,5.000000,19.758333,19.877245,19.758333,60.010946,19.435041,19.747185,19.104317,19.108032,20.067774,19.823195,19.711714,19.366127,19.581656,19.860355,20.042019,-19.221058,12.740246,19.758333,19.877245,19.758333,26.339441,19.435041,19.747185,19.104317,19.108032,20.067774,19.823195,19.711714,19.366127,19.581656,19.860355,20.042019,-19.221058,0.000000,0.000000,3.538255,0.007415,-0.001230,-0.001230,NaN,NaN
16/04/2018 14:44,135.107728,-30.000000,-29.980000,5.000000,19.758085,19.880714,19.754370,60.920045,19.434793,19.750652,19.111500,19.111500,20.048540,19.807484,19.699718,19.357847,19.554796,19.844643,20.022785,-20.506367,12.935972,19.758085,19.880714,19.754370,26.606619,19.434793,19.750652,19.111500,19.111500,20.048540,19.807484,19.699718,19.357847,19.554796,19.844643,20.022785,-20.506367,0.000000,0.000000,3.553234,0.007737,0.000058,-0.001230,-128.045028,NaN
16/04/2018 14:44,141.030066,-30.000000,-29.980000,5.000000,19.739391,19.862019,19.746822,60.933738,19.423529,19.743105,19.092806,19.107670,20.062422,19.817787,19.706308,19.357002,19.565100,19.851231,20.021948,-21.713547,12.931793,19.739391,19.862019,19.746822,26.610643,19.423529,19.743105,19.092806,19.107670,20.062422,19.817787,19.706308,19.357002,19.565100,19.851231,20.021948,-21.713547,0.000000,0.000000,3.571210,0.007093,-0.001230,-0.001230,NaN,NaN
16/04/2018 14:44,146.950405,-30.000000,-29.980000,5.000000,19.760185,19.875381,19.752752,60.973788,19.433176,19.745321,19.095020,19.109884,20.060724,19.816074,19.700878,19.355289,19.559669,19.853233,20.023932,-22.507727,12.946145,19.760185,19.875381,19.752752,26.622414,19.433176,19.745321,19.095020,19.109884,20.060724,19.816074,19.700878,19.355289,19.559669,19.853233,20.023932,-22.507727,0.000000,0.000000,3.568214,0.007093,-0.001230,-0.001230,NaN,NaN
16/04/2018 14:44,151.070641,-30.000000,-29.990000,5.000000,19.752640,19.871552,19.752640,60.979369,19.425632,19.741493,19.102341,19.106056,20.059734,19.811359,19.699879,19.350574,19.558670,19.848518,20.015583,-23.612576,12.947253,19.752640,19.871552,19.752640,26.624054,19.425632,19.741493,19.102341,19.106056,20.059734,19.811359,19.699879,19.350574,19.558670,19.848518,20.015583,-23.612576,0.000000,0.000000,3.541251,0.007415,-0.001230,-0.001230,NaN,NaN
16/04/2018 14:44,156.992980,-30.000000,-29.980000,5.000000,19.747559,19.877619,19.762423,60.954019,19.435413,19.747559,19.097258,19.112123,20.057907,19.805798,19.698032,19.345013,19.560541,19.835526,20.021114,-24.308346,12.951017,19.747559,19.877619,19.762423,26.616604,19.435413,19.747559,19.097258,19.112123,20.057907,19.805798,19.698032,19.345013,19.560541,19.835526,20.021114,-24.308346,0.000000,0.000000,3.580197,0.007093,0.000058,-0.001230,-128.043548,NaN
16/04/2018 14:44,161.111215,-30.000000,-29.990000,5.000000,19.765890,19.892235,19.773323,60.732446,19.431452,19.758457,19.111876,19.123022,20.053389,19.816097,19.708334,19.362745,19.570843,19.853256,20.027634,-25.314482,12.913012,19.765890,19.892235,19.773323,26.551485,19.431452,19.758457,19.111876,19.123022,20.053389,19.816097,19.708334,19.362745,19.570843,19.853256,20.027634,-25.314482,0.000000,0.000000,3.550239,0.007093,-0.001230,-0.001230,NaN,NaN
16/04/2018 14:45,167.036554,-30.000000,-29.970000,5.000000,19.762060,19.880972,19.762060,60.755265,19.438768,19.754629,19.111761,19.119192,20.059893,19.815233,19.707470,19.365599,19.573694,19.852394,20.037817,-26.257561,12.907313,19.762060,19.880972,19.762060,26.558191,19.438768,19.754629,19.111761,19.119192,20.059893,19.815233,19.707470,19.365599,19.573694,19.852394,20.037817,-26.257561,0.000000,0.000000,3.595177,0.007415,0.000058,-0.001230,-128.043548,NaN
16/04/2018 14:45,172.958892,-30.000000,-29.970000,5.000000,19.775425,19.883188,19.764277,60.748165,19.437267,19.756844,19.117693,19.128839,20.057909,19.816948,19.709183,19.356165,19.564259,19.842960,20.028475,-26.854942,12.907864,19.775425,19.883188,19.764277,26.556105,19.437267,19.756844,19.117693,19.128839,20.057909,19.816948,19.709183,19.356165,19.564259,19.842960,20.028475,-26.854942,0.000000,0.000000,3.553234,0.007415,-0.001230,-0.001230,NaN,NaN
16/04/2018 14:45,177.078128,-30.000000,-29.960000,5.000000,19.771458,19.886654,19.767742,60.717740,19.437019,19.745445,19.106295,19.117443,20.064432,19.827251,19.708340,19.362751,19.570847,19.849546,20.027637,-27.719162,12.904502,19.771458,19.886654,19.767742,26.547163,19.437019,19.745445,19.106295,19.117443,20.064432,19.827251,19.708340,19.362751,19.570847,19.849546,20.027637,-27.719162,0.000000,0.000000,3.580197,0.007415,-0.001230,-0.002519,NaN,NaN
16/04/2018 14:45,183.001467,-30.000000,-29.960000,5.000000,19.762817,19.892878,19.766533,60.715209,19.435808,19.755384,19.112514,19.123665,20.062601,19.821684,19.717638,19.364616,19.568998,19.855129,20.025808,-28.261192,12.902802,19.762817,19.892878,19.766533,26.546419,19.435808,19.755384,19.112514,19.123665,20.062601,19.821684,19.717638,19.364616,19.568998,19.855129,20.025808,-28.261192,0.000000,0.000000,3.586189,0.007415,-0.001230,-0.001230,NaN,NaN
16/04/2018 14:45,187.120703,-30.000000,-29.960000,5.000000,19.766283,19.888910,19.766283,60.695940,19.442991,19.755135,19.112267,19.127131,20.057932,19.816971,19.712921,19.359903,19.564281,19.846699,20.024818,-29.042788,12.898352,19.766283,19.888910,19.766283,26.540756,19.442991,19.755135,19.112267,19.127131,20.057932,19.816971,19.712921,19.359903,19.564281,19.846699,20.024818,-29.042788,0.000000,0.000000,3.553234,0.007415,0.000058,0.000058,-128.045028,-128.045028
16/04/2018 14:45,193.045042,-30.000000,-29.970000,5.000000,19.773466,19.884947,19.766035,60.680222,19.435310,19.754887,19.112019,19.123167,20.075338,19.827118,19.715637,19.370050,19.574430,19.845699,20.031187,-29.781027,12.894679,19.773466,19.884947,19.766035,26.536137,19.435310,19.754887,19.112019,19.123167,20.075338,19.827118,19.715637,19.370050,19.574430,19.845699,20.031187,-29.781027,0.000000,0.000000,3.502304,0.007415,-0.001230,-0.001230,NaN,NaN
16/04/2018 14:45,198.966380,-30.000000,-29.980000,5.000000,19.768250,19.890877,19.768250,60.662478,19.437525,19.760817,19.121664,19.125381,20.062473,19.817841,19.706360,19.360771,19.557718,19.847567,20.029358,-30.252831,12.892898,19.768250,19.890877,19.768250,26.530922,19.437525,19.760817,19.121664,19.125381,20.062473,19.817841,19.706360,19.360771,19.557718,19.847567,20.029358,-30.252831,0.000000,0.000000,3.550239,0.007415,-0.001230,-0.001230,NaN,NaN
16/04/2018 14:45,203.085616,-30.000000,-29.970000,5.000000,19.775566,19.898195,19.771852,60.640166,19.448561,19.768137,19.121552,19.132700,20.061634,19.828142,19.709229,19.367357,19.564306,19.839291,20.028521,-30.944580,12.891433,19.775566,19.898195,19.771852,26.524364,19.448561,19.768137,19.121552,19.132700,20.061634,19.828142,19.709229,19.367357,19.564306,19.839291,20.028521,-30.944580,0.000000,0.000000,3.508296,0.007415,-0.001230,-0.001230,NaN,NaN
16/04/2018 14:45,209.002954,-30.000000,-29.980000,5.000000,19.766634,19.889263,19.762918,60.648278,19.432196,19.755486,19.112619,19.120050,20.074524,19.830011,19.722246,19.372942,19.573606,19.852306,20.034050,-31.364292,12.891417,19.766634,19.889263,19.762918,26.526749,19.432196,19.755486,19.112619,19.120050,20.074524,19.830011,19.722246,19.372942,19.573606,19.852306,20.034050,-31.364292,0.000000,0.000000,3.502304,0.007093,-0.001230,-0.001230,NaN,NaN
16/04/2018 14:45,213.120190,-30.000000,-29.980000,5.000000,19.777670,19.889151,19.770239,60.649803,19.439512,19.762806,19.116222,19.131086,20.073381,19.836288,19.717377,19.371788,19.579885,19.858585,20.036589,-31.980059,12.892011,19.777670,19.889151,19.770239,26.527197,19.439512,19.762806,19.116222,19.131086,20.073381,19.836288,19.717377,19.371788,19.579885,19.858585,20.036589,-31.980059,0.000000,0.000000,3.535259,0.007093,-0.001230,-0.001230,NaN,NaN
16/04/2018 14:45,219.042528,-30.000000,-29.980000,5.000000,19.784851,19.900049,19.777420,60.561073,19.442980,19.762556,19.127119,19.138268,20.068865,19.828012,19.716530,19.374659,19.571608,19.857738,20.039431,-32.583450,12.879392,19.784851,19.900049,19.777420,26.501120,19.442980,19.762556,19.127119,19.138268,20.068865,19.828012,19.716530,19.374659,19.571608,19.857738,20.039431,-32.583450,0.000000,0.000000,3.496313,0.007093,-0.001230,-0.001230,NaN,NaN
16/04/2018 14:46,224.964867,-30.000000,-29.980000,5.000000,19.772205,19.883684,19.764772,60.571716,19.434050,19.753624,19.121904,19.125620,20.074240,19.837156,19.725677,19.372658,19.573320,19.859453,20.033768,-32.955128,12.869727,19.772205,19.883684,19.764772,26.504248,19.434050,19.753624,19.121904,19.125620,20.074240,19.837156,19.725677,19.372658,19.573320,19.859453,20.033768,-32.955128,0.000000,0.000000,3.559226,0.007415,0.000058,-0.001230,-128.045028,NaN
16/04/2018 14:46,229.082103,-30.000000,-29.990000,5.000000,19.771955,19.883436,19.760807,60.555491,19.430084,19.753376,19.110508,19.125372,20.069723,19.832596,19.717400,19.368093,19.572475,19.847460,20.040289,-33.490238,12.862411,19.771955,19.883436,19.760807,26.499479,19.430084,19.753376,19.110508,19.125372,20.069723,19.832596,19.717400,19.368093,19.572475,19.847460,20.040289,-33.490238,0.000000,0.000000,3.529267,0.007093,-0.001230,-0.001230,NaN,NaN
16/04/2018 14:46,235.003441,-30.000000,-30.000000,5.000000,19.777887,19.889366,19.774170,60.534198,19.436016,19.755590,19.123871,19.127586,20.075253,19.834463,19.722984,19.377396,19.570627,19.856760,20.038460,-33.833633,12.870419,19.777887,19.889366,19.774170,26.493221,19.436016,19.755590,19.123871,19.127586,20.075253,19.834463,19.722984,19.377396,19.570627,19.856760,20.038460,-33.833633,0.000000,0.000000,3.535259,0.007093,0.000058,-0.001230,-128.043548,NaN
16/04/2018 14:46,239.123677,-30.000000,-29.990000,5.000000,19.770206,19.892834,19.762774,64.983360,19.439484,19.762774,19.119907,19.131054,20.074129,19.825895,19.714417,19.368828,19.562059,19.848190,20.026299,-34.340939,13.803825,19.770206,19.892834,19.762774,27.800798,19.439484,19.762774,19.119907,19.131054,20.074129,19.825895,19.714417,19.368828,19.562059,19.848190,20.026299,-34.340939,0.000000,0.000000,3.547243,0.007415,-0.001230,-0.001230,NaN,NaN
16/04/2018 14:46,245.046016,-30.000000,-29.990000,5.000000,19.773539,19.888735,19.769823,61.204486,19.435383,19.754959,19.123238,19.126955,20.076818,19.832329,19.720848,19.367830,19.568493,19.858341,20.032667,-34.799896,13.012504,19.773539,19.888735,19.769823,26.690214,19.435383,19.754959,19.123238,19.126955,20.076818,19.832329,19.720848,19.367830,19.568493,19.858341,20.032667,-34.799896,0.000000,0.000000,3.583193,0.007093,-0.001230,-0.001230,NaN,NaN
16/04/2018 14:46,250.966354,-30.000000,-29.980000,5.000000,19.779606,19.891085,19.764740,61.328204,19.448881,19.761024,19.121872,19.136738,20.074837,19.834042,19.715130,19.376974,19.566490,19.856339,20.038044,-35.083214,13.034504,19.779606,19.891085,19.764740,26.726574,19.448881,19.761024,19.121872,19.136738,20.074837,19.834042,19.715130,19.376974,19.566490,19.856339,20.038044,-35.083214,0.000000,0.000000,3.547243,0.007093,-0.001230,-0.001230,NaN,NaN
16/04/2018 14:46,255.088590,-30.000000,-30.000000,5.000000,19.767939,19.886850,19.767939,61.277498,19.433498,19.753075,19.117638,19.121355,20.081205,19.836761,19.725279,19.379692,19.572924,19.859056,20.040733,-35.506027,13.026552,19.767939,19.886850,19.767939,26.711672,19.433498,19.753075,19.117638,19.121355,20.081205,19.836761,19.725279,19.379692,19.572924,19.859056,20.040733,-35.506027,0.000000,0.000000,3.553234,0.007093,-0.001230,-0.001230,NaN,NaN
16/04/2018 14:46,261.007929,-30.000000,-29.990000,5.000000,19.782690,19.890453,19.767826,61.178630,19.433386,19.752962,19.121243,19.136105,20.076405,19.835625,19.720430,19.371126,19.571791,19.846775,20.035931,-35.928986,13.004995,19.782690,19.890453,19.767826,26.682615,19.433386,19.752962,19.121243,19.136105,20.076405,19.835625,19.720430,19.371126,19.571791,19.846775,20.035931,-35.928986,0.000000,0.000000,3.529267,0.007093,-0.002519,-0.001230,NaN,NaN
16/04/2018 14:46,265.129164,-30.000000,-29.990000,5.000000,19.781189,19.903816,19.773756,61.150743,19.443031,19.762608,19.130888,19.138321,20.070742,19.818760,19.707279,19.369123,19.562355,19.844770,20.019232,-36.196236,13.004568,19.781189,19.903816,19.773756,26.674419,19.443031,19.762608,19.130888,19.138321,20.070742,19.818760,19.707279,19.369123,19.562355,19.844770,20.019232,-36.196236,0.000000,0.000000,3.511292,0.007093,-0.001230,-0.001230,NaN,NaN
16/04/2018 14:46,271.051503,-30.000000,-29.980000,5.000000,19.773373,19.899717,19.773373,61.085337,19.438932,19.754793,19.119358,19.134222,20.062260,19.821342,19.706146,19.364275,19.557507,19.847355,20.029146,-36.562962,12.989990,19.773373,19.899717,19.773373,26.655197,19.438932,19.754793,19.119358,19.134222,20.062260,19.821342,19.706146,19.364275,19.557507,19.847355,20.029146,-36.562962,0.000000,0.000000,3.523276,0.007415,0.000058,-0.001230,-128.043548,NaN
16/04/2018 14:46,276.974842,-30.000000,-29.980000,5.000000,19.787006,19.905918,19.787006,61.034125,19.452566,19.768425,19.132990,19.144138,20.063976,19.834223,19.715311,19.373438,19.566669,19.852804,20.030863,-36.786015,12.991792,19.787006,19.905918,19.787006,26.640146,19.452566,19.768425,19.132990,19.144138,20.063976,19.834223,19.715311,19.373438,19.566669,19.852804,20.030863,-36.786015,0.000000,0.000000,3.511292,0.007093,-0.001230,-0.001230,NaN,NaN
16/04/2018 14:46,281.093078,-30.000000,-29.980000,5.000000,19.779190,19.894386,19.764326,60.930695,19.437319,19.760611,19.128891,19.143755,20.077417,19.829220,19.714022,19.372150,19.565382,19.855228,20.033266,-37.128807,12.947742,19.779190,19.894386,19.764326,26.609749,19.437319,19.760611,19.128891,19.143755,20.077417,19.829220,19.714022,19.372150,19.565382,19.855228,20.033266,-37.128807,0.000000,0.000000,3.568214,0.007415,-0.001230,-0.001230,NaN,NaN
16/04/2018 14:47,287.017416,-30.000000,-29.970000,5.000000,19.778942,19.901571,19.775227,60.851595,19.440786,19.767794,19.128641,19.143507,20.072615,19.831800,19.709171,19.378448,19.571680,19.857813,20.039503,-37.435284,12.940838,19.778942,19.901571,19.775227,26.586502,19.440786,19.767794,19.128641,19.143507,20.072615,19.831800,19.709171,19.378448,19.571680,19.857813,20.039503,-37.435284,0.000000,0.000000,3.541251,0.007093,-0.001230,-0.001230,NaN,NaN
16/04/2018 14:47,291.135652,-30.000000,-29.970000,5.000000,19.788725,19.896488,19.781292,60.766415,19.431988,19.758997,19.119844,19.142139,20.074179,19.833380,19.725616,19.376312,19.569544,19.863108,20.030027,-37.646450,12.927996,19.788725,19.896488,19.781292,26.561468,19.431988,19.758997,19.119844,19.142139,20.074179,19.833380,19.725616,19.376312,19.569544,19.863108,20.030027,-37.646450,0.000000,0.000000,3.568214,0.007093,0.000058,-0.001230,-128.043548,NaN
16/04/2018 14:47,297.058990,-30.000000,-29.970000,5.000000,19.788475,19.903673,19.773611,61.095987,19.435455,19.762463,19.134459,19.145609,20.080261,19.839521,19.720610,19.378738,19.564537,19.854387,20.028751,-37.949081,12.992532,19.788475,19.903673,19.773611,26.658327,19.435455,19.762463,19.134459,19.145609,20.080261,19.839521,19.720610,19.378738,19.564537,19.854387,20.028751,-37.949081,0.000000,0.000000,3.565218,0.007415,0.000058,-0.001230,-128.043548,NaN
16/04/2018 14:47,302.979329,-30.000000,-29.970000,5.000000,19.783260,19.905888,19.779545,61.149224,19.437672,19.764679,19.136675,19.144108,20.085505,19.837385,19.718473,19.376600,19.562403,19.852249,20.037674,-38.136150,13.009734,19.783260,19.905888,19.779545,26.673973,19.437672,19.764679,19.136675,19.144108,20.085505,19.837385,19.718473,19.376600,19.562403,19.852249,20.037674,-38.136150,0.000000,0.000000,3.562222,0.007415,-0.001230,-0.001230,NaN,NaN
16/04/2018 14:47,307.098565,-30.000000,-29.980000,5.000000,19.786726,19.901922,19.771862,61.303360,19.437422,19.764429,19.128994,19.147575,20.080549,19.839813,19.728333,19.382744,19.572262,19.854677,20.036398,-38.398613,13.035884,19.786726,19.901922,19.771862,26.719273,19.437422,19.764429,19.128994,19.147575,20.080549,19.839813,19.728333,19.382744,19.572262,19.854677,20.036398,-38.398613,0.000000,0.000000,3.577202,0.007415,-0.001230,-0.001230,NaN,NaN
16/04/2018 14:47,313.022904,-30.000000,-29.990000,5.000000,19.793909,19.909107,19.775330,61.079762,19.437174,19.764181,19.132462,19.143610,20.082972,19.838543,19.730780,19.377760,19.563559,19.853407,20.035141,-38.657040,12.990636,19.793909,19.909107,19.775330,26.653559,19.437174,19.764181,19.132462,19.143610,20.082972,19.838543,19.730780,19.377760,19.563559,19.853407,20.035141,-38.657040,0.000000,0.000000,3.559226,0.007737,-0.001230,-0.001230,NaN,NaN
16/04/2018 14:47,317.142139,-30.000000,-29.990000,5.000000,19.792562,19.907759,19.777700,61.886443,19.443258,19.766552,19.138548,19.138548,20.084517,19.847536,19.728624,19.379320,19.561401,19.866116,20.033005,-38.824047,13.167259,19.792562,19.907759,19.777700,26.890636,19.443258,19.766552,19.138548,19.138548,20.084517,19.847536,19.728624,19.379320,19.561401,19.866116,20.033005,-38.824047,0.000000,0.000000,3.568214,0.007093,-0.001230,-0.001230,NaN,NaN
16/04/2018 14:47,323.063478,-30.000000,-29.980000,5.000000,19.788464,19.903660,19.769884,61.641038,19.435444,19.751305,19.130732,19.134449,20.075903,19.827688,19.716206,19.370619,19.560135,19.846268,20.028072,-39.070423,13.107006,19.788464,19.903660,19.769884,26.818514,19.435444,19.751305,19.130732,19.134449,20.075903,19.827688,19.716206,19.370619,19.560135,19.846268,20.028072,-39.070423,0.000000,0.000000,3.568214,0.007093,-0.001230,-0.001230,NaN,NaN
16/04/2018 14:47,328.986817,-30.000000,-30.000000,5.000000,19.798246,19.913441,19.783381,61.541152,19.437794,19.764801,19.133081,19.151661,20.073919,19.833117,19.725353,19.368616,19.561848,19.847980,20.029768,-39.221199,13.098270,19.798246,19.913441,19.783381,26.789158,19.437794,19.764801,19.133081,19.151661,20.073919,19.833117,19.725353,19.368616,19.561848,19.847980,20.029768,-39.221199,0.000000,0.000000,3.592181,0.007093,-0.001230,0.000058,NaN,-128.043548
16/04/2018 14:47,333.108053,-30.000000,-29.990000,5.000000,19.801714,19.909477,19.779419,60.571716,19.441261,19.768270,19.140266,19.158846,20.068830,19.839125,19.716497,19.374626,19.560425,19.850273,20.043076,-39.435608,12.883620,19.801714,19.909477,19.779419,26.504248,19.441261,19.768270,19.140266,19.158846,20.068830,19.839125,19.716497,19.374626,19.560425,19.850273,20.043076,-39.435608,0.000000,0.000000,3.547243,0.007093,-0.001230,-0.001230,NaN,NaN
16/04/2018 14:47,339.029391,-30.000000,-30.000000,5.000000,19.801466,19.905514,19.779171,61.187755,19.433582,19.756874,19.128870,19.151165,20.078613,19.834141,19.722662,19.380789,19.559158,19.856436,20.045500,-39.641819,13.017747,19.801466,19.905514,19.779171,26.685297,19.433582,19.756874,19.128870,19.151165,20.078613,19.834141,19.722662,19.380789,19.559158,19.856436,20.045500,-39.641819,0.000000,0.000000,3.562222,0.007093,-0.001230,-0.001230,NaN,NaN
16/04/2018 14:48,344.951730,-30.000000,-30.000000,5.000000,19.788816,19.911444,19.777668,62.416282,19.435797,19.762804,19.127367,19.149664,20.091194,19.846849,19.731651,19.374916,19.560715,19.850565,20.036005,-39.772678,13.280640,19.788816,19.911444,19.777668,27.046352,19.435797,19.762804,19.127367,19.149664,20.091194,19.846849,19.731651,19.374916,19.560715,19.850565,20.036005,-39.772678,0.000000,0.000000,3.541251,0.007093,-0.001230,-0.001230,NaN,NaN
16/04/2018 14:48,349.070966,-30.000000,-29.990000,5.000000,19.799717,19.911196,19.788567,61.555352,19.435549,19.762556,19.134552,19.153131,20.086105,19.845427,19.722799,19.380926,19.563009,19.856573,20.045635,-39.958977,13.106264,19.799717,19.911196,19.788567,26.793331,19.435549,19.762556,19.134552,19.153131,20.086105,19.845427,19.722799,19.380926,19.563009,19.856573,20.045635,-39.958977,0.000000,0.000000,3.526271,0.007415,-0.001230,-0.001230,NaN,NaN
16/04/2018 14:48,354.993304,-30.000000,-29.990000,5.000000,19.802067,19.909830,19.776054,61.081787,19.441614,19.764906,19.136902,19.155481,20.083857,19.843153,19.735390,19.382368,19.557022,19.854301,20.043385,-40.079849,12.991764,19.802067,19.909830,19.776054,26.654154,19.441614,19.764906,19.136902,19.155481,20.083857,19.843153,19.735390,19.382368,19.557022,19.854301,20.043385,-40.079849,0.000000,0.000000,3.514288,0.007093,0.000058,-0.001230,-128.045028,NaN
16/04/2018 14:48,359.111540,-30.000000,-30.000000,5.000000,19.801819,19.909580,19.783237,60.201082,19.441366,19.768373,19.132936,19.147800,20.097300,19.856730,19.737818,19.388515,19.578030,19.860445,20.049469,-38.930584,12.805803,19.801819,19.909580,19.783237,26.395321,19.441366,19.768373,19.132936,19.147800,20.097300,19.856730,19.737818,19.388515,19.578030,19.860445,20.049469,-38.930584,0.000000,0.000000,3.490321,0.007415,0.000058,-0.001230,-128.043548,NaN
16/04/2018 14:48,365.034879,-30.000000,-29.990000,5.000000,19.808867,19.916630,19.782854,60.297925,19.433550,19.767990,19.139986,19.154850,20.088531,19.836725,19.725246,19.387089,19.561743,19.859022,20.037020,-34.457764,12.826763,19.808867,19.916630,19.782854,26.423782,19.433550,19.767990,19.139986,19.154850,20.088531,19.836725,19.725246,19.387089,19.561743,19.859022,20.037020,-34.457764,0.000000,0.000000,3.463358,0.007415,0.000058,-0.001230,-128.045028,NaN
16/04/2018 14:48,370.957217,-30.000000,-29.990000,5.000000,19.800068,19.911549,19.781488,60.213251,19.432184,19.762909,19.127472,19.146053,20.086700,19.849741,19.734545,19.381525,19.574757,19.860889,20.046227,-31.186327,12.806826,19.800068,19.911549,19.781488,26.398897,19.432184,19.762909,19.127472,19.146053,20.086700,19.849741,19.734545,19.381525,19.574757,19.860889,20.046227,-31.186327,0.000000,0.000000,3.448378,0.007415,-0.001230,-0.001230,NaN,NaN
16/04/2018 14:48,375.078453,-30.000000,-30.000000,5.000000,19.803671,19.915152,19.781376,60.132126,19.439505,19.766510,19.138508,19.157087,20.070707,19.833588,19.714676,19.361656,19.547455,19.841019,20.026556,-26.632299,12.788837,19.803671,19.915152,19.781376,26.375055,19.439505,19.766510,19.138508,19.157087,20.070707,19.833588,19.714676,19.361656,19.547455,19.841019,20.026556,-26.632299,0.000000,0.000000,3.451374,0.007415,-0.001230,-0.001230,NaN,NaN
16/04/2018 14:48,381.001792,-30.000000,-29.980000,5.000000,19.802305,19.917501,19.780008,60.066721,19.434422,19.768862,19.137140,19.166868,20.083309,19.842602,19.719973,19.370668,19.563900,19.853748,20.031799,-23.760771,12.773107,19.802305,19.917501,19.780008,26.355833,19.434422,19.768862,19.137140,19.166868,20.083309,19.842602,19.719973,19.370668,19.563900,19.853748,20.031799,-23.760771,0.000000,0.000000,3.451374,0.007737,-0.001230,-0.001230,NaN,NaN
16/04/2018 14:48,385.121027,-30.000000,-29.980000,5.000000,19.805773,19.913536,19.779760,59.968865,19.434174,19.764896,19.136892,19.148041,20.085865,19.837749,19.726271,19.373249,19.559052,19.852615,20.038034,-19.719370,12.751251,19.805773,19.913536,19.779760,26.327074,19.434174,19.764896,19.136892,19.148041,20.085865,19.837749,19.726271,19.373249,19.559052,19.852615,20.038034,-19.719370,0.000000,0.000000,3.481333,0.007415,-0.001230,-0.001230,NaN,NaN
16/04/2018 14:48,391.043366,-30.000000,-29.980000,5.000000,19.805525,19.905857,19.775797,59.991171,19.433924,19.760933,19.132929,19.147793,20.073706,19.829184,19.728851,19.375832,19.557915,19.840332,20.025875,-15.995257,12.752427,19.805525,19.905857,19.775797,26.333630,19.433924,19.760933,19.132929,19.147793,20.073706,19.829184,19.728851,19.375832,19.557915,19.840332,20.025875,-15.995257,0.000000,0.000000,3.502304,0.007415,-0.001230,-0.001230,NaN,NaN
16/04/2018 14:48,396.964705,-30.000000,-29.980000,5.000000,19.804159,19.911922,19.781862,59.909034,19.439991,19.770714,19.138994,19.157576,20.071722,19.838329,19.708271,19.362682,19.552198,19.845762,20.031250,-13.646351,12.740008,19.804159,19.911922,19.781862,26.309490,19.439991,19.770714,19.138994,19.157576,20.071722,19.838329,19.708271,19.362682,19.552198,19.845762,20.031250,-13.646351,0.000000,0.000000,3.526271,0.007415,-0.001230,-0.001230,NaN,NaN
16/04/2018 14:48,401.083941,-30.000000,-29.980000,5.000000,19.811495,19.919260,19.789200,59.768079,19.443611,19.770618,19.146332,19.164911,20.085451,19.841047,19.725851,19.380262,19.566063,19.852194,20.044977,-10.281116,12.715730,19.811495,19.919260,19.789200,26.268064,19.443611,19.770618,19.146332,19.164911,20.085451,19.841047,19.725851,19.380262,19.566063,19.852194,20.044977,-10.281116,0.000000,0.000000,3.478337,0.007093,-0.001230,-0.001230,NaN,NaN
16/04/2018 14:49,407.003279,-30.000000,-29.990000,5.000000,19.802565,19.910328,19.787699,59.653493,19.438396,19.761688,19.137400,19.159697,20.083467,19.842760,19.727564,19.385693,19.567778,19.853909,20.039318,-8.199541,12.688871,19.802565,19.910328,19.787699,26.234388,19.438396,19.761688,19.137400,19.159697,20.083467,19.842760,19.727564,19.385693,19.567778,19.853909,20.039318,-8.199541,0.000000,0.000000,3.478337,0.007093,-0.001230,-0.001230,NaN,NaN
16/04/2018 14:49,411.123515,-30.000000,-30.000000,5.000000,19.806030,19.910078,19.783735,59.550569,19.430714,19.765154,19.133434,19.155729,20.082344,19.849056,19.722713,19.377125,19.559208,19.856489,20.038191,-5.239478,12.662232,19.806030,19.910078,19.783735,26.204140,19.430714,19.765154,19.133434,19.155729,20.082344,19.849056,19.722713,19.377125,19.559208,19.856489,20.038191,-5.239478,0.000000,0.000000,3.526271,0.007415,-0.001230,0.000058,NaN,-128.043548
16/04/2018 14:49,417.046854,-30.000000,-30.010000,5.000000,19.809498,19.920979,19.783487,59.409108,19.430466,19.768621,19.133186,19.159197,20.085033,19.855490,19.740295,19.379841,19.565643,19.855490,20.048241,-2.461737,12.630484,19.809498,19.920979,19.783487,26.162565,19.430466,19.768621,19.133186,19.159197,20.085033,19.855490,19.740295,19.379841,19.565643,19.855490,20.048241,-2.461737,0.000000,0.000000,3.505300,0.007093,-0.001230,-0.001230,NaN,NaN
16/04/2018 14:49,422.967192,-30.000000,-30.010000,5.000000,19.811848,19.919611,19.789553,59.315815,19.436531,19.767256,19.139252,19.161547,20.086752,19.838644,19.723448,19.370428,19.559944,19.860941,20.042599,-0.715159,12.615406,19.811848,19.919611,19.789553,26.135147,19.436531,19.767256,19.139252,19.161547,20.086752,19.838644,19.723448,19.370428,19.559944,19.860941,20.042599,-0.715159,0.000000,0.000000,3.523276,0.007415,-0.001230,-0.001230,NaN,NaN
16/04/2018 14:49,427.087428,-30.000000,-30.010000,5.000000,19.811331,19.926527,19.789034,59.248378,19.436016,19.766739,19.146168,19.161030,20.089437,19.856224,19.737312,19.388008,19.573807,19.863655,20.056326,1.758847,12.599847,19.811331,19.926527,19.789034,26.115328,19.436016,19.766739,19.146168,19.161030,20.089437,19.856224,19.737312,19.388008,19.573807,19.863655,20.056326,1.758847,0.000000,0.000000,3.490321,0.007093,-0.001230,-0.001230,NaN,NaN
16/04/2018 14:49,433.005766,-30.000000,-30.030000,5.000000,19.809830,19.917593,19.787535,59.179928,19.430798,19.761520,19.133516,19.159529,20.087324,19.861519,19.738892,19.389587,19.564240,19.846655,20.039494,3.284340,12.584379,19.809830,19.917593,19.787535,26.095211,19.430798,19.761520,19.133516,19.159529,20.087324,19.861519,19.738892,19.389587,19.564240,19.846655,20.039494,3.284340,0.000000,0.000000,3.487325,0.007737,-0.001230,-0.001230,NaN,NaN
16/04/2018 14:49,437.126002,-30.000000,-30.030000,5.000000,19.820440,19.920773,19.794430,59.105398,19.441408,19.775848,19.147844,19.170141,20.082655,19.845655,19.726744,19.381157,19.559525,19.864235,20.049543,5.482848,12.572953,19.820440,19.920773,19.794430,26.073307,19.441408,19.775848,19.147844,19.170141,20.082655,19.845655,19.726744,19.381157,19.559525,19.864235,20.049543,5.482848,0.000000,0.000000,3.466354,0.007737,-0.001230,-0.001230,NaN,NaN
16/04/2018 14:49,443.047341,-30.000000,-30.050000,5.000000,19.812759,19.924238,19.790462,58.964949,19.433727,19.760735,19.140163,19.158743,20.074173,19.837088,19.721893,19.368872,19.550957,19.851952,20.026342,7.538587,12.537696,19.812759,19.924238,19.790462,26.032030,19.433727,19.760735,19.140163,19.158743,20.074173,19.837088,19.721893,19.368872,19.550957,19.851952,20.026342,7.538587,0.000000,0.000000,3.532263,0.007093,0.000058,-0.001230,-128.043548,NaN
16/04/2018 14:49,448.969679,-30.000000,-30.040000,5.000000,19.822407,19.930170,19.792679,58.883318,19.439657,19.762949,19.142378,19.160959,20.076023,19.835241,19.720045,19.374456,19.552826,19.846390,20.028193,8.854178,12.521451,19.822407,19.930170,19.792679,26.008039,19.439657,19.762949,19.142378,19.160959,20.076023,19.835241,19.720045,19.374456,19.552826,19.846390,20.028193,8.854178,0.000000,0.000000,3.529267,0.007093,-0.001230,-0.001230,NaN,NaN
16/04/2018 14:49,453.089915,-30.000000,-30.050000,5.000000,19.807159,19.918640,19.784864,58.682539,19.439276,19.766285,19.145712,19.168007,20.089466,19.848818,19.729904,19.380602,19.562685,19.848818,20.034277,10.707457,12.468850,19.807159,19.918640,19.784864,25.949032,19.439276,19.766285,19.145712,19.168007,20.089466,19.848818,19.729904,19.380602,19.562685,19.848818,20.034277,10.707457,0.000000,0.000000,3.490321,0.007415,-0.001230,-0.001230,NaN,NaN
16/04/2018 14:49,459.013254,-30.000000,-30.020000,5.000000,19.806776,19.921972,19.784481,59.073454,19.427744,19.758469,19.134180,19.160192,20.077435,19.840384,19.728903,19.368452,19.550537,19.851532,20.029604,12.445543,12.556379,19.806776,19.921972,19.784481,26.063919,19.427744,19.758469,19.134180,19.160192,20.077435,19.840384,19.728903,19.368452,19.550537,19.851532,20.029604,12.445543,0.000000,0.000000,3.541251,0.007415,0.000058,-0.001230,-128.043548,NaN
16/04/2018 14:50,463.134490,-30.000000,-30.010000,5.000000,19.827570,19.931620,19.790411,58.279448,19.437391,19.764400,19.140110,19.169840,20.075321,19.841965,19.719336,19.373747,19.555832,19.849396,20.038528,13.543344,12.382905,19.827570,19.931620,19.790411,25.830566,19.437391,19.764400,19.140110,19.169840,20.075321,19.841965,19.719336,19.373747,19.555832,19.849396,20.038528,13.543344,0.000000,0.000000,3.496313,0.007093,-0.001230,-0.001230,NaN,NaN
16/04/2018 14:50,469.057828,-30.000000,-30.030000,5.000000,19.823473,19.927521,19.790028,58.213030,19.440725,19.764017,19.143446,19.162025,20.081556,19.844547,19.729349,19.376331,19.550982,19.851978,20.037405,15.102929,12.367462,19.823473,19.927521,19.790028,25.811047,19.440725,19.764017,19.143446,19.162025,20.081556,19.844547,19.729349,19.376331,19.550982,19.851978,20.037405,15.102929,0.000000,0.000000,3.496313,0.007093,-0.001230,-0.001230,NaN,NaN
16/04/2018 14:50,474.981167,-30.000000,-30.010000,5.000000,19.814541,19.922304,19.795959,58.160299,19.431791,19.758801,19.141943,19.160522,20.075895,19.835114,19.723633,19.374329,19.545265,19.846262,20.024385,16.104250,12.361084,19.814541,19.922304,19.795959,25.795549,19.431791,19.758801,19.141943,19.160522,20.075895,19.835114,19.723633,19.374329,19.545265,19.846262,20.024385,16.104250,0.000000,0.000000,3.526271,0.007415,-0.001230,-0.001230,NaN,NaN
16/04/2018 14:50,479.101403,-30.000000,-30.000000,5.000000,19.817854,19.929333,19.791842,58.130387,19.435104,19.765829,19.148973,19.171268,20.074772,19.833977,19.718782,19.373194,19.544130,19.848841,20.037979,17.518909,12.350390,19.817854,19.929333,19.791842,25.786758,19.435104,19.765829,19.148973,19.171268,20.074772,19.833977,19.718782,19.373194,19.544130,19.848841,20.037979,17.518909,0.000000,0.000000,3.484329,0.007415,-0.001230,0.000058,NaN,-128.043548
16/04/2018 14:50,485.024742,-30.000000,-30.000000,5.000000,19.817469,19.925232,19.795172,57.997038,19.434721,19.765444,19.148588,19.174601,20.077326,19.843990,19.728794,19.375772,19.546709,19.843990,20.033175,18.862965,12.323172,19.817469,19.925232,19.795172,25.747568,19.434721,19.765444,19.148588,19.174601,20.077326,19.843990,19.728794,19.375772,19.546709,19.843990,20.033175,18.862965,0.000000,0.000000,3.535259,0.007093,-0.001230,-0.001230,NaN,NaN
16/04/2018 14:50,489.143977,-30.000000,-30.000000,5.000000,19.827116,19.923731,19.797388,57.959514,19.436935,19.767660,19.150805,19.180532,20.079159,19.842125,19.726929,19.377625,19.548561,19.849556,20.027649,19.697201,12.316709,19.827116,19.923731,19.797388,25.736540,19.436935,19.767660,19.150805,19.180532,20.079159,19.842125,19.726929,19.377625,19.548561,19.849556,20.027649,19.697201,0.000000,0.000000,3.487325,0.007093,-0.001230,-0.001230,NaN,NaN
16/04/2018 14:50,495.065316,-30.000000,-30.000000,5.000000,19.811735,19.915783,19.789440,57.872308,19.432703,19.759710,19.135422,19.165152,20.092752,19.852137,19.736942,19.387636,19.558573,19.852137,20.033882,20.902197,12.289298,19.811735,19.915783,19.789440,25.710911,19.432703,19.759710,19.135422,19.165152,20.092752,19.852137,19.736942,19.387636,19.558573,19.852137,20.033882,20.902197,0.000000,0.000000,3.526271,0.007415,0.000058,-0.001230,-128.043548,NaN
16/04/2018 14:50,500.988655,-30.000000,-30.010000,5.000000,19.821381,19.929146,19.795370,57.839352,19.431202,19.765642,19.156218,19.171082,20.087111,19.853872,19.738676,19.378223,19.556591,19.857588,20.039280,21.665531,12.287370,19.821381,19.929146,19.795370,25.701225,19.431202,19.765642,19.156218,19.171082,20.087111,19.853872,19.738676,19.378223,19.556591,19.857588,20.039280,21.665531,0.000000,0.000000,3.496313,0.007415,-0.001230,-0.001230,NaN,NaN
16/04/2018 14:50,505.107891,-30.000000,-30.000000,5.000000,19.824579,19.936060,19.798567,57.758734,19.434399,19.765123,19.151983,19.181711,20.100685,19.860149,19.744953,19.391935,19.562870,19.867582,20.056534,22.760818,12.271955,19.824579,19.936060,19.798567,25.677532,19.434399,19.765123,19.151983,19.181711,20.100685,19.860149,19.744953,19.391935,19.562870,19.867582,20.056534,22.760818,0.000000,0.000000,3.520280,0.007737,-0.001230,-0.001230,NaN,NaN
16/04/2018 14:50,511.029229,-30.000000,-30.010000,5.000000,19.824177,19.924509,19.805597,57.695353,19.437712,19.772152,19.151579,19.177591,20.088676,19.848021,19.732824,19.376089,19.550741,19.851736,20.044525,23.775333,12.264085,19.824177,19.924509,19.805597,25.658905,19.437712,19.772152,19.151579,19.177591,20.088676,19.848021,19.732824,19.376089,19.550741,19.851736,20.044525,23.775333,0.000000,0.000000,3.517284,0.007415,-0.001230,-0.001230,NaN,NaN
16/04/2018 14:50,516.952568,-30.000000,-30.010000,5.000000,19.826256,19.922873,19.800245,57.669497,19.424929,19.770517,19.153662,19.172241,20.090372,19.849735,19.734539,19.381519,19.563602,19.857166,20.046223,24.428267,12.253108,19.826256,19.922873,19.800245,25.651306,19.424929,19.770517,19.153662,19.172241,20.090372,19.849735,19.734539,19.381519,19.563602,19.857166,20.046223,24.428267,0.000000,0.000000,3.532263,0.007415,-0.001230,-0.001230,NaN,NaN
16/04/2018 14:50,521.073803,-30.000000,-30.040000,5.000000,19.833307,19.941071,19.796146,57.798284,19.443127,19.777567,19.156994,19.186722,20.085571,19.844883,19.729689,19.376669,19.555037,19.859749,20.037741,25.358006,12.278716,19.833307,19.941071,19.796146,25.689156,19.443127,19.777567,19.156994,19.186722,20.085571,19.844883,19.729689,19.376669,19.555037,19.859749,20.037741,25.358006,0.000000,0.000000,3.502304,0.007093,-0.002519,-0.001230,NaN,NaN
16/04/2018 14:51,526.997142,-30.000000,-30.050000,5.000000,19.835386,19.943150,19.801943,57.785603,19.437775,19.764784,19.155359,19.188803,20.087402,19.846733,19.735254,19.374802,19.556887,19.850451,20.039570,25.944845,12.281290,19.835386,19.943150,19.801943,25.685429,19.437775,19.764784,19.155359,19.188803,20.087402,19.846733,19.735254,19.374802,19.556887,19.850451,20.039570,25.944845,0.000000,0.000000,3.535259,0.007093,-0.001230,-0.001230,NaN,NaN
16/04/2018 14:51,531.118378,-30.000000,-30.020000,5.000000,19.831133,19.927750,19.793974,57.997545,19.433521,19.764246,19.147390,19.180834,20.078920,19.849316,19.726686,19.377384,19.552036,19.853031,20.034769,26.782604,12.322156,19.831133,19.927750,19.793974,25.747717,19.433521,19.764246,19.147390,19.180834,20.078920,19.849316,19.726686,19.377384,19.552036,19.853031,20.034769,26.782604,0.000000,0.000000,3.496313,0.007093,-0.001230,-0.001230,NaN,NaN
16/04/2018 14:51,537.041717,-30.000000,-30.010000,5.000000,19.834465,19.931080,19.797306,57.776984,19.436852,19.775009,19.154436,19.180449,20.096346,19.863199,19.748003,19.398699,19.562202,19.863199,20.048515,27.591080,12.274940,19.834465,19.931080,19.797306,25.682896,19.436852,19.775009,19.154436,19.180449,20.096346,19.863199,19.748003,19.398699,19.562202,19.863199,20.048515,27.591080,0.000000,0.000000,3.502304,0.007093,-0.001230,0.000058,NaN,-128.045028
16/04/2018 14:51,542.965055,-30.000000,-30.010000,5.000000,19.832964,19.925865,19.795805,57.710060,19.431639,19.758644,19.152937,19.175234,20.109213,19.868763,19.749851,19.396832,19.564053,19.868763,20.054024,28.096975,12.258206,19.832964,19.925865,19.795805,25.663227,19.431639,19.758644,19.152937,19.175234,20.109213,19.868763,19.749851,19.396832,19.564053,19.868763,20.054024,28.096975,0.000000,0.000000,3.514288,0.007093,-0.001230,-0.001230,NaN,NaN
16/04/2018 14:51,547.084291,-30.000000,-30.030000,5.000000,19.840014,19.940346,19.795422,57.256776,19.431253,19.773125,19.159986,19.185997,20.097206,19.864067,19.748871,19.392134,19.570503,19.864067,20.049374,28.813465,12.153680,19.840014,19.940346,19.795422,25.530010,19.431253,19.773125,19.159986,19.185997,20.097206,19.864067,19.748871,19.392134,19.570503,19.864067,20.049374,28.813465,0.000000,0.000000,3.496313,0.007415,-0.001230,-0.001230,NaN,NaN
16/04/2018 14:51,553.005630,-30.000000,-30.040000,5.000000,19.830809,19.934858,19.797367,58.296686,19.436913,19.771355,19.161930,19.187943,20.095358,19.854771,19.739573,19.382837,19.550056,19.858486,20.043848,29.267849,12.393391,19.830809,19.934858,19.797367,25.835632,19.436913,19.771355,19.161930,19.187943,20.095358,19.854771,19.739573,19.382837,19.550056,19.858486,20.043848,29.267849,0.000000,0.000000,3.547243,0.007093,-0.001230,-0.001230,NaN,NaN
16/04/2018 14:51,557.116865,-30.000000,-30.030000,5.000000,19.845139,19.945471,19.807978,57.118865,19.440094,19.785683,19.168827,19.191122,20.097912,19.857349,19.734722,19.385418,19.556355,19.861065,20.053761,29.936357,12.133685,19.845139,19.945471,19.807978,25.489479,19.440094,19.785683,19.168827,19.191122,20.097912,19.857349,19.734722,19.385418,19.556355,19.861065,20.053761,29.936357,0.000000,0.000000,3.535259,0.007093,-0.001230,-0.001230,NaN,NaN
16/04/2018 14:51,563.039204,-30.000000,-30.020000,5.000000,19.829889,19.937654,19.800163,56.976897,19.428562,19.766718,19.157293,19.179590,20.085886,19.856352,19.733723,19.380703,19.547922,19.848919,20.038055,30.540792,12.093462,19.829889,19.937654,19.800163,25.447756,19.428562,19.766718,19.157293,19.179590,20.085886,19.856352,19.733723,19.380703,19.547922,19.848919,20.038055,30.540792,0.000000,0.000000,3.580197,0.007093,-0.001230,-0.001230,NaN,NaN
16/04/2018 14:51,568.963542,-30.000000,-30.020000,5.000000,19.831970,19.928587,19.794811,56.917572,19.430643,19.772514,19.144510,19.192818,20.098774,19.865650,19.739307,19.390003,19.553507,19.858219,20.043585,30.939745,12.074665,19.831970,19.928587,19.794811,25.430321,19.430643,19.772514,19.144510,19.192818,20.098774,19.865650,19.739307,19.390003,19.553507,19.858219,20.043585,30.939745,0.000000,0.000000,3.493317,0.007093,0.000058,-0.001230,-128.045028,NaN
